%!PS-Adobe-3.0 EPSF-3.0 
%%BoundingBox: 0 0 522 288
%%Pages: 0
%%Creator: Sun Microsystems, Inc.
%%Title: none
%%CreationDate: none
%%LanguageLevel: 2
%%EndComments
%%BeginProlog
%%BeginResource: procset SDRes-Prolog 1.0 0
/b4_inc_state save def
/dict_count countdictstack def
/op_count count 1 sub def
userdict begin
0 setgray 0 setlinecap 1 setlinewidth 0 setlinejoin 10 setmiterlimit[] 0 setdash newpath
/languagelevel where {pop languagelevel 1 ne {false setstrokeadjust false setoverprint} if} if
/bdef {bind def} bind def
/c {setgray} bdef
/l {neg lineto} bdef
/rl {neg rlineto} bdef
/lc {setlinecap} bdef
/lj {setlinejoin} bdef
/lw {setlinewidth} bdef
/ml {setmiterlimit} bdef
/ld {setdash} bdef
/m {neg moveto} bdef
/ct {6 2 roll neg 6 2 roll neg 6 2 roll neg curveto} bdef
/r {rotate} bdef
/t {neg translate} bdef
/s {scale} bdef
/sw {show} bdef
/gs {gsave} bdef
/gr {grestore} bdef
/f {findfont dup length dict begin
{1 index /FID ne {def} {pop pop} ifelse} forall /Encoding ISOLatin1Encoding def
currentdict end /NFont exch definefont pop /NFont findfont} bdef
/p {closepath} bdef
/sf {scalefont setfont} bdef
/ef {eofill}bdef
/pc {closepath stroke}bdef
/ps {stroke}bdef
/pum {matrix currentmatrix}bdef
/pom {setmatrix}bdef
/bs {/aString exch def /nXOfs exch def /nWidth exch def currentpoint nXOfs 0 rmoveto pum nWidth aString stringwidth pop div 1 scale aString show pom moveto} bdef
%%EndResource
%%EndProlog
%%BeginSetup
%%EndSetup
%%Page: 1 1
%%BeginPageSetup
%%EndPageSetup
pum
0.02834 0.02833 s 
0 -10164 t
/tm matrix currentmatrix def
tm setmatrix
-719 -9701 t 
1 1 s 
0.996 c 4530 13512 m  8341 13512 l  8341 14783 l  4530 14783 l  4530 13512 l 
4530 13512 l  p ef
0 lw 1 lj 0.000 c 4530 13512 m  8341 13512 l  8341 14783 l  4530 14783 l 
4530 13512 l  4530 13512 l  pc
pum
5220 14368 t
128 6 m  95 6 69 -3 52 -21 ct 35 -39 27 -63 27 -94 ct 27 -117 31 -135 40 -149 ct 
48 -163 59 -174 72 -183 ct 86 -191 101 -196 119 -199 ct 136 -203 154 -204 172 -204 ct 
247 -204 l  247 -223 l  247 -237 246 -248 243 -258 ct 240 -268 235 -276 229 -282 ct 
223 -288 216 -292 207 -295 ct 198 -298 187 -299 175 -299 ct 164 -299 155 -299 146 -297 ct 
137 -296 130 -293 123 -289 ct 117 -285 112 -279 108 -272 ct 104 -265 101 -257 100 -246 ct 
42 -251 l  44 -265 48 -277 54 -288 ct 59 -299 68 -309 78 -317 ct 89 -325 102 -331 118 -335 ct 
134 -340 154 -342 176 -342 ct 219 -342 250 -332 272 -313 ct 293 -294 304 -266 304 -229 ct 
304 -85 l  304 -68 306 -55 310 -47 ct 314 -39 323 -35 335 -35 ct 338 -35 341 -35 344 -35 ct 
347 -36 350 -36 353 -37 ct 353 -2 l  346 0 339 1 332 2 ct 325 3 318 3 310 3 ct 
300 3 290 2 283 -1 ct 275 -4 269 -8 264 -14 ct 260 -20 256 -27 254 -35 ct 251 -43 250 -53 249 -64 ct 
247 -64 l  241 -54 235 -44 227 -35 ct 220 -27 212 -19 202 -13 ct 193 -7 182 -2 170 1 ct 
158 4 144 6 128 6 ct p
141 -36 m  159 -36 174 -39 188 -46 ct 201 -52 212 -60 221 -70 ct 230 -80 236 -91 241 -103 ct 
245 -115 247 -127 247 -138 ct 247 -165 l  186 -165 l  172 -165 159 -164 147 -162 ct 
135 -161 124 -157 115 -152 ct 105 -147 98 -139 93 -130 ct 87 -121 84 -108 84 -93 ct 
84 -75 89 -61 99 -51 ct 109 -41 123 -36 141 -36 ct p ef
448 -336 m  448 -123 l  448 -107 450 -93 452 -82 ct 454 -71 458 -62 464 -56 ct 
469 -49 476 -44 485 -41 ct 494 -39 504 -37 518 -37 ct 531 -37 543 -39 553 -44 ct 
564 -49 573 -55 581 -64 ct 588 -73 594 -84 598 -97 ct 602 -110 604 -125 604 -141 ct 
604 -336 l  660 -336 l  660 -72 l  660 -65 660 -57 660 -50 ct 660 -42 661 -35 661 -28 ct 
661 -21 661 -15 661 -10 ct 662 -5 662 -2 662 0 ct 609 0 l  609 -1 609 -4 609 -9 ct 
608 -13 608 -18 608 -24 ct 608 -30 607 -36 607 -42 ct 607 -48 607 -53 607 -58 ct 
606 -58 l  601 -48 595 -39 588 -31 ct 582 -23 574 -17 566 -11 ct 557 -6 548 -2 537 2 ct 
526 4 513 6 499 6 ct 480 6 464 4 451 -1 ct 437 -5 426 -12 417 -22 ct 409 -31 402 -44 398 -59 ct 
394 -73 392 -91 392 -112 ct 392 -336 l  448 -336 l  p ef
875 -2 m  866 0 858 2 849 3 ct 840 4 830 5 818 5 ct 774 5 751 -20 751 -71 ct 751 -295 l 
713 -295 l  713 -336 l  754 -336 l  770 -411 l  807 -411 l  807 -336 l 
869 -336 l  869 -295 l  807 -295 l  807 -83 l  807 -67 810 -56 815 -49 ct 
820 -43 830 -39 843 -39 ct 848 -39 853 -40 858 -41 ct 863 -41 869 -42 875 -44 ct 
875 -2 l  p ef
1207 -168 m  1207 -110 1195 -66 1169 -37 ct 1143 -8 1105 6 1056 6 ct 1033 6 1012 2 994 -5 ct 
975 -12 960 -22 947 -37 ct 934 -51 924 -69 918 -91 ct 911 -113 908 -139 908 -168 ct 
908 -284 958 -342 1058 -342 ct 1084 -342 1107 -339 1125 -331 ct 1144 -324 1160 -313 1172 -299 ct 
1184 -284 1193 -266 1199 -245 ct 1205 -223 1207 -197 1207 -168 ct p
1149 -168 m  1149 -195 1147 -216 1143 -233 ct 1139 -250 1133 -264 1125 -274 ct 
1117 -284 1108 -291 1097 -295 ct 1086 -299 1073 -301 1059 -301 ct 1045 -301 1032 -299 1020 -295 ct 
1009 -290 999 -283 991 -273 ct 983 -263 977 -249 973 -232 ct 968 -215 966 -194 966 -168 ct 
966 -142 969 -121 973 -104 ct 978 -87 984 -73 992 -63 ct 1000 -53 1009 -46 1020 -41 ct 
1031 -37 1043 -35 1056 -35 ct 1070 -35 1083 -37 1094 -41 ct 1106 -45 1116 -52 1124 -63 ct 
1132 -73 1138 -86 1142 -104 ct 1147 -121 1149 -142 1149 -168 ct p ef
1317 -170 m  1317 -150 1319 -133 1321 -117 ct 1324 -100 1329 -86 1336 -75 ct 
1342 -63 1351 -54 1362 -48 ct 1373 -41 1386 -38 1402 -38 ct 1422 -38 1438 -43 1452 -54 ct 
1465 -64 1473 -80 1476 -102 ct 1533 -102 l  1531 -88 1527 -74 1521 -61 ct 1514 -48 1506 -37 1495 -27 ct 
1485 -17 1472 -9 1456 -3 ct 1441 3 1424 6 1403 6 ct 1377 6 1355 2 1336 -7 ct 1318 -16 1303 -28 1292 -44 ct 
1280 -60 1272 -78 1267 -99 ct 1262 -121 1259 -144 1259 -168 ct 1259 -191 1261 -211 1265 -228 ct 
1268 -245 1274 -260 1280 -273 ct 1287 -286 1295 -297 1304 -306 ct 1313 -315 1323 -322 1334 -327 ct 
1344 -332 1355 -336 1367 -338 ct 1379 -341 1391 -342 1403 -342 ct 1422 -342 1438 -339 1453 -334 ct 
1468 -329 1480 -322 1491 -313 ct 1502 -304 1510 -293 1517 -281 ct 1524 -269 1528 -256 1531 -242 ct 
1474 -237 l  1471 -256 1463 -271 1452 -282 ct 1440 -293 1423 -298 1401 -298 ct 
1385 -298 1372 -296 1361 -290 ct 1351 -285 1342 -277 1336 -266 ct 1329 -256 1324 -242 1321 -226 ct 
1319 -210 1317 -191 1317 -170 ct p ef
1875 -168 m  1875 -110 1863 -66 1837 -37 ct 1811 -8 1773 6 1724 6 ct 1701 6 1680 2 1662 -5 ct 
1643 -12 1628 -22 1615 -37 ct 1602 -51 1592 -69 1586 -91 ct 1579 -113 1576 -139 1576 -168 ct 
1576 -284 1626 -342 1726 -342 ct 1752 -342 1775 -339 1793 -331 ct 1812 -324 1828 -313 1840 -299 ct 
1852 -284 1861 -266 1867 -245 ct 1873 -223 1875 -197 1875 -168 ct p
1817 -168 m  1817 -195 1815 -216 1811 -233 ct 1807 -250 1801 -264 1793 -274 ct 
1785 -284 1776 -291 1765 -295 ct 1754 -299 1741 -301 1727 -301 ct 1713 -301 1700 -299 1688 -295 ct 
1677 -290 1667 -283 1659 -273 ct 1651 -263 1645 -249 1641 -232 ct 1636 -215 1634 -194 1634 -168 ct 
1634 -142 1637 -121 1641 -104 ct 1646 -87 1652 -73 1660 -63 ct 1668 -53 1677 -46 1688 -41 ct 
1699 -37 1711 -35 1724 -35 ct 1738 -35 1751 -37 1762 -41 ct 1774 -45 1784 -52 1792 -63 ct 
1800 -73 1806 -86 1810 -104 ct 1815 -121 1817 -142 1817 -168 ct p ef
2157 0 m  2157 -213 l  2157 -229 2156 -243 2153 -254 ct 2151 -265 2147 -274 2142 -280 ct 
2136 -287 2129 -292 2120 -295 ct 2112 -297 2101 -299 2088 -299 ct 2074 -299 2062 -297 2052 -292 ct 
2041 -287 2032 -281 2025 -272 ct 2017 -263 2011 -252 2007 -239 ct 2003 -226 2001 -211 2001 -195 ct 
2001 0 l  1945 0 l  1945 -264 l  1945 -271 1945 -279 1945 -286 ct 1945 -294 1945 -301 1944 -308 ct 
1944 -315 1944 -321 1944 -326 ct 1944 -331 1943 -334 1943 -336 ct 1996 -336 l 
1996 -335 1996 -332 1997 -327 ct 1997 -323 1997 -318 1997 -312 ct 1998 -306 1998 -300 1998 -294 ct 
1998 -288 1998 -283 1998 -278 ct 1999 -278 l  2005 -288 2011 -297 2017 -305 ct 
2023 -313 2031 -319 2039 -325 ct 2048 -330 2057 -335 2068 -338 ct 2079 -341 2092 -342 2107 -342 ct 
2125 -342 2141 -340 2155 -335 ct 2168 -331 2179 -324 2188 -314 ct 2196 -305 2203 -292 2207 -277 ct 
2211 -262 2213 -244 2213 -224 ct 2213 0 l  2157 0 l  p ef
2364 -295 m  2364 0 l  2308 0 l  2308 -295 l  2261 -295 l  2261 -336 l 
2308 -336 l  2308 -374 l  2308 -386 2309 -397 2312 -408 ct 2314 -418 2318 -427 2324 -435 ct 
2330 -443 2339 -449 2349 -453 ct 2360 -458 2373 -460 2390 -460 ct 2397 -460 2403 -460 2411 -459 ct 
2418 -458 2424 -458 2429 -456 ct 2429 -414 l  2426 -414 2422 -415 2417 -415 ct 
2412 -416 2408 -416 2405 -416 ct 2396 -416 2390 -415 2384 -413 ct 2379 -411 2375 -407 2372 -403 ct 
2369 -399 2367 -394 2366 -387 ct 2365 -381 2364 -374 2364 -366 ct 2364 -336 l 
2429 -336 l  2429 -295 l  2364 -295 l  p ef
pom
0.996 c 11515 16052 m  16650 16052 l  16650 17323 l  11515 17323 l  11515 16052 l 
11515 16052 l  p ef
0.000 c 11515 16052 m  16650 16052 l  16650 17323 l  11515 17323 l  11515 16052 l 
11515 16052 l  pc
pum
12302 16908 t
85 -170 m  85 -150 87 -133 89 -117 ct 92 -100 97 -86 104 -75 ct 110 -63 119 -54 130 -48 ct 
141 -41 154 -38 170 -38 ct 190 -38 206 -43 220 -54 ct 233 -64 241 -80 244 -102 ct 
301 -102 l  299 -88 295 -74 289 -61 ct 282 -48 274 -37 263 -27 ct 253 -17 240 -9 224 -3 ct 
209 3 192 6 171 6 ct 145 6 123 2 104 -7 ct 86 -16 71 -28 60 -44 ct 48 -60 40 -78 35 -99 ct 
30 -121 27 -144 27 -168 ct 27 -191 29 -211 33 -228 ct 36 -245 42 -260 48 -273 ct 
55 -286 63 -297 72 -306 ct 81 -315 91 -322 102 -327 ct 112 -332 123 -336 135 -338 ct 
147 -341 159 -342 171 -342 ct 190 -342 206 -339 221 -334 ct 236 -329 248 -322 259 -313 ct 
270 -304 278 -293 285 -281 ct 292 -269 296 -256 299 -242 ct 242 -237 l  239 -256 231 -271 220 -282 ct 
208 -293 191 -298 169 -298 ct 153 -298 140 -296 129 -290 ct 119 -285 110 -277 104 -266 ct 
97 -256 92 -242 89 -226 ct 87 -210 85 -191 85 -170 ct p ef
644 -168 m  644 -110 632 -66 606 -37 ct 580 -8 542 6 493 6 ct 470 6 449 2 431 -5 ct 
412 -12 397 -22 384 -37 ct 371 -51 361 -69 355 -91 ct 348 -113 345 -139 345 -168 ct 
345 -284 395 -342 495 -342 ct 521 -342 544 -339 562 -331 ct 581 -324 597 -313 609 -299 ct 
621 -284 630 -266 636 -245 ct 642 -223 644 -197 644 -168 ct p
586 -168 m  586 -195 584 -216 580 -233 ct 576 -250 570 -264 562 -274 ct 554 -284 545 -291 534 -295 ct 
523 -299 510 -301 496 -301 ct 482 -301 469 -299 457 -295 ct 446 -290 436 -283 428 -273 ct 
420 -263 414 -249 410 -232 ct 405 -215 403 -194 403 -168 ct 403 -142 406 -121 410 -104 ct 
415 -87 421 -73 429 -63 ct 437 -53 446 -46 457 -41 ct 468 -37 480 -35 493 -35 ct 
507 -35 520 -37 531 -41 ct 543 -45 553 -52 561 -63 ct 569 -73 575 -86 579 -104 ct 
584 -121 586 -142 586 -168 ct p ef
925 0 m  925 -213 l  925 -229 924 -243 921 -254 ct 919 -265 915 -274 910 -280 ct 
904 -287 897 -292 888 -295 ct 880 -297 869 -299 856 -299 ct 842 -299 830 -297 820 -292 ct 
809 -287 800 -281 793 -272 ct 785 -263 779 -252 775 -239 ct 771 -226 769 -211 769 -195 ct 
769 0 l  713 0 l  713 -264 l  713 -271 713 -279 713 -286 ct 713 -294 713 -301 712 -308 ct 
712 -315 712 -321 712 -326 ct 712 -331 711 -334 711 -336 ct 764 -336 l  764 -335 764 -332 765 -327 ct 
765 -323 765 -318 765 -312 ct 766 -306 766 -300 766 -294 ct 766 -288 766 -283 766 -278 ct 
767 -278 l  773 -288 779 -297 785 -305 ct 791 -313 799 -319 807 -325 ct 816 -330 825 -335 836 -338 ct 
847 -341 860 -342 875 -342 ct 893 -342 909 -340 923 -335 ct 936 -331 947 -324 956 -314 ct 
964 -305 971 -292 975 -277 ct 979 -262 981 -244 981 -224 ct 981 0 l  925 0 l 
p ef
1132 -295 m  1132 0 l  1076 0 l  1076 -295 l  1029 -295 l  1029 -336 l 
1076 -336 l  1076 -374 l  1076 -386 1077 -397 1080 -408 ct 1082 -418 1086 -427 1092 -435 ct 
1098 -443 1107 -449 1117 -453 ct 1128 -458 1141 -460 1158 -460 ct 1165 -460 1171 -460 1179 -459 ct 
1186 -458 1192 -458 1197 -456 ct 1197 -414 l  1194 -414 1190 -415 1185 -415 ct 
1180 -416 1176 -416 1173 -416 ct 1164 -416 1158 -415 1152 -413 ct 1147 -411 1143 -407 1140 -403 ct 
1137 -399 1135 -394 1134 -387 ct 1133 -381 1132 -374 1132 -366 ct 1132 -336 l 
1197 -336 l  1197 -295 l  1132 -295 l  p ef
1240 -407 m  1240 -460 l  1296 -460 l  1296 -407 l  1240 -407 l  p
1240 1 m  1240 -335 l  1296 -335 l  1296 1 l  1240 1 l  p ef
1508 132 m  1489 132 1472 130 1457 126 ct 1442 122 1429 117 1419 109 ct 1408 102 1399 93 1393 83 ct 
1386 73 1382 61 1379 49 ct 1435 41 l  1438 56 1447 68 1459 77 ct 1472 85 1489 89 1509 89 ct 
1522 89 1534 88 1544 84 ct 1554 81 1563 75 1570 67 ct 1577 59 1583 49 1587 37 ct 
1591 25 1593 9 1593 -8 ct 1593 -63 l  1592 -63 l  1588 -54 1583 -46 1577 -38 ct 
1571 -30 1563 -24 1555 -18 ct 1546 -12 1536 -7 1524 -3 ct 1512 0 1499 2 1484 2 ct 
1463 2 1445 -1 1430 -8 ct 1414 -16 1402 -26 1392 -41 ct 1383 -55 1376 -73 1371 -94 ct 
1367 -115 1365 -139 1365 -167 ct 1365 -194 1367 -218 1371 -240 ct 1376 -261 1383 -280 1393 -295 ct 
1403 -310 1416 -321 1432 -329 ct 1448 -337 1468 -341 1491 -341 ct 1514 -341 1535 -336 1552 -325 ct 
1570 -314 1583 -298 1593 -278 ct 1593 -278 l  1593 -284 1594 -289 1594 -296 ct 
1594 -302 1595 -308 1595 -314 ct 1595 -320 1596 -324 1596 -329 ct 1596 -333 1597 -335 1597 -336 ct 
1650 -336 l  1650 -334 1650 -331 1650 -326 ct 1649 -322 1649 -316 1649 -310 ct 
1649 -304 1649 -297 1649 -290 ct 1648 -282 1648 -274 1648 -266 ct 1648 -10 l 
1648 37 1637 73 1614 96 ct 1591 120 1555 132 1508 132 ct p
1593 -168 m  1593 -191 1590 -211 1585 -228 ct 1580 -245 1574 -258 1565 -269 ct 
1557 -279 1548 -287 1537 -292 ct 1526 -297 1515 -299 1504 -299 ct 1490 -299 1478 -297 1467 -292 ct 
1457 -287 1449 -279 1442 -269 ct 1435 -258 1430 -244 1427 -228 ct 1424 -211 1422 -191 1422 -168 ct 
1422 -144 1424 -123 1427 -107 ct 1430 -91 1435 -77 1442 -67 ct 1448 -57 1457 -50 1467 -46 ct 
1477 -41 1489 -39 1503 -39 ct 1514 -39 1525 -41 1536 -46 ct 1547 -51 1556 -58 1565 -69 ct 
1573 -79 1580 -92 1585 -109 ct 1590 -125 1593 -145 1593 -168 ct p ef
1747 0 m  1747 -68 l  1807 -68 l  1807 0 l  1747 0 l  p ef
2162 -93 m  2162 -77 2159 -63 2152 -51 ct 2146 -39 2137 -28 2126 -20 ct 2114 -12 2100 -5 2083 -1 ct 
2066 4 2047 6 2025 6 ct 2006 6 1988 4 1973 2 ct 1957 -2 1944 -6 1932 -13 ct 1920 -20 1910 -28 1902 -39 ct 
1894 -50 1888 -63 1885 -79 ct 1934 -89 l  1939 -71 1949 -57 1963 -49 ct 1978 -41 1999 -37 2025 -37 ct 
2037 -37 2048 -37 2058 -39 ct 2068 -41 2077 -44 2084 -48 ct 2092 -52 2097 -57 2101 -64 ct 
2105 -70 2107 -79 2107 -89 ct 2107 -99 2105 -107 2100 -114 ct 2095 -120 2089 -126 2080 -130 ct 
2072 -134 2062 -138 2049 -141 ct 2037 -144 2024 -148 2010 -152 ct 1996 -155 1983 -159 1970 -164 ct 
1956 -168 1944 -174 1934 -181 ct 1923 -188 1915 -197 1908 -207 ct 1901 -218 1898 -231 1898 -247 ct 
1898 -278 1909 -301 1931 -317 ct 1953 -333 1984 -341 2026 -341 ct 2063 -341 2092 -335 2114 -322 ct 
2136 -309 2150 -288 2156 -259 ct 2105 -253 l  2104 -261 2100 -269 2095 -275 ct 
2090 -281 2084 -285 2077 -289 ct 2070 -293 2062 -295 2054 -297 ct 2045 -298 2036 -299 2026 -299 ct 
2001 -299 1982 -295 1970 -288 ct 1958 -280 1952 -268 1952 -253 ct 1952 -244 1954 -236 1959 -230 ct 
1963 -224 1970 -219 1978 -215 ct 1985 -211 1995 -208 2006 -205 ct 2017 -202 2030 -199 2043 -195 ct 
2052 -193 2061 -191 2070 -188 ct 2080 -186 2089 -182 2098 -179 ct 2106 -175 2115 -171 2122 -166 ct 
2130 -161 2137 -155 2143 -149 ct 2148 -142 2153 -134 2156 -125 ct 2160 -116 2162 -105 2162 -93 ct 
p ef
2356 -2 m  2347 0 2339 2 2330 3 ct 2321 4 2311 5 2299 5 ct 2255 5 2232 -20 2232 -71 ct 
2232 -295 l  2194 -295 l  2194 -336 l  2235 -336 l  2251 -411 l  2288 -411 l 
2288 -336 l  2350 -336 l  2350 -295 l  2288 -295 l  2288 -83 l  2288 -67 2291 -56 2296 -49 ct 
2301 -43 2311 -39 2324 -39 ct 2329 -39 2334 -40 2339 -41 ct 2344 -41 2350 -42 2356 -44 ct 
2356 -2 l  p ef
2490 6 m  2457 6 2431 -3 2414 -21 ct 2397 -39 2389 -63 2389 -94 ct 2389 -117 2393 -135 2402 -149 ct 
2410 -163 2421 -174 2434 -183 ct 2448 -191 2463 -196 2481 -199 ct 2498 -203 2516 -204 2534 -204 ct 
2609 -204 l  2609 -223 l  2609 -237 2608 -248 2605 -258 ct 2602 -268 2597 -276 2591 -282 ct 
2585 -288 2578 -292 2569 -295 ct 2560 -298 2549 -299 2537 -299 ct 2526 -299 2517 -299 2508 -297 ct 
2499 -296 2492 -293 2485 -289 ct 2479 -285 2474 -279 2470 -272 ct 2466 -265 2463 -257 2462 -246 ct 
2404 -251 l  2406 -265 2410 -277 2416 -288 ct 2421 -299 2430 -309 2440 -317 ct 
2451 -325 2464 -331 2480 -335 ct 2496 -340 2516 -342 2538 -342 ct 2581 -342 2612 -332 2634 -313 ct 
2655 -294 2666 -266 2666 -229 ct 2666 -85 l  2666 -68 2668 -55 2672 -47 ct 2676 -39 2685 -35 2697 -35 ct 
2700 -35 2703 -35 2706 -35 ct 2709 -36 2712 -36 2715 -37 ct 2715 -2 l  2708 0 2701 1 2694 2 ct 
2687 3 2680 3 2672 3 ct 2662 3 2652 2 2645 -1 ct 2637 -4 2631 -8 2626 -14 ct 2622 -20 2618 -27 2616 -35 ct 
2613 -43 2612 -53 2611 -64 ct 2609 -64 l  2603 -54 2597 -44 2589 -35 ct 2582 -27 2574 -19 2564 -13 ct 
2555 -7 2544 -2 2532 1 ct 2520 4 2506 6 2490 6 ct p
2503 -36 m  2521 -36 2536 -39 2550 -46 ct 2563 -52 2574 -60 2583 -70 ct 2592 -80 2598 -91 2603 -103 ct 
2607 -115 2609 -127 2609 -138 ct 2609 -165 l  2548 -165 l  2534 -165 2521 -164 2509 -162 ct 
2497 -161 2486 -157 2477 -152 ct 2467 -147 2460 -139 2455 -130 ct 2449 -121 2446 -108 2446 -93 ct 
2446 -75 2451 -61 2461 -51 ct 2471 -41 2485 -36 2503 -36 ct p ef
2886 -2 m  2877 0 2869 2 2860 3 ct 2851 4 2841 5 2829 5 ct 2785 5 2762 -20 2762 -71 ct 
2762 -295 l  2724 -295 l  2724 -336 l  2765 -336 l  2781 -411 l  2818 -411 l 
2818 -336 l  2880 -336 l  2880 -295 l  2818 -295 l  2818 -83 l  2818 -67 2821 -56 2826 -49 ct 
2831 -43 2841 -39 2854 -39 ct 2859 -39 2864 -40 2869 -41 ct 2874 -41 2880 -42 2886 -44 ct 
2886 -2 l  p ef
2988 -336 m  2988 -123 l  2988 -107 2990 -93 2992 -82 ct 2994 -71 2998 -62 3004 -56 ct 
3009 -49 3016 -44 3025 -41 ct 3034 -39 3044 -37 3058 -37 ct 3071 -37 3083 -39 3093 -44 ct 
3104 -49 3113 -55 3121 -64 ct 3128 -73 3134 -84 3138 -97 ct 3142 -110 3144 -125 3144 -141 ct 
3144 -336 l  3200 -336 l  3200 -72 l  3200 -65 3200 -57 3200 -50 ct 3200 -42 3201 -35 3201 -28 ct 
3201 -21 3201 -15 3201 -10 ct 3202 -5 3202 -2 3202 0 ct 3149 0 l  3149 -1 3149 -4 3149 -9 ct 
3148 -13 3148 -18 3148 -24 ct 3148 -30 3147 -36 3147 -42 ct 3147 -48 3147 -53 3147 -58 ct 
3146 -58 l  3141 -48 3135 -39 3128 -31 ct 3122 -23 3114 -17 3106 -11 ct 3097 -6 3088 -2 3077 2 ct 
3066 4 3053 6 3039 6 ct 3020 6 3004 4 2991 -1 ct 2977 -5 2966 -12 2957 -22 ct 2949 -31 2942 -44 2938 -59 ct 
2934 -73 2932 -91 2932 -112 ct 2932 -336 l  2988 -336 l  p ef
3538 -93 m  3538 -77 3535 -63 3528 -51 ct 3522 -39 3513 -28 3502 -20 ct 3490 -12 3476 -5 3459 -1 ct 
3442 4 3423 6 3401 6 ct 3382 6 3364 4 3349 2 ct 3333 -2 3320 -6 3308 -13 ct 3296 -20 3286 -28 3278 -39 ct 
3270 -50 3264 -63 3261 -79 ct 3310 -89 l  3315 -71 3325 -57 3339 -49 ct 3354 -41 3375 -37 3401 -37 ct 
3413 -37 3424 -37 3434 -39 ct 3444 -41 3453 -44 3460 -48 ct 3468 -52 3473 -57 3477 -64 ct 
3481 -70 3483 -79 3483 -89 ct 3483 -99 3481 -107 3476 -114 ct 3471 -120 3465 -126 3456 -130 ct 
3448 -134 3438 -138 3425 -141 ct 3413 -144 3400 -148 3386 -152 ct 3372 -155 3359 -159 3346 -164 ct 
3332 -168 3320 -174 3310 -181 ct 3299 -188 3291 -197 3284 -207 ct 3277 -218 3274 -231 3274 -247 ct 
3274 -278 3285 -301 3307 -317 ct 3329 -333 3360 -341 3402 -341 ct 3439 -341 3468 -335 3490 -322 ct 
3512 -309 3526 -288 3532 -259 ct 3481 -253 l  3480 -261 3476 -269 3471 -275 ct 
3466 -281 3460 -285 3453 -289 ct 3446 -293 3438 -295 3430 -297 ct 3421 -298 3412 -299 3402 -299 ct 
3377 -299 3358 -295 3346 -288 ct 3334 -280 3328 -268 3328 -253 ct 3328 -244 3330 -236 3335 -230 ct 
3339 -224 3346 -219 3354 -215 ct 3361 -211 3371 -208 3382 -205 ct 3393 -202 3406 -199 3419 -195 ct 
3428 -193 3437 -191 3446 -188 ct 3456 -186 3465 -182 3474 -179 ct 3482 -175 3491 -171 3498 -166 ct 
3506 -161 3513 -155 3519 -149 ct 3524 -142 3529 -134 3532 -125 ct 3536 -116 3538 -105 3538 -93 ct 
p ef
pom
0.996 c 4530 9702 m  8341 9702 l  8341 10723 l  6832 10715 6883 10924 5521 10973 ct 
5034 10943 4856 10920 4530 10885 ct 4530 9702 l  p ef
0.000 c 4530 9702 m  8341 9702 l  8341 10723 l  6832 10715 6883 10924 5521 10973 ct 
5034 10943 4856 10920 4530 10885 ct 4530 9702 l  pc
pum
4710 10433 t
85 -170 m  85 -150 87 -133 89 -117 ct 92 -100 97 -86 104 -75 ct 110 -63 119 -54 130 -48 ct 
141 -41 154 -38 170 -38 ct 190 -38 206 -43 220 -54 ct 233 -64 241 -80 244 -102 ct 
301 -102 l  299 -88 295 -74 289 -61 ct 282 -48 274 -37 263 -27 ct 253 -17 240 -9 224 -3 ct 
209 3 192 6 171 6 ct 145 6 123 2 104 -7 ct 86 -16 71 -28 60 -44 ct 48 -60 40 -78 35 -99 ct 
30 -121 27 -144 27 -168 ct 27 -191 29 -211 33 -228 ct 36 -245 42 -260 48 -273 ct 
55 -286 63 -297 72 -306 ct 81 -315 91 -322 102 -327 ct 112 -332 123 -336 135 -338 ct 
147 -341 159 -342 171 -342 ct 190 -342 206 -339 221 -334 ct 236 -329 248 -322 259 -313 ct 
270 -304 278 -293 285 -281 ct 292 -269 296 -256 299 -242 ct 242 -237 l  239 -256 231 -271 220 -282 ct 
208 -293 191 -298 169 -298 ct 153 -298 140 -296 129 -290 ct 119 -285 110 -277 104 -266 ct 
97 -256 92 -242 89 -226 ct 87 -210 85 -191 85 -170 ct p ef
644 -168 m  644 -110 632 -66 606 -37 ct 580 -8 542 6 493 6 ct 470 6 449 2 431 -5 ct 
412 -12 397 -22 384 -37 ct 371 -51 361 -69 355 -91 ct 348 -113 345 -139 345 -168 ct 
345 -284 395 -342 495 -342 ct 521 -342 544 -339 562 -331 ct 581 -324 597 -313 609 -299 ct 
621 -284 630 -266 636 -245 ct 642 -223 644 -197 644 -168 ct p
586 -168 m  586 -195 584 -216 580 -233 ct 576 -250 570 -264 562 -274 ct 554 -284 545 -291 534 -295 ct 
523 -299 510 -301 496 -301 ct 482 -301 469 -299 457 -295 ct 446 -290 436 -283 428 -273 ct 
420 -263 414 -249 410 -232 ct 405 -215 403 -194 403 -168 ct 403 -142 406 -121 410 -104 ct 
415 -87 421 -73 429 -63 ct 437 -53 446 -46 457 -41 ct 468 -37 480 -35 493 -35 ct 
507 -35 520 -37 531 -41 ct 543 -45 553 -52 561 -63 ct 569 -73 575 -86 579 -104 ct 
584 -121 586 -142 586 -168 ct p ef
925 0 m  925 -213 l  925 -229 924 -243 921 -254 ct 919 -265 915 -274 910 -280 ct 
904 -287 897 -292 888 -295 ct 880 -297 869 -299 856 -299 ct 842 -299 830 -297 820 -292 ct 
809 -287 800 -281 793 -272 ct 785 -263 779 -252 775 -239 ct 771 -226 769 -211 769 -195 ct 
769 0 l  713 0 l  713 -264 l  713 -271 713 -279 713 -286 ct 713 -294 713 -301 712 -308 ct 
712 -315 712 -321 712 -326 ct 712 -331 711 -334 711 -336 ct 764 -336 l  764 -335 764 -332 765 -327 ct 
765 -323 765 -318 765 -312 ct 766 -306 766 -300 766 -294 ct 766 -288 766 -283 766 -278 ct 
767 -278 l  773 -288 779 -297 785 -305 ct 791 -313 799 -319 807 -325 ct 816 -330 825 -335 836 -338 ct 
847 -341 860 -342 875 -342 ct 893 -342 909 -340 923 -335 ct 936 -331 947 -324 956 -314 ct 
964 -305 971 -292 975 -277 ct 979 -262 981 -244 981 -224 ct 981 0 l  925 0 l 
p ef
1132 -295 m  1132 0 l  1076 0 l  1076 -295 l  1029 -295 l  1029 -336 l 
1076 -336 l  1076 -374 l  1076 -386 1077 -397 1080 -408 ct 1082 -418 1086 -427 1092 -435 ct 
1098 -443 1107 -449 1117 -453 ct 1128 -458 1141 -460 1158 -460 ct 1165 -460 1171 -460 1179 -459 ct 
1186 -458 1192 -458 1197 -456 ct 1197 -414 l  1194 -414 1190 -415 1185 -415 ct 
1180 -416 1176 -416 1173 -416 ct 1164 -416 1158 -415 1152 -413 ct 1147 -411 1143 -407 1140 -403 ct 
1137 -399 1135 -394 1134 -387 ct 1133 -381 1132 -374 1132 -366 ct 1132 -336 l 
1197 -336 l  1197 -295 l  1132 -295 l  p ef
1240 -407 m  1240 -460 l  1296 -460 l  1296 -407 l  1240 -407 l  p
1240 1 m  1240 -335 l  1296 -335 l  1296 1 l  1240 1 l  p ef
1508 132 m  1489 132 1472 130 1457 126 ct 1442 122 1429 117 1419 109 ct 1408 102 1399 93 1393 83 ct 
1386 73 1382 61 1379 49 ct 1435 41 l  1438 56 1447 68 1459 77 ct 1472 85 1489 89 1509 89 ct 
1522 89 1534 88 1544 84 ct 1554 81 1563 75 1570 67 ct 1577 59 1583 49 1587 37 ct 
1591 25 1593 9 1593 -8 ct 1593 -63 l  1592 -63 l  1588 -54 1583 -46 1577 -38 ct 
1571 -30 1563 -24 1555 -18 ct 1546 -12 1536 -7 1524 -3 ct 1512 0 1499 2 1484 2 ct 
1463 2 1445 -1 1430 -8 ct 1414 -16 1402 -26 1392 -41 ct 1383 -55 1376 -73 1371 -94 ct 
1367 -115 1365 -139 1365 -167 ct 1365 -194 1367 -218 1371 -240 ct 1376 -261 1383 -280 1393 -295 ct 
1403 -310 1416 -321 1432 -329 ct 1448 -337 1468 -341 1491 -341 ct 1514 -341 1535 -336 1552 -325 ct 
1570 -314 1583 -298 1593 -278 ct 1593 -278 l  1593 -284 1594 -289 1594 -296 ct 
1594 -302 1595 -308 1595 -314 ct 1595 -320 1596 -324 1596 -329 ct 1596 -333 1597 -335 1597 -336 ct 
1650 -336 l  1650 -334 1650 -331 1650 -326 ct 1649 -322 1649 -316 1649 -310 ct 
1649 -304 1649 -297 1649 -290 ct 1648 -282 1648 -274 1648 -266 ct 1648 -10 l 
1648 37 1637 73 1614 96 ct 1591 120 1555 132 1508 132 ct p
1593 -168 m  1593 -191 1590 -211 1585 -228 ct 1580 -245 1574 -258 1565 -269 ct 
1557 -279 1548 -287 1537 -292 ct 1526 -297 1515 -299 1504 -299 ct 1490 -299 1478 -297 1467 -292 ct 
1457 -287 1449 -279 1442 -269 ct 1435 -258 1430 -244 1427 -228 ct 1424 -211 1422 -191 1422 -168 ct 
1422 -144 1424 -123 1427 -107 ct 1430 -91 1435 -77 1442 -67 ct 1448 -57 1457 -50 1467 -46 ct 
1477 -41 1489 -39 1503 -39 ct 1514 -39 1525 -41 1536 -46 ct 1547 -51 1556 -58 1565 -69 ct 
1573 -79 1580 -92 1585 -109 ct 1590 -125 1593 -145 1593 -168 ct p ef
1786 -336 m  1786 -123 l  1786 -107 1788 -93 1790 -82 ct 1792 -71 1796 -62 1802 -56 ct 
1807 -49 1814 -44 1823 -41 ct 1832 -39 1842 -37 1856 -37 ct 1869 -37 1881 -39 1891 -44 ct 
1902 -49 1911 -55 1919 -64 ct 1926 -73 1932 -84 1936 -97 ct 1940 -110 1942 -125 1942 -141 ct 
1942 -336 l  1998 -336 l  1998 -72 l  1998 -65 1998 -57 1998 -50 ct 1998 -42 1999 -35 1999 -28 ct 
1999 -21 1999 -15 1999 -10 ct 2000 -5 2000 -2 2000 0 ct 1947 0 l  1947 -1 1947 -4 1947 -9 ct 
1946 -13 1946 -18 1946 -24 ct 1946 -30 1945 -36 1945 -42 ct 1945 -48 1945 -53 1945 -58 ct 
1944 -58 l  1939 -48 1933 -39 1926 -31 ct 1920 -23 1912 -17 1904 -11 ct 1895 -6 1886 -2 1875 2 ct 
1864 4 1851 6 1837 6 ct 1818 6 1802 4 1789 -1 ct 1775 -5 1764 -12 1755 -22 ct 1747 -31 1740 -44 1736 -59 ct 
1732 -73 1730 -91 1730 -112 ct 1730 -336 l  1786 -336 l  p ef
2084 0 m  2084 -258 l  2084 -265 2084 -272 2084 -279 ct 2084 -287 2084 -294 2083 -300 ct 
2083 -307 2083 -314 2083 -320 ct 2083 -326 2082 -331 2082 -336 ct 2135 -336 l 
2135 -331 2135 -326 2136 -320 ct 2136 -313 2136 -307 2137 -301 ct 2137 -294 2137 -288 2137 -282 ct 
2137 -276 2137 -271 2137 -267 ct 2139 -267 l  2143 -280 2147 -291 2151 -301 ct 
2156 -310 2161 -318 2167 -324 ct 2173 -330 2180 -335 2188 -338 ct 2196 -341 2207 -342 2218 -342 ct 
2223 -342 2227 -342 2231 -341 ct 2235 -340 2239 -340 2241 -339 ct 2241 -288 l 
2237 -289 2233 -290 2228 -290 ct 2223 -291 2217 -291 2211 -291 ct 2198 -291 2187 -288 2178 -282 ct 
2169 -276 2162 -268 2156 -258 ct 2151 -248 2147 -236 2144 -221 ct 2141 -207 2140 -192 2140 -175 ct 
2140 0 l  2084 0 l  p ef
2338 -156 m  2338 -139 2339 -122 2343 -108 ct 2347 -93 2352 -80 2360 -70 ct 
2367 -59 2377 -51 2389 -45 ct 2401 -39 2415 -36 2431 -36 ct 2455 -36 2475 -41 2489 -50 ct 
2504 -60 2514 -72 2519 -87 ct 2568 -73 l  2564 -64 2560 -55 2553 -45 ct 2547 -36 2539 -27 2528 -20 ct 
2517 -12 2504 -6 2488 -1 ct 2473 4 2454 6 2431 6 ct 2382 6 2344 -9 2318 -38 ct 
2292 -68 2279 -112 2279 -170 ct 2279 -202 2283 -228 2291 -250 ct 2299 -272 2309 -290 2323 -303 ct 
2337 -317 2353 -327 2371 -333 ct 2389 -339 2408 -342 2429 -342 ct 2457 -342 2481 -338 2500 -329 ct 
2519 -320 2534 -307 2545 -291 ct 2557 -275 2565 -256 2570 -234 ct 2575 -212 2577 -189 2577 -164 ct 
2577 -156 l  2338 -156 l  p
2519 -199 m  2516 -234 2507 -260 2492 -277 ct 2477 -293 2456 -301 2428 -301 ct 
2419 -301 2409 -300 2399 -296 ct 2389 -293 2379 -288 2370 -280 ct 2362 -273 2354 -262 2348 -249 ct 
2342 -236 2339 -219 2338 -199 ct 2519 -199 l  p ef
2662 0 m  2662 -68 l  2722 -68 l  2722 0 l  2662 0 l  p ef
2909 6 m  2876 6 2850 -3 2833 -21 ct 2816 -39 2808 -63 2808 -94 ct 2808 -117 2812 -135 2821 -149 ct 
2829 -163 2840 -174 2853 -183 ct 2867 -191 2882 -196 2900 -199 ct 2917 -203 2935 -204 2953 -204 ct 
3028 -204 l  3028 -223 l  3028 -237 3027 -248 3024 -258 ct 3021 -268 3016 -276 3010 -282 ct 
3004 -288 2997 -292 2988 -295 ct 2979 -298 2968 -299 2956 -299 ct 2945 -299 2936 -299 2927 -297 ct 
2918 -296 2911 -293 2904 -289 ct 2898 -285 2893 -279 2889 -272 ct 2885 -265 2882 -257 2881 -246 ct 
2823 -251 l  2825 -265 2829 -277 2835 -288 ct 2840 -299 2849 -309 2859 -317 ct 
2870 -325 2883 -331 2899 -335 ct 2915 -340 2935 -342 2957 -342 ct 3000 -342 3031 -332 3053 -313 ct 
3074 -294 3085 -266 3085 -229 ct 3085 -85 l  3085 -68 3087 -55 3091 -47 ct 3095 -39 3104 -35 3116 -35 ct 
3119 -35 3122 -35 3125 -35 ct 3128 -36 3131 -36 3134 -37 ct 3134 -2 l  3127 0 3120 1 3113 2 ct 
3106 3 3099 3 3091 3 ct 3081 3 3071 2 3064 -1 ct 3056 -4 3050 -8 3045 -14 ct 3041 -20 3037 -27 3035 -35 ct 
3032 -43 3031 -53 3030 -64 ct 3028 -64 l  3022 -54 3016 -44 3008 -35 ct 3001 -27 2993 -19 2983 -13 ct 
2974 -7 2963 -2 2951 1 ct 2939 4 2925 6 2909 6 ct p
2922 -36 m  2940 -36 2955 -39 2969 -46 ct 2982 -52 2993 -60 3002 -70 ct 3011 -80 3017 -91 3022 -103 ct 
3026 -115 3028 -127 3028 -138 ct 3028 -165 l  2967 -165 l  2953 -165 2940 -164 2928 -162 ct 
2916 -161 2905 -157 2896 -152 ct 2886 -147 2879 -139 2874 -130 ct 2868 -121 2865 -108 2865 -93 ct 
2865 -75 2870 -61 2880 -51 ct 2890 -41 2904 -36 2922 -36 ct p ef
3218 -170 m  3218 -150 3220 -133 3222 -117 ct 3225 -100 3230 -86 3237 -75 ct 
3243 -63 3252 -54 3263 -48 ct 3274 -41 3287 -38 3303 -38 ct 3323 -38 3339 -43 3353 -54 ct 
3366 -64 3374 -80 3377 -102 ct 3434 -102 l  3432 -88 3428 -74 3422 -61 ct 3415 -48 3407 -37 3396 -27 ct 
3386 -17 3373 -9 3357 -3 ct 3342 3 3325 6 3304 6 ct 3278 6 3256 2 3237 -7 ct 3219 -16 3204 -28 3193 -44 ct 
3181 -60 3173 -78 3168 -99 ct 3163 -121 3160 -144 3160 -168 ct 3160 -191 3162 -211 3166 -228 ct 
3169 -245 3175 -260 3181 -273 ct 3188 -286 3196 -297 3205 -306 ct 3214 -315 3224 -322 3235 -327 ct 
3245 -332 3256 -336 3268 -338 ct 3280 -341 3292 -342 3304 -342 ct 3323 -342 3339 -339 3354 -334 ct 
3369 -329 3381 -322 3392 -313 ct 3403 -304 3411 -293 3418 -281 ct 3425 -269 3429 -256 3432 -242 ct 
3375 -237 l  3372 -256 3364 -271 3353 -282 ct 3341 -293 3324 -298 3302 -298 ct 
3286 -298 3273 -296 3262 -290 ct 3252 -285 3243 -277 3237 -266 ct 3230 -256 3225 -242 3222 -226 ct 
3220 -210 3218 -191 3218 -170 ct p ef
pom
0.996 c 14690 13512 m  18501 13512 l  18501 14533 l  16992 14525 17043 14734 15681 14783 ct 
15194 14753 15016 14730 14690 14695 ct 14690 13512 l  p ef
0.000 c 14690 13512 m  18501 13512 l  18501 14533 l  16992 14525 17043 14734 15681 14783 ct 
15194 14753 15016 14730 14690 14695 ct 14690 13512 l  pc
pum
15082 14243 t
424 0 m  424 -292 l  424 -302 424 -313 424 -324 ct 424 -335 424 -345 425 -354 ct 
425 -365 426 -375 426 -385 ct 423 -374 420 -364 417 -353 ct 415 -345 412 -335 409 -325 ct 
405 -315 402 -306 399 -298 ct 286 0 l  245 0 l  130 -298 l  129 -301 128 -305 126 -309 ct 
125 -313 124 -317 122 -322 ct 120 -327 119 -331 117 -336 ct 116 -341 114 -346 113 -351 ct 
109 -362 106 -373 103 -385 ct 103 -373 103 -362 104 -350 ct 104 -341 104 -330 104 -320 ct 
105 -309 105 -300 105 -292 ct 105 0 l  52 0 l  52 -437 l  130 -437 l  246 -134 l 
248 -130 249 -125 251 -118 ct 254 -112 255 -105 257 -98 ct 259 -91 261 -85 262 -79 ct 
264 -73 265 -68 266 -65 ct 266 -68 267 -73 269 -79 ct 271 -85 273 -92 275 -98 ct 
277 -105 279 -112 281 -118 ct 283 -125 285 -130 287 -134 ct 401 -437 l  477 -437 l 
477 0 l  424 0 l  p ef
657 6 m  624 6 598 -3 581 -21 ct 564 -39 556 -63 556 -94 ct 556 -117 560 -135 569 -149 ct 
577 -163 588 -174 601 -183 ct 615 -191 630 -196 648 -199 ct 665 -203 683 -204 701 -204 ct 
776 -204 l  776 -223 l  776 -237 775 -248 772 -258 ct 769 -268 764 -276 758 -282 ct 
752 -288 745 -292 736 -295 ct 727 -298 716 -299 704 -299 ct 693 -299 684 -299 675 -297 ct 
666 -296 659 -293 652 -289 ct 646 -285 641 -279 637 -272 ct 633 -265 630 -257 629 -246 ct 
571 -251 l  573 -265 577 -277 583 -288 ct 588 -299 597 -309 607 -317 ct 618 -325 631 -331 647 -335 ct 
663 -340 683 -342 705 -342 ct 748 -342 779 -332 801 -313 ct 822 -294 833 -266 833 -229 ct 
833 -85 l  833 -68 835 -55 839 -47 ct 843 -39 852 -35 864 -35 ct 867 -35 870 -35 873 -35 ct 
876 -36 879 -36 882 -37 ct 882 -2 l  875 0 868 1 861 2 ct 854 3 847 3 839 3 ct 
829 3 819 2 812 -1 ct 804 -4 798 -8 793 -14 ct 789 -20 785 -27 783 -35 ct 780 -43 779 -53 778 -64 ct 
776 -64 l  770 -54 764 -44 756 -35 ct 749 -27 741 -19 731 -13 ct 722 -7 711 -2 699 1 ct 
687 4 673 6 657 6 ct p
670 -36 m  688 -36 703 -39 717 -46 ct 730 -52 741 -60 750 -70 ct 759 -80 765 -91 770 -103 ct 
774 -115 776 -127 776 -138 ct 776 -165 l  715 -165 l  701 -165 688 -164 676 -162 ct 
664 -161 653 -157 644 -152 ct 634 -147 627 -139 622 -130 ct 616 -121 613 -108 613 -93 ct 
613 -75 618 -61 628 -51 ct 638 -41 652 -36 670 -36 ct p ef
1134 1 m  1021 -153 l  980 -119 l  980 1 l  924 1 l  924 -460 l  980 -460 l 
980 -172 l  1127 -335 l  1192 -335 l  1056 -191 l  1199 1 l  1134 1 l 
p ef
1284 -156 m  1284 -139 1285 -122 1289 -108 ct 1293 -93 1298 -80 1306 -70 ct 
1313 -59 1323 -51 1335 -45 ct 1347 -39 1361 -36 1377 -36 ct 1401 -36 1421 -41 1435 -50 ct 
1450 -60 1460 -72 1465 -87 ct 1514 -73 l  1510 -64 1506 -55 1499 -45 ct 1493 -36 1485 -27 1474 -20 ct 
1463 -12 1450 -6 1434 -1 ct 1419 4 1400 6 1377 6 ct 1328 6 1290 -9 1264 -38 ct 
1238 -68 1225 -112 1225 -170 ct 1225 -202 1229 -228 1237 -250 ct 1245 -272 1255 -290 1269 -303 ct 
1283 -317 1299 -327 1317 -333 ct 1335 -339 1354 -342 1375 -342 ct 1403 -342 1427 -338 1446 -329 ct 
1465 -320 1480 -307 1491 -291 ct 1503 -275 1511 -256 1516 -234 ct 1521 -212 1523 -189 1523 -164 ct 
1523 -156 l  1284 -156 l  p
1465 -199 m  1462 -234 1453 -260 1438 -277 ct 1423 -293 1402 -301 1374 -301 ct 
1365 -301 1355 -300 1345 -296 ct 1335 -293 1325 -288 1316 -280 ct 1308 -273 1300 -262 1294 -249 ct 
1288 -236 1285 -219 1284 -199 ct 1465 -199 l  p ef
1661 -295 m  1661 0 l  1605 0 l  1605 -295 l  1558 -295 l  1558 -336 l 
1605 -336 l  1605 -374 l  1605 -386 1606 -397 1609 -408 ct 1611 -418 1615 -427 1621 -435 ct 
1627 -443 1636 -449 1646 -453 ct 1657 -458 1670 -460 1687 -460 ct 1694 -460 1700 -460 1708 -459 ct 
1715 -458 1721 -458 1726 -456 ct 1726 -414 l  1723 -414 1719 -415 1714 -415 ct 
1709 -416 1705 -416 1702 -416 ct 1693 -416 1687 -415 1681 -413 ct 1676 -411 1672 -407 1669 -403 ct 
1666 -399 1664 -394 1663 -387 ct 1662 -381 1661 -374 1661 -366 ct 1661 -336 l 
1726 -336 l  1726 -295 l  1661 -295 l  p ef
1769 -407 m  1769 -460 l  1825 -460 l  1825 -407 l  1769 -407 l  p
1769 1 m  1769 -335 l  1825 -335 l  1825 1 l  1769 1 l  p ef
1910 1 m  1910 -460 l  1966 -460 l  1966 1 l  1910 1 l  p ef
2093 -156 m  2093 -139 2094 -122 2098 -108 ct 2102 -93 2107 -80 2115 -70 ct 
2122 -59 2132 -51 2144 -45 ct 2156 -39 2170 -36 2186 -36 ct 2210 -36 2230 -41 2244 -50 ct 
2259 -60 2269 -72 2274 -87 ct 2323 -73 l  2319 -64 2315 -55 2308 -45 ct 2302 -36 2294 -27 2283 -20 ct 
2272 -12 2259 -6 2243 -1 ct 2228 4 2209 6 2186 6 ct 2137 6 2099 -9 2073 -38 ct 
2047 -68 2034 -112 2034 -170 ct 2034 -202 2038 -228 2046 -250 ct 2054 -272 2064 -290 2078 -303 ct 
2092 -317 2108 -327 2126 -333 ct 2144 -339 2163 -342 2184 -342 ct 2212 -342 2236 -338 2255 -329 ct 
2274 -320 2289 -307 2300 -291 ct 2312 -275 2320 -256 2325 -234 ct 2330 -212 2332 -189 2332 -164 ct 
2332 -156 l  2093 -156 l  p
2274 -199 m  2271 -234 2262 -260 2247 -277 ct 2232 -293 2211 -301 2183 -301 ct 
2174 -301 2164 -300 2154 -296 ct 2144 -293 2134 -288 2125 -280 ct 2117 -273 2109 -262 2103 -249 ct 
2097 -236 2094 -219 2093 -199 ct 2274 -199 l  p ef
2416 0 m  2416 -68 l  2476 -68 l  2476 0 l  2416 0 l  p ef
2578 -407 m  2578 -460 l  2634 -460 l  2634 -407 l  2578 -407 l  p
2578 1 m  2578 -335 l  2634 -335 l  2634 1 l  2578 1 l  p ef
2931 0 m  2931 -213 l  2931 -229 2930 -243 2927 -254 ct 2925 -265 2921 -274 2916 -280 ct 
2910 -287 2903 -292 2894 -295 ct 2886 -297 2875 -299 2862 -299 ct 2848 -299 2836 -297 2826 -292 ct 
2815 -287 2806 -281 2799 -272 ct 2791 -263 2785 -252 2781 -239 ct 2777 -226 2775 -211 2775 -195 ct 
2775 0 l  2719 0 l  2719 -264 l  2719 -271 2719 -279 2719 -286 ct 2719 -294 2719 -301 2718 -308 ct 
2718 -315 2718 -321 2718 -326 ct 2718 -331 2717 -334 2717 -336 ct 2770 -336 l 
2770 -335 2770 -332 2771 -327 ct 2771 -323 2771 -318 2771 -312 ct 2772 -306 2772 -300 2772 -294 ct 
2772 -288 2772 -283 2772 -278 ct 2773 -278 l  2779 -288 2785 -297 2791 -305 ct 
2797 -313 2805 -319 2813 -325 ct 2822 -330 2831 -335 2842 -338 ct 2853 -341 2866 -342 2881 -342 ct 
2899 -342 2915 -340 2929 -335 ct 2942 -331 2953 -324 2962 -314 ct 2970 -305 2977 -292 2981 -277 ct 
2985 -262 2987 -244 2987 -224 ct 2987 0 l  2931 0 l  p ef
pom
0.996 c 15325 18592 m  19136 18592 l  19136 19613 l  17627 19605 17678 19814 16316 19863 ct 
15829 19833 15651 19810 15325 19775 ct 15325 18592 l  p ef
0.000 c 15325 18592 m  19136 18592 l  19136 19613 l  17627 19605 17678 19814 16316 19863 ct 
15829 19833 15651 19810 15325 19775 ct 15325 18592 l  pc
pum
16052 19323 t
424 0 m  424 -292 l  424 -302 424 -313 424 -324 ct 424 -335 424 -345 425 -354 ct 
425 -365 426 -375 426 -385 ct 423 -374 420 -364 417 -353 ct 415 -345 412 -335 409 -325 ct 
405 -315 402 -306 399 -298 ct 286 0 l  245 0 l  130 -298 l  129 -301 128 -305 126 -309 ct 
125 -313 124 -317 122 -322 ct 120 -327 119 -331 117 -336 ct 116 -341 114 -346 113 -351 ct 
109 -362 106 -373 103 -385 ct 103 -373 103 -362 104 -350 ct 104 -341 104 -330 104 -320 ct 
105 -309 105 -300 105 -292 ct 105 0 l  52 0 l  52 -437 l  130 -437 l  246 -134 l 
248 -130 249 -125 251 -118 ct 254 -112 255 -105 257 -98 ct 259 -91 261 -85 262 -79 ct 
264 -73 265 -68 266 -65 ct 266 -68 267 -73 269 -79 ct 271 -85 273 -92 275 -98 ct 
277 -105 279 -112 281 -118 ct 283 -125 285 -130 287 -134 ct 401 -437 l  477 -437 l 
477 0 l  424 0 l  p ef
657 6 m  624 6 598 -3 581 -21 ct 564 -39 556 -63 556 -94 ct 556 -117 560 -135 569 -149 ct 
577 -163 588 -174 601 -183 ct 615 -191 630 -196 648 -199 ct 665 -203 683 -204 701 -204 ct 
776 -204 l  776 -223 l  776 -237 775 -248 772 -258 ct 769 -268 764 -276 758 -282 ct 
752 -288 745 -292 736 -295 ct 727 -298 716 -299 704 -299 ct 693 -299 684 -299 675 -297 ct 
666 -296 659 -293 652 -289 ct 646 -285 641 -279 637 -272 ct 633 -265 630 -257 629 -246 ct 
571 -251 l  573 -265 577 -277 583 -288 ct 588 -299 597 -309 607 -317 ct 618 -325 631 -331 647 -335 ct 
663 -340 683 -342 705 -342 ct 748 -342 779 -332 801 -313 ct 822 -294 833 -266 833 -229 ct 
833 -85 l  833 -68 835 -55 839 -47 ct 843 -39 852 -35 864 -35 ct 867 -35 870 -35 873 -35 ct 
876 -36 879 -36 882 -37 ct 882 -2 l  875 0 868 1 861 2 ct 854 3 847 3 839 3 ct 
829 3 819 2 812 -1 ct 804 -4 798 -8 793 -14 ct 789 -20 785 -27 783 -35 ct 780 -43 779 -53 778 -64 ct 
776 -64 l  770 -54 764 -44 756 -35 ct 749 -27 741 -19 731 -13 ct 722 -7 711 -2 699 1 ct 
687 4 673 6 657 6 ct p
670 -36 m  688 -36 703 -39 717 -46 ct 730 -52 741 -60 750 -70 ct 759 -80 765 -91 770 -103 ct 
774 -115 776 -127 776 -138 ct 776 -165 l  715 -165 l  701 -165 688 -164 676 -162 ct 
664 -161 653 -157 644 -152 ct 634 -147 627 -139 622 -130 ct 616 -121 613 -108 613 -93 ct 
613 -75 618 -61 628 -51 ct 638 -41 652 -36 670 -36 ct p ef
1134 1 m  1021 -153 l  980 -119 l  980 1 l  924 1 l  924 -460 l  980 -460 l 
980 -172 l  1127 -335 l  1192 -335 l  1056 -191 l  1199 1 l  1134 1 l 
p ef
1284 -156 m  1284 -139 1285 -122 1289 -108 ct 1293 -93 1298 -80 1306 -70 ct 
1313 -59 1323 -51 1335 -45 ct 1347 -39 1361 -36 1377 -36 ct 1401 -36 1421 -41 1435 -50 ct 
1450 -60 1460 -72 1465 -87 ct 1514 -73 l  1510 -64 1506 -55 1499 -45 ct 1493 -36 1485 -27 1474 -20 ct 
1463 -12 1450 -6 1434 -1 ct 1419 4 1400 6 1377 6 ct 1328 6 1290 -9 1264 -38 ct 
1238 -68 1225 -112 1225 -170 ct 1225 -202 1229 -228 1237 -250 ct 1245 -272 1255 -290 1269 -303 ct 
1283 -317 1299 -327 1317 -333 ct 1335 -339 1354 -342 1375 -342 ct 1403 -342 1427 -338 1446 -329 ct 
1465 -320 1480 -307 1491 -291 ct 1503 -275 1511 -256 1516 -234 ct 1521 -212 1523 -189 1523 -164 ct 
1523 -156 l  1284 -156 l  p
1465 -199 m  1462 -234 1453 -260 1438 -277 ct 1423 -293 1402 -301 1374 -301 ct 
1365 -301 1355 -300 1345 -296 ct 1335 -293 1325 -288 1316 -280 ct 1308 -273 1300 -262 1294 -249 ct 
1288 -236 1285 -219 1284 -199 ct 1465 -199 l  p ef
1661 -295 m  1661 0 l  1605 0 l  1605 -295 l  1558 -295 l  1558 -336 l 
1605 -336 l  1605 -374 l  1605 -386 1606 -397 1609 -408 ct 1611 -418 1615 -427 1621 -435 ct 
1627 -443 1636 -449 1646 -453 ct 1657 -458 1670 -460 1687 -460 ct 1694 -460 1700 -460 1708 -459 ct 
1715 -458 1721 -458 1726 -456 ct 1726 -414 l  1723 -414 1719 -415 1714 -415 ct 
1709 -416 1705 -416 1702 -416 ct 1693 -416 1687 -415 1681 -413 ct 1676 -411 1672 -407 1669 -403 ct 
1666 -399 1664 -394 1663 -387 ct 1662 -381 1661 -374 1661 -366 ct 1661 -336 l 
1726 -336 l  1726 -295 l  1661 -295 l  p ef
1769 -407 m  1769 -460 l  1825 -460 l  1825 -407 l  1769 -407 l  p
1769 1 m  1769 -335 l  1825 -335 l  1825 1 l  1769 1 l  p ef
1910 1 m  1910 -460 l  1966 -460 l  1966 1 l  1910 1 l  p ef
2093 -156 m  2093 -139 2094 -122 2098 -108 ct 2102 -93 2107 -80 2115 -70 ct 
2122 -59 2132 -51 2144 -45 ct 2156 -39 2170 -36 2186 -36 ct 2210 -36 2230 -41 2244 -50 ct 
2259 -60 2269 -72 2274 -87 ct 2323 -73 l  2319 -64 2315 -55 2308 -45 ct 2302 -36 2294 -27 2283 -20 ct 
2272 -12 2259 -6 2243 -1 ct 2228 4 2209 6 2186 6 ct 2137 6 2099 -9 2073 -38 ct 
2047 -68 2034 -112 2034 -170 ct 2034 -202 2038 -228 2046 -250 ct 2054 -272 2064 -290 2078 -303 ct 
2092 -317 2108 -327 2126 -333 ct 2144 -339 2163 -342 2184 -342 ct 2212 -342 2236 -338 2255 -329 ct 
2274 -320 2289 -307 2300 -291 ct 2312 -275 2320 -256 2325 -234 ct 2330 -212 2332 -189 2332 -164 ct 
2332 -156 l  2093 -156 l  p
2274 -199 m  2271 -234 2262 -260 2247 -277 ct 2232 -293 2211 -301 2183 -301 ct 
2174 -301 2164 -300 2154 -296 ct 2144 -293 2134 -288 2125 -280 ct 2117 -273 2109 -262 2103 -249 ct 
2097 -236 2094 -219 2093 -199 ct 2274 -199 l  p ef
pom
1 lw 0 lj 6434 10896 m  6434 13152 l  ps
6434 13512 m  6584 13062 l  6284 13062 l  6434 13512 l  p ef
0.996 c 10245 10972 m  14056 10972 l  14056 12243 l  10245 12243 l  10245 10972 l 
10245 10972 l  p ef
0 lw 1 lj 0.000 c 10245 10972 m  14056 10972 l  14056 12243 l  10245 12243 l 
10245 10972 l  10245 10972 l  pc
pum
10550 11828 t
128 6 m  95 6 69 -3 52 -21 ct 35 -39 27 -63 27 -94 ct 27 -117 31 -135 40 -149 ct 
48 -163 59 -174 72 -183 ct 86 -191 101 -196 119 -199 ct 136 -203 154 -204 172 -204 ct 
247 -204 l  247 -223 l  247 -237 246 -248 243 -258 ct 240 -268 235 -276 229 -282 ct 
223 -288 216 -292 207 -295 ct 198 -298 187 -299 175 -299 ct 164 -299 155 -299 146 -297 ct 
137 -296 130 -293 123 -289 ct 117 -285 112 -279 108 -272 ct 104 -265 101 -257 100 -246 ct 
42 -251 l  44 -265 48 -277 54 -288 ct 59 -299 68 -309 78 -317 ct 89 -325 102 -331 118 -335 ct 
134 -340 154 -342 176 -342 ct 219 -342 250 -332 272 -313 ct 293 -294 304 -266 304 -229 ct 
304 -85 l  304 -68 306 -55 310 -47 ct 314 -39 323 -35 335 -35 ct 338 -35 341 -35 344 -35 ct 
347 -36 350 -36 353 -37 ct 353 -2 l  346 0 339 1 332 2 ct 325 3 318 3 310 3 ct 
300 3 290 2 283 -1 ct 275 -4 269 -8 264 -14 ct 260 -20 256 -27 254 -35 ct 251 -43 250 -53 249 -64 ct 
247 -64 l  241 -54 235 -44 227 -35 ct 220 -27 212 -19 202 -13 ct 193 -7 182 -2 170 1 ct 
158 4 144 6 128 6 ct p
141 -36 m  159 -36 174 -39 188 -46 ct 201 -52 212 -60 221 -70 ct 230 -80 236 -91 241 -103 ct 
245 -115 247 -127 247 -138 ct 247 -165 l  186 -165 l  172 -165 159 -164 147 -162 ct 
135 -161 124 -157 115 -152 ct 105 -147 98 -139 93 -130 ct 87 -121 84 -108 84 -93 ct 
84 -75 89 -61 99 -51 ct 109 -41 123 -36 141 -36 ct p ef
448 -336 m  448 -123 l  448 -107 450 -93 452 -82 ct 454 -71 458 -62 464 -56 ct 
469 -49 476 -44 485 -41 ct 494 -39 504 -37 518 -37 ct 531 -37 543 -39 553 -44 ct 
564 -49 573 -55 581 -64 ct 588 -73 594 -84 598 -97 ct 602 -110 604 -125 604 -141 ct 
604 -336 l  660 -336 l  660 -72 l  660 -65 660 -57 660 -50 ct 660 -42 661 -35 661 -28 ct 
661 -21 661 -15 661 -10 ct 662 -5 662 -2 662 0 ct 609 0 l  609 -1 609 -4 609 -9 ct 
608 -13 608 -18 608 -24 ct 608 -30 607 -36 607 -42 ct 607 -48 607 -53 607 -58 ct 
606 -58 l  601 -48 595 -39 588 -31 ct 582 -23 574 -17 566 -11 ct 557 -6 548 -2 537 2 ct 
526 4 513 6 499 6 ct 480 6 464 4 451 -1 ct 437 -5 426 -12 417 -22 ct 409 -31 402 -44 398 -59 ct 
394 -73 392 -91 392 -112 ct 392 -336 l  448 -336 l  p ef
875 -2 m  866 0 858 2 849 3 ct 840 4 830 5 818 5 ct 774 5 751 -20 751 -71 ct 751 -295 l 
713 -295 l  713 -336 l  754 -336 l  770 -411 l  807 -411 l  807 -336 l 
869 -336 l  869 -295 l  807 -295 l  807 -83 l  807 -67 810 -56 815 -49 ct 
820 -43 830 -39 843 -39 ct 848 -39 853 -40 858 -41 ct 863 -41 869 -42 875 -44 ct 
875 -2 l  p ef
1207 -168 m  1207 -110 1195 -66 1169 -37 ct 1143 -8 1105 6 1056 6 ct 1033 6 1012 2 994 -5 ct 
975 -12 960 -22 947 -37 ct 934 -51 924 -69 918 -91 ct 911 -113 908 -139 908 -168 ct 
908 -284 958 -342 1058 -342 ct 1084 -342 1107 -339 1125 -331 ct 1144 -324 1160 -313 1172 -299 ct 
1184 -284 1193 -266 1199 -245 ct 1205 -223 1207 -197 1207 -168 ct p
1149 -168 m  1149 -195 1147 -216 1143 -233 ct 1139 -250 1133 -264 1125 -274 ct 
1117 -284 1108 -291 1097 -295 ct 1086 -299 1073 -301 1059 -301 ct 1045 -301 1032 -299 1020 -295 ct 
1009 -290 999 -283 991 -273 ct 983 -263 977 -249 973 -232 ct 968 -215 966 -194 966 -168 ct 
966 -142 969 -121 973 -104 ct 978 -87 984 -73 992 -63 ct 1000 -53 1009 -46 1020 -41 ct 
1031 -37 1043 -35 1056 -35 ct 1070 -35 1083 -37 1094 -41 ct 1106 -45 1116 -52 1124 -63 ct 
1132 -73 1138 -86 1142 -104 ct 1147 -121 1149 -142 1149 -168 ct p ef
1330 -278 m  1336 -289 1343 -299 1350 -307 ct 1358 -315 1366 -321 1374 -326 ct 
1383 -331 1393 -335 1403 -338 ct 1413 -340 1425 -341 1438 -341 ct 1459 -341 1477 -338 1490 -332 ct 
1504 -327 1515 -319 1523 -308 ct 1531 -298 1536 -285 1539 -271 ct 1542 -256 1544 -240 1544 -223 ct 
1544 1 l  1488 1 l  1488 -212 l  1488 -226 1487 -239 1485 -250 ct 1483 -260 1480 -269 1475 -276 ct 
1470 -284 1463 -289 1454 -293 ct 1445 -296 1433 -298 1419 -298 ct 1405 -298 1393 -296 1383 -291 ct 
1372 -286 1363 -279 1356 -271 ct 1348 -262 1342 -252 1338 -239 ct 1334 -227 1332 -213 1332 -197 ct 
1332 1 l  1276 1 l  1276 -460 l  1332 -460 l  1332 -340 l  1332 -333 1332 -326 1332 -319 ct 
1331 -313 1331 -306 1331 -301 ct 1330 -295 1330 -290 1330 -286 ct 1330 -282 1330 -279 1329 -278 ct 
1330 -278 l  p ef
1669 -156 m  1669 -139 1670 -122 1674 -108 ct 1678 -93 1683 -80 1691 -70 ct 
1698 -59 1708 -51 1720 -45 ct 1732 -39 1746 -36 1762 -36 ct 1786 -36 1806 -41 1820 -50 ct 
1835 -60 1845 -72 1850 -87 ct 1899 -73 l  1895 -64 1891 -55 1884 -45 ct 1878 -36 1870 -27 1859 -20 ct 
1848 -12 1835 -6 1819 -1 ct 1804 4 1785 6 1762 6 ct 1713 6 1675 -9 1649 -38 ct 
1623 -68 1610 -112 1610 -170 ct 1610 -202 1614 -228 1622 -250 ct 1630 -272 1640 -290 1654 -303 ct 
1668 -317 1684 -327 1702 -333 ct 1720 -339 1739 -342 1760 -342 ct 1788 -342 1812 -338 1831 -329 ct 
1850 -320 1865 -307 1876 -291 ct 1888 -275 1896 -256 1901 -234 ct 1906 -212 1908 -189 1908 -164 ct 
1908 -156 l  1669 -156 l  p
1850 -199 m  1847 -234 1838 -260 1823 -277 ct 1808 -293 1787 -301 1759 -301 ct 
1750 -301 1740 -300 1730 -296 ct 1720 -293 1710 -288 1701 -280 ct 1693 -273 1685 -262 1679 -249 ct 
1673 -236 1670 -219 1669 -199 ct 1850 -199 l  p ef
2063 6 m  2030 6 2004 -3 1987 -21 ct 1970 -39 1962 -63 1962 -94 ct 1962 -117 1966 -135 1975 -149 ct 
1983 -163 1994 -174 2007 -183 ct 2021 -191 2036 -196 2054 -199 ct 2071 -203 2089 -204 2107 -204 ct 
2182 -204 l  2182 -223 l  2182 -237 2181 -248 2178 -258 ct 2175 -268 2170 -276 2164 -282 ct 
2158 -288 2151 -292 2142 -295 ct 2133 -298 2122 -299 2110 -299 ct 2099 -299 2090 -299 2081 -297 ct 
2072 -296 2065 -293 2058 -289 ct 2052 -285 2047 -279 2043 -272 ct 2039 -265 2036 -257 2035 -246 ct 
1977 -251 l  1979 -265 1983 -277 1989 -288 ct 1994 -299 2003 -309 2013 -317 ct 
2024 -325 2037 -331 2053 -335 ct 2069 -340 2089 -342 2111 -342 ct 2154 -342 2185 -332 2207 -313 ct 
2228 -294 2239 -266 2239 -229 ct 2239 -85 l  2239 -68 2241 -55 2245 -47 ct 2249 -39 2258 -35 2270 -35 ct 
2273 -35 2276 -35 2279 -35 ct 2282 -36 2285 -36 2288 -37 ct 2288 -2 l  2281 0 2274 1 2267 2 ct 
2260 3 2253 3 2245 3 ct 2235 3 2225 2 2218 -1 ct 2210 -4 2204 -8 2199 -14 ct 2195 -20 2191 -27 2189 -35 ct 
2186 -43 2185 -53 2184 -64 ct 2182 -64 l  2176 -54 2170 -44 2162 -35 ct 2155 -27 2147 -19 2137 -13 ct 
2128 -7 2117 -2 2105 1 ct 2093 4 2079 6 2063 6 ct p
2076 -36 m  2094 -36 2109 -39 2123 -46 ct 2136 -52 2147 -60 2156 -70 ct 2165 -80 2171 -91 2176 -103 ct 
2180 -115 2182 -127 2182 -138 ct 2182 -165 l  2121 -165 l  2107 -165 2094 -164 2082 -162 ct 
2070 -161 2059 -157 2050 -152 ct 2040 -147 2033 -139 2028 -130 ct 2022 -121 2019 -108 2019 -93 ct 
2019 -75 2024 -61 2034 -51 ct 2044 -41 2058 -36 2076 -36 ct p ef
2541 -53 m  2530 -32 2517 -16 2499 -7 ct 2482 2 2461 7 2436 7 ct 2394 7 2363 -7 2343 -36 ct 
2323 -64 2313 -108 2313 -166 ct 2313 -283 2354 -341 2436 -341 ct 2461 -341 2483 -337 2500 -327 ct 
2517 -318 2530 -303 2541 -283 ct 2541 -283 l  2541 -285 2541 -288 2541 -293 ct 
2541 -297 2541 -302 2541 -307 ct 2541 -312 2541 -316 2541 -321 ct 2541 -325 2541 -328 2541 -330 ct 
2541 -460 l  2596 -460 l  2596 -69 l  2596 -61 2596 -53 2597 -45 ct 2597 -38 2597 -31 2597 -25 ct 
2597 -19 2597 -13 2598 -9 ct 2598 -4 2598 -1 2598 1 ct 2545 1 l  2544 -2 2544 -4 2544 -8 ct 
2544 -12 2543 -16 2543 -21 ct 2543 -26 2542 -32 2542 -37 ct 2542 -42 2542 -48 2542 -53 ct 
2541 -53 l  p
2371 -167 m  2371 -144 2373 -124 2376 -108 ct 2379 -91 2383 -78 2390 -67 ct 
2396 -56 2404 -49 2414 -44 ct 2424 -39 2436 -36 2450 -36 ct 2465 -36 2478 -39 2489 -43 ct 
2501 -48 2510 -56 2517 -66 ct 2525 -77 2531 -91 2535 -108 ct 2539 -125 2541 -146 2541 -171 ct 
2541 -195 2539 -215 2535 -232 ct 2531 -248 2525 -261 2517 -271 ct 2510 -282 2500 -289 2489 -293 ct 
2478 -298 2465 -300 2451 -300 ct 2437 -300 2426 -298 2416 -293 ct 2406 -288 2397 -280 2391 -270 ct 
2384 -259 2379 -246 2376 -229 ct 2373 -212 2371 -191 2371 -167 ct p ef
2723 -156 m  2723 -139 2724 -122 2728 -108 ct 2732 -93 2737 -80 2745 -70 ct 
2752 -59 2762 -51 2774 -45 ct 2786 -39 2800 -36 2816 -36 ct 2840 -36 2860 -41 2874 -50 ct 
2889 -60 2899 -72 2904 -87 ct 2953 -73 l  2949 -64 2945 -55 2938 -45 ct 2932 -36 2924 -27 2913 -20 ct 
2902 -12 2889 -6 2873 -1 ct 2858 4 2839 6 2816 6 ct 2767 6 2729 -9 2703 -38 ct 
2677 -68 2664 -112 2664 -170 ct 2664 -202 2668 -228 2676 -250 ct 2684 -272 2694 -290 2708 -303 ct 
2722 -317 2738 -327 2756 -333 ct 2774 -339 2793 -342 2814 -342 ct 2842 -342 2866 -338 2885 -329 ct 
2904 -320 2919 -307 2930 -291 ct 2942 -275 2950 -256 2955 -234 ct 2960 -212 2962 -189 2962 -164 ct 
2962 -156 l  2723 -156 l  p
2904 -199 m  2901 -234 2892 -260 2877 -277 ct 2862 -293 2841 -301 2813 -301 ct 
2804 -301 2794 -300 2784 -296 ct 2774 -293 2764 -288 2755 -280 ct 2747 -273 2739 -262 2733 -249 ct 
2727 -236 2724 -219 2723 -199 ct 2904 -199 l  p ef
3033 0 m  3033 -258 l  3033 -265 3033 -272 3033 -279 ct 3033 -287 3033 -294 3032 -300 ct 
3032 -307 3032 -314 3032 -320 ct 3032 -326 3031 -331 3031 -336 ct 3084 -336 l 
3084 -331 3084 -326 3085 -320 ct 3085 -313 3085 -307 3086 -301 ct 3086 -294 3086 -288 3086 -282 ct 
3086 -276 3086 -271 3086 -267 ct 3088 -267 l  3092 -280 3096 -291 3100 -301 ct 
3105 -310 3110 -318 3116 -324 ct 3122 -330 3129 -335 3137 -338 ct 3145 -341 3156 -342 3167 -342 ct 
3172 -342 3176 -342 3180 -341 ct 3184 -340 3188 -340 3190 -339 ct 3190 -288 l 
3186 -289 3182 -290 3177 -290 ct 3172 -291 3166 -291 3160 -291 ct 3147 -291 3136 -288 3127 -282 ct 
3118 -276 3111 -268 3105 -258 ct 3100 -248 3096 -236 3093 -221 ct 3090 -207 3089 -192 3089 -175 ct 
3089 0 l  3033 0 l  p ef
pom
0.996 c 4530 16052 m  8341 16052 l  8341 17323 l  4530 17323 l  4530 16052 l 
4530 16052 l  p ef
0.000 c 4530 16052 m  8341 16052 l  8341 17323 l  4530 17323 l  4530 16052 l 
4530 16052 l  pc
pum
5133 16908 t
85 -170 m  85 -150 87 -133 89 -117 ct 92 -100 97 -86 104 -75 ct 110 -63 119 -54 130 -48 ct 
141 -41 154 -38 170 -38 ct 190 -38 206 -43 220 -54 ct 233 -64 241 -80 244 -102 ct 
301 -102 l  299 -88 295 -74 289 -61 ct 282 -48 274 -37 263 -27 ct 253 -17 240 -9 224 -3 ct 
209 3 192 6 171 6 ct 145 6 123 2 104 -7 ct 86 -16 71 -28 60 -44 ct 48 -60 40 -78 35 -99 ct 
30 -121 27 -144 27 -168 ct 27 -191 29 -211 33 -228 ct 36 -245 42 -260 48 -273 ct 
55 -286 63 -297 72 -306 ct 81 -315 91 -322 102 -327 ct 112 -332 123 -336 135 -338 ct 
147 -341 159 -342 171 -342 ct 190 -342 206 -339 221 -334 ct 236 -329 248 -322 259 -313 ct 
270 -304 278 -293 285 -281 ct 292 -269 296 -256 299 -242 ct 242 -237 l  239 -256 231 -271 220 -282 ct 
208 -293 191 -298 169 -298 ct 153 -298 140 -296 129 -290 ct 119 -285 110 -277 104 -266 ct 
97 -256 92 -242 89 -226 ct 87 -210 85 -191 85 -170 ct p ef
644 -168 m  644 -110 632 -66 606 -37 ct 580 -8 542 6 493 6 ct 470 6 449 2 431 -5 ct 
412 -12 397 -22 384 -37 ct 371 -51 361 -69 355 -91 ct 348 -113 345 -139 345 -168 ct 
345 -284 395 -342 495 -342 ct 521 -342 544 -339 562 -331 ct 581 -324 597 -313 609 -299 ct 
621 -284 630 -266 636 -245 ct 642 -223 644 -197 644 -168 ct p
586 -168 m  586 -195 584 -216 580 -233 ct 576 -250 570 -264 562 -274 ct 554 -284 545 -291 534 -295 ct 
523 -299 510 -301 496 -301 ct 482 -301 469 -299 457 -295 ct 446 -290 436 -283 428 -273 ct 
420 -263 414 -249 410 -232 ct 405 -215 403 -194 403 -168 ct 403 -142 406 -121 410 -104 ct 
415 -87 421 -73 429 -63 ct 437 -53 446 -46 457 -41 ct 468 -37 480 -35 493 -35 ct 
507 -35 520 -37 531 -41 ct 543 -45 553 -52 561 -63 ct 569 -73 575 -86 579 -104 ct 
584 -121 586 -142 586 -168 ct p ef
925 0 m  925 -213 l  925 -229 924 -243 921 -254 ct 919 -265 915 -274 910 -280 ct 
904 -287 897 -292 888 -295 ct 880 -297 869 -299 856 -299 ct 842 -299 830 -297 820 -292 ct 
809 -287 800 -281 793 -272 ct 785 -263 779 -252 775 -239 ct 771 -226 769 -211 769 -195 ct 
769 0 l  713 0 l  713 -264 l  713 -271 713 -279 713 -286 ct 713 -294 713 -301 712 -308 ct 
712 -315 712 -321 712 -326 ct 712 -331 711 -334 711 -336 ct 764 -336 l  764 -335 764 -332 765 -327 ct 
765 -323 765 -318 765 -312 ct 766 -306 766 -300 766 -294 ct 766 -288 766 -283 766 -278 ct 
767 -278 l  773 -288 779 -297 785 -305 ct 791 -313 799 -319 807 -325 ct 816 -330 825 -335 836 -338 ct 
847 -341 860 -342 875 -342 ct 893 -342 909 -340 923 -335 ct 936 -331 947 -324 956 -314 ct 
964 -305 971 -292 975 -277 ct 979 -262 981 -244 981 -224 ct 981 0 l  925 0 l 
p ef
1132 -295 m  1132 0 l  1076 0 l  1076 -295 l  1029 -295 l  1029 -336 l 
1076 -336 l  1076 -374 l  1076 -386 1077 -397 1080 -408 ct 1082 -418 1086 -427 1092 -435 ct 
1098 -443 1107 -449 1117 -453 ct 1128 -458 1141 -460 1158 -460 ct 1165 -460 1171 -460 1179 -459 ct 
1186 -458 1192 -458 1197 -456 ct 1197 -414 l  1194 -414 1190 -415 1185 -415 ct 
1180 -416 1176 -416 1173 -416 ct 1164 -416 1158 -415 1152 -413 ct 1147 -411 1143 -407 1140 -403 ct 
1137 -399 1135 -394 1134 -387 ct 1133 -381 1132 -374 1132 -366 ct 1132 -336 l 
1197 -336 l  1197 -295 l  1132 -295 l  p ef
1240 -407 m  1240 -460 l  1296 -460 l  1296 -407 l  1240 -407 l  p
1240 1 m  1240 -335 l  1296 -335 l  1296 1 l  1240 1 l  p ef
1508 132 m  1489 132 1472 130 1457 126 ct 1442 122 1429 117 1419 109 ct 1408 102 1399 93 1393 83 ct 
1386 73 1382 61 1379 49 ct 1435 41 l  1438 56 1447 68 1459 77 ct 1472 85 1489 89 1509 89 ct 
1522 89 1534 88 1544 84 ct 1554 81 1563 75 1570 67 ct 1577 59 1583 49 1587 37 ct 
1591 25 1593 9 1593 -8 ct 1593 -63 l  1592 -63 l  1588 -54 1583 -46 1577 -38 ct 
1571 -30 1563 -24 1555 -18 ct 1546 -12 1536 -7 1524 -3 ct 1512 0 1499 2 1484 2 ct 
1463 2 1445 -1 1430 -8 ct 1414 -16 1402 -26 1392 -41 ct 1383 -55 1376 -73 1371 -94 ct 
1367 -115 1365 -139 1365 -167 ct 1365 -194 1367 -218 1371 -240 ct 1376 -261 1383 -280 1393 -295 ct 
1403 -310 1416 -321 1432 -329 ct 1448 -337 1468 -341 1491 -341 ct 1514 -341 1535 -336 1552 -325 ct 
1570 -314 1583 -298 1593 -278 ct 1593 -278 l  1593 -284 1594 -289 1594 -296 ct 
1594 -302 1595 -308 1595 -314 ct 1595 -320 1596 -324 1596 -329 ct 1596 -333 1597 -335 1597 -336 ct 
1650 -336 l  1650 -334 1650 -331 1650 -326 ct 1649 -322 1649 -316 1649 -310 ct 
1649 -304 1649 -297 1649 -290 ct 1648 -282 1648 -274 1648 -266 ct 1648 -10 l 
1648 37 1637 73 1614 96 ct 1591 120 1555 132 1508 132 ct p
1593 -168 m  1593 -191 1590 -211 1585 -228 ct 1580 -245 1574 -258 1565 -269 ct 
1557 -279 1548 -287 1537 -292 ct 1526 -297 1515 -299 1504 -299 ct 1490 -299 1478 -297 1467 -292 ct 
1457 -287 1449 -279 1442 -269 ct 1435 -258 1430 -244 1427 -228 ct 1424 -211 1422 -191 1422 -168 ct 
1422 -144 1424 -123 1427 -107 ct 1430 -91 1435 -77 1442 -67 ct 1448 -57 1457 -50 1467 -46 ct 
1477 -41 1489 -39 1503 -39 ct 1514 -39 1525 -41 1536 -46 ct 1547 -51 1556 -58 1565 -69 ct 
1573 -79 1580 -92 1585 -109 ct 1590 -125 1593 -145 1593 -168 ct p ef
1786 -336 m  1786 -123 l  1786 -107 1788 -93 1790 -82 ct 1792 -71 1796 -62 1802 -56 ct 
1807 -49 1814 -44 1823 -41 ct 1832 -39 1842 -37 1856 -37 ct 1869 -37 1881 -39 1891 -44 ct 
1902 -49 1911 -55 1919 -64 ct 1926 -73 1932 -84 1936 -97 ct 1940 -110 1942 -125 1942 -141 ct 
1942 -336 l  1998 -336 l  1998 -72 l  1998 -65 1998 -57 1998 -50 ct 1998 -42 1999 -35 1999 -28 ct 
1999 -21 1999 -15 1999 -10 ct 2000 -5 2000 -2 2000 0 ct 1947 0 l  1947 -1 1947 -4 1947 -9 ct 
1946 -13 1946 -18 1946 -24 ct 1946 -30 1945 -36 1945 -42 ct 1945 -48 1945 -53 1945 -58 ct 
1944 -58 l  1939 -48 1933 -39 1926 -31 ct 1920 -23 1912 -17 1904 -11 ct 1895 -6 1886 -2 1875 2 ct 
1864 4 1851 6 1837 6 ct 1818 6 1802 4 1789 -1 ct 1775 -5 1764 -12 1755 -22 ct 1747 -31 1740 -44 1736 -59 ct 
1732 -73 1730 -91 1730 -112 ct 1730 -336 l  1786 -336 l  p ef
2084 0 m  2084 -258 l  2084 -265 2084 -272 2084 -279 ct 2084 -287 2084 -294 2083 -300 ct 
2083 -307 2083 -314 2083 -320 ct 2083 -326 2082 -331 2082 -336 ct 2135 -336 l 
2135 -331 2135 -326 2136 -320 ct 2136 -313 2136 -307 2137 -301 ct 2137 -294 2137 -288 2137 -282 ct 
2137 -276 2137 -271 2137 -267 ct 2139 -267 l  2143 -280 2147 -291 2151 -301 ct 
2156 -310 2161 -318 2167 -324 ct 2173 -330 2180 -335 2188 -338 ct 2196 -341 2207 -342 2218 -342 ct 
2223 -342 2227 -342 2231 -341 ct 2235 -340 2239 -340 2241 -339 ct 2241 -288 l 
2237 -289 2233 -290 2228 -290 ct 2223 -291 2217 -291 2211 -291 ct 2198 -291 2187 -288 2178 -282 ct 
2169 -276 2162 -268 2156 -258 ct 2151 -248 2147 -236 2144 -221 ct 2141 -207 2140 -192 2140 -175 ct 
2140 0 l  2084 0 l  p ef
2338 -156 m  2338 -139 2339 -122 2343 -108 ct 2347 -93 2352 -80 2360 -70 ct 
2367 -59 2377 -51 2389 -45 ct 2401 -39 2415 -36 2431 -36 ct 2455 -36 2475 -41 2489 -50 ct 
2504 -60 2514 -72 2519 -87 ct 2568 -73 l  2564 -64 2560 -55 2553 -45 ct 2547 -36 2539 -27 2528 -20 ct 
2517 -12 2504 -6 2488 -1 ct 2473 4 2454 6 2431 6 ct 2382 6 2344 -9 2318 -38 ct 
2292 -68 2279 -112 2279 -170 ct 2279 -202 2283 -228 2291 -250 ct 2299 -272 2309 -290 2323 -303 ct 
2337 -317 2353 -327 2371 -333 ct 2389 -339 2408 -342 2429 -342 ct 2457 -342 2481 -338 2500 -329 ct 
2519 -320 2534 -307 2545 -291 ct 2557 -275 2565 -256 2570 -234 ct 2575 -212 2577 -189 2577 -164 ct 
2577 -156 l  2338 -156 l  p
2519 -199 m  2516 -234 2507 -260 2492 -277 ct 2477 -293 2456 -301 2428 -301 ct 
2419 -301 2409 -300 2399 -296 ct 2389 -293 2379 -288 2370 -280 ct 2362 -273 2354 -262 2348 -249 ct 
2342 -236 2339 -219 2338 -199 ct 2519 -199 l  p ef
pom
0.996 c 10245 13512 m  14056 13512 l  14056 14533 l  12547 14525 12598 14734 11236 14783 ct 
10749 14753 10571 14730 10245 14695 ct 10245 13512 l  p ef
0.000 c 10245 13512 m  14056 13512 l  14056 14533 l  12547 14525 12598 14734 11236 14783 ct 
10749 14753 10571 14730 10245 14695 ct 10245 13512 l  pc
pum
10707 14243 t
85 -170 m  85 -150 87 -133 89 -117 ct 92 -100 97 -86 104 -75 ct 110 -63 119 -54 130 -48 ct 
141 -41 154 -38 170 -38 ct 190 -38 206 -43 220 -54 ct 233 -64 241 -80 244 -102 ct 
301 -102 l  299 -88 295 -74 289 -61 ct 282 -48 274 -37 263 -27 ct 253 -17 240 -9 224 -3 ct 
209 3 192 6 171 6 ct 145 6 123 2 104 -7 ct 86 -16 71 -28 60 -44 ct 48 -60 40 -78 35 -99 ct 
30 -121 27 -144 27 -168 ct 27 -191 29 -211 33 -228 ct 36 -245 42 -260 48 -273 ct 
55 -286 63 -297 72 -306 ct 81 -315 91 -322 102 -327 ct 112 -332 123 -336 135 -338 ct 
147 -341 159 -342 171 -342 ct 190 -342 206 -339 221 -334 ct 236 -329 248 -322 259 -313 ct 
270 -304 278 -293 285 -281 ct 292 -269 296 -256 299 -242 ct 242 -237 l  239 -256 231 -271 220 -282 ct 
208 -293 191 -298 169 -298 ct 153 -298 140 -296 129 -290 ct 119 -285 110 -277 104 -266 ct 
97 -256 92 -242 89 -226 ct 87 -210 85 -191 85 -170 ct p ef
644 -168 m  644 -110 632 -66 606 -37 ct 580 -8 542 6 493 6 ct 470 6 449 2 431 -5 ct 
412 -12 397 -22 384 -37 ct 371 -51 361 -69 355 -91 ct 348 -113 345 -139 345 -168 ct 
345 -284 395 -342 495 -342 ct 521 -342 544 -339 562 -331 ct 581 -324 597 -313 609 -299 ct 
621 -284 630 -266 636 -245 ct 642 -223 644 -197 644 -168 ct p
586 -168 m  586 -195 584 -216 580 -233 ct 576 -250 570 -264 562 -274 ct 554 -284 545 -291 534 -295 ct 
523 -299 510 -301 496 -301 ct 482 -301 469 -299 457 -295 ct 446 -290 436 -283 428 -273 ct 
420 -263 414 -249 410 -232 ct 405 -215 403 -194 403 -168 ct 403 -142 406 -121 410 -104 ct 
415 -87 421 -73 429 -63 ct 437 -53 446 -46 457 -41 ct 468 -37 480 -35 493 -35 ct 
507 -35 520 -37 531 -41 ct 543 -45 553 -52 561 -63 ct 569 -73 575 -86 579 -104 ct 
584 -121 586 -142 586 -168 ct p ef
925 0 m  925 -213 l  925 -229 924 -243 921 -254 ct 919 -265 915 -274 910 -280 ct 
904 -287 897 -292 888 -295 ct 880 -297 869 -299 856 -299 ct 842 -299 830 -297 820 -292 ct 
809 -287 800 -281 793 -272 ct 785 -263 779 -252 775 -239 ct 771 -226 769 -211 769 -195 ct 
769 0 l  713 0 l  713 -264 l  713 -271 713 -279 713 -286 ct 713 -294 713 -301 712 -308 ct 
712 -315 712 -321 712 -326 ct 712 -331 711 -334 711 -336 ct 764 -336 l  764 -335 764 -332 765 -327 ct 
765 -323 765 -318 765 -312 ct 766 -306 766 -300 766 -294 ct 766 -288 766 -283 766 -278 ct 
767 -278 l  773 -288 779 -297 785 -305 ct 791 -313 799 -319 807 -325 ct 816 -330 825 -335 836 -338 ct 
847 -341 860 -342 875 -342 ct 893 -342 909 -340 923 -335 ct 936 -331 947 -324 956 -314 ct 
964 -305 971 -292 975 -277 ct 979 -262 981 -244 981 -224 ct 981 0 l  925 0 l 
p ef
1132 -295 m  1132 0 l  1076 0 l  1076 -295 l  1029 -295 l  1029 -336 l 
1076 -336 l  1076 -374 l  1076 -386 1077 -397 1080 -408 ct 1082 -418 1086 -427 1092 -435 ct 
1098 -443 1107 -449 1117 -453 ct 1128 -458 1141 -460 1158 -460 ct 1165 -460 1171 -460 1179 -459 ct 
1186 -458 1192 -458 1197 -456 ct 1197 -414 l  1194 -414 1190 -415 1185 -415 ct 
1180 -416 1176 -416 1173 -416 ct 1164 -416 1158 -415 1152 -413 ct 1147 -411 1143 -407 1140 -403 ct 
1137 -399 1135 -394 1134 -387 ct 1133 -381 1132 -374 1132 -366 ct 1132 -336 l 
1197 -336 l  1197 -295 l  1132 -295 l  p ef
1240 -407 m  1240 -460 l  1296 -460 l  1296 -407 l  1240 -407 l  p
1240 1 m  1240 -335 l  1296 -335 l  1296 1 l  1240 1 l  p ef
1508 132 m  1489 132 1472 130 1457 126 ct 1442 122 1429 117 1419 109 ct 1408 102 1399 93 1393 83 ct 
1386 73 1382 61 1379 49 ct 1435 41 l  1438 56 1447 68 1459 77 ct 1472 85 1489 89 1509 89 ct 
1522 89 1534 88 1544 84 ct 1554 81 1563 75 1570 67 ct 1577 59 1583 49 1587 37 ct 
1591 25 1593 9 1593 -8 ct 1593 -63 l  1592 -63 l  1588 -54 1583 -46 1577 -38 ct 
1571 -30 1563 -24 1555 -18 ct 1546 -12 1536 -7 1524 -3 ct 1512 0 1499 2 1484 2 ct 
1463 2 1445 -1 1430 -8 ct 1414 -16 1402 -26 1392 -41 ct 1383 -55 1376 -73 1371 -94 ct 
1367 -115 1365 -139 1365 -167 ct 1365 -194 1367 -218 1371 -240 ct 1376 -261 1383 -280 1393 -295 ct 
1403 -310 1416 -321 1432 -329 ct 1448 -337 1468 -341 1491 -341 ct 1514 -341 1535 -336 1552 -325 ct 
1570 -314 1583 -298 1593 -278 ct 1593 -278 l  1593 -284 1594 -289 1594 -296 ct 
1594 -302 1595 -308 1595 -314 ct 1595 -320 1596 -324 1596 -329 ct 1596 -333 1597 -335 1597 -336 ct 
1650 -336 l  1650 -334 1650 -331 1650 -326 ct 1649 -322 1649 -316 1649 -310 ct 
1649 -304 1649 -297 1649 -290 ct 1648 -282 1648 -274 1648 -266 ct 1648 -10 l 
1648 37 1637 73 1614 96 ct 1591 120 1555 132 1508 132 ct p
1593 -168 m  1593 -191 1590 -211 1585 -228 ct 1580 -245 1574 -258 1565 -269 ct 
1557 -279 1548 -287 1537 -292 ct 1526 -297 1515 -299 1504 -299 ct 1490 -299 1478 -297 1467 -292 ct 
1457 -287 1449 -279 1442 -269 ct 1435 -258 1430 -244 1427 -228 ct 1424 -211 1422 -191 1422 -168 ct 
1422 -144 1424 -123 1427 -107 ct 1430 -91 1435 -77 1442 -67 ct 1448 -57 1457 -50 1467 -46 ct 
1477 -41 1489 -39 1503 -39 ct 1514 -39 1525 -41 1536 -46 ct 1547 -51 1556 -58 1565 -69 ct 
1573 -79 1580 -92 1585 -109 ct 1590 -125 1593 -145 1593 -168 ct p ef
1747 0 m  1747 -68 l  1807 -68 l  1807 0 l  1747 0 l  p ef
1965 -278 m  1971 -289 1978 -299 1985 -307 ct 1993 -315 2001 -321 2009 -326 ct 
2018 -331 2028 -335 2038 -338 ct 2048 -340 2060 -341 2073 -341 ct 2094 -341 2112 -338 2125 -332 ct 
2139 -327 2150 -319 2158 -308 ct 2166 -298 2171 -285 2174 -271 ct 2177 -256 2179 -240 2179 -223 ct 
2179 1 l  2123 1 l  2123 -212 l  2123 -226 2122 -239 2120 -250 ct 2118 -260 2115 -269 2110 -276 ct 
2105 -284 2098 -289 2089 -293 ct 2080 -296 2068 -298 2054 -298 ct 2040 -298 2028 -296 2018 -291 ct 
2007 -286 1998 -279 1991 -271 ct 1983 -262 1977 -252 1973 -239 ct 1969 -227 1967 -213 1967 -197 ct 
1967 1 l  1911 1 l  1911 -460 l  1967 -460 l  1967 -340 l  1967 -333 1967 -326 1967 -319 ct 
1966 -313 1966 -306 1966 -301 ct 1965 -295 1965 -290 1965 -286 ct 1965 -282 1965 -279 1964 -278 ct 
1965 -278 l  p ef
2276 0 m  2276 -68 l  2336 -68 l  2336 0 l  2276 0 l  p ef
2438 -407 m  2438 -460 l  2494 -460 l  2494 -407 l  2438 -407 l  p
2438 1 m  2438 -335 l  2494 -335 l  2494 1 l  2438 1 l  p ef
2792 0 m  2792 -213 l  2792 -229 2791 -243 2788 -254 ct 2786 -265 2782 -274 2777 -280 ct 
2771 -287 2764 -292 2755 -295 ct 2747 -297 2736 -299 2723 -299 ct 2709 -299 2697 -297 2687 -292 ct 
2676 -287 2667 -281 2660 -272 ct 2652 -263 2646 -252 2642 -239 ct 2638 -226 2636 -211 2636 -195 ct 
2636 0 l  2580 0 l  2580 -264 l  2580 -271 2580 -279 2580 -286 ct 2580 -294 2580 -301 2579 -308 ct 
2579 -315 2579 -321 2579 -326 ct 2579 -331 2578 -334 2578 -336 ct 2631 -336 l 
2631 -335 2631 -332 2632 -327 ct 2632 -323 2632 -318 2632 -312 ct 2633 -306 2633 -300 2633 -294 ct 
2633 -288 2633 -283 2633 -278 ct 2634 -278 l  2640 -288 2646 -297 2652 -305 ct 
2658 -313 2666 -319 2674 -325 ct 2683 -330 2692 -335 2703 -338 ct 2714 -341 2727 -342 2742 -342 ct 
2760 -342 2776 -340 2790 -335 ct 2803 -331 2814 -324 2823 -314 ct 2831 -305 2838 -292 2842 -277 ct 
2846 -262 2848 -244 2848 -224 ct 2848 0 l  2792 0 l  p ef
pom
0.996 c 10880 18592 m  14691 18592 l  14691 19613 l  13182 19605 13233 19814 11871 19863 ct 
11384 19833 11206 19810 10880 19775 ct 10880 18592 l  p ef
0.000 c 10880 18592 m  14691 18592 l  14691 19613 l  13182 19605 13233 19814 11871 19863 ct 
11384 19833 11206 19810 10880 19775 ct 10880 18592 l  pc
pum
11677 19323 t
85 -170 m  85 -150 87 -133 89 -117 ct 92 -100 97 -86 104 -75 ct 110 -63 119 -54 130 -48 ct 
141 -41 154 -38 170 -38 ct 190 -38 206 -43 220 -54 ct 233 -64 241 -80 244 -102 ct 
301 -102 l  299 -88 295 -74 289 -61 ct 282 -48 274 -37 263 -27 ct 253 -17 240 -9 224 -3 ct 
209 3 192 6 171 6 ct 145 6 123 2 104 -7 ct 86 -16 71 -28 60 -44 ct 48 -60 40 -78 35 -99 ct 
30 -121 27 -144 27 -168 ct 27 -191 29 -211 33 -228 ct 36 -245 42 -260 48 -273 ct 
55 -286 63 -297 72 -306 ct 81 -315 91 -322 102 -327 ct 112 -332 123 -336 135 -338 ct 
147 -341 159 -342 171 -342 ct 190 -342 206 -339 221 -334 ct 236 -329 248 -322 259 -313 ct 
270 -304 278 -293 285 -281 ct 292 -269 296 -256 299 -242 ct 242 -237 l  239 -256 231 -271 220 -282 ct 
208 -293 191 -298 169 -298 ct 153 -298 140 -296 129 -290 ct 119 -285 110 -277 104 -266 ct 
97 -256 92 -242 89 -226 ct 87 -210 85 -191 85 -170 ct p ef
644 -168 m  644 -110 632 -66 606 -37 ct 580 -8 542 6 493 6 ct 470 6 449 2 431 -5 ct 
412 -12 397 -22 384 -37 ct 371 -51 361 -69 355 -91 ct 348 -113 345 -139 345 -168 ct 
345 -284 395 -342 495 -342 ct 521 -342 544 -339 562 -331 ct 581 -324 597 -313 609 -299 ct 
621 -284 630 -266 636 -245 ct 642 -223 644 -197 644 -168 ct p
586 -168 m  586 -195 584 -216 580 -233 ct 576 -250 570 -264 562 -274 ct 554 -284 545 -291 534 -295 ct 
523 -299 510 -301 496 -301 ct 482 -301 469 -299 457 -295 ct 446 -290 436 -283 428 -273 ct 
420 -263 414 -249 410 -232 ct 405 -215 403 -194 403 -168 ct 403 -142 406 -121 410 -104 ct 
415 -87 421 -73 429 -63 ct 437 -53 446 -46 457 -41 ct 468 -37 480 -35 493 -35 ct 
507 -35 520 -37 531 -41 ct 543 -45 553 -52 561 -63 ct 569 -73 575 -86 579 -104 ct 
584 -121 586 -142 586 -168 ct p ef
925 0 m  925 -213 l  925 -229 924 -243 921 -254 ct 919 -265 915 -274 910 -280 ct 
904 -287 897 -292 888 -295 ct 880 -297 869 -299 856 -299 ct 842 -299 830 -297 820 -292 ct 
809 -287 800 -281 793 -272 ct 785 -263 779 -252 775 -239 ct 771 -226 769 -211 769 -195 ct 
769 0 l  713 0 l  713 -264 l  713 -271 713 -279 713 -286 ct 713 -294 713 -301 712 -308 ct 
712 -315 712 -321 712 -326 ct 712 -331 711 -334 711 -336 ct 764 -336 l  764 -335 764 -332 765 -327 ct 
765 -323 765 -318 765 -312 ct 766 -306 766 -300 766 -294 ct 766 -288 766 -283 766 -278 ct 
767 -278 l  773 -288 779 -297 785 -305 ct 791 -313 799 -319 807 -325 ct 816 -330 825 -335 836 -338 ct 
847 -341 860 -342 875 -342 ct 893 -342 909 -340 923 -335 ct 936 -331 947 -324 956 -314 ct 
964 -305 971 -292 975 -277 ct 979 -262 981 -244 981 -224 ct 981 0 l  925 0 l 
p ef
1132 -295 m  1132 0 l  1076 0 l  1076 -295 l  1029 -295 l  1029 -336 l 
1076 -336 l  1076 -374 l  1076 -386 1077 -397 1080 -408 ct 1082 -418 1086 -427 1092 -435 ct 
1098 -443 1107 -449 1117 -453 ct 1128 -458 1141 -460 1158 -460 ct 1165 -460 1171 -460 1179 -459 ct 
1186 -458 1192 -458 1197 -456 ct 1197 -414 l  1194 -414 1190 -415 1185 -415 ct 
1180 -416 1176 -416 1173 -416 ct 1164 -416 1158 -415 1152 -413 ct 1147 -411 1143 -407 1140 -403 ct 
1137 -399 1135 -394 1134 -387 ct 1133 -381 1132 -374 1132 -366 ct 1132 -336 l 
1197 -336 l  1197 -295 l  1132 -295 l  p ef
1240 -407 m  1240 -460 l  1296 -460 l  1296 -407 l  1240 -407 l  p
1240 1 m  1240 -335 l  1296 -335 l  1296 1 l  1240 1 l  p ef
1508 132 m  1489 132 1472 130 1457 126 ct 1442 122 1429 117 1419 109 ct 1408 102 1399 93 1393 83 ct 
1386 73 1382 61 1379 49 ct 1435 41 l  1438 56 1447 68 1459 77 ct 1472 85 1489 89 1509 89 ct 
1522 89 1534 88 1544 84 ct 1554 81 1563 75 1570 67 ct 1577 59 1583 49 1587 37 ct 
1591 25 1593 9 1593 -8 ct 1593 -63 l  1592 -63 l  1588 -54 1583 -46 1577 -38 ct 
1571 -30 1563 -24 1555 -18 ct 1546 -12 1536 -7 1524 -3 ct 1512 0 1499 2 1484 2 ct 
1463 2 1445 -1 1430 -8 ct 1414 -16 1402 -26 1392 -41 ct 1383 -55 1376 -73 1371 -94 ct 
1367 -115 1365 -139 1365 -167 ct 1365 -194 1367 -218 1371 -240 ct 1376 -261 1383 -280 1393 -295 ct 
1403 -310 1416 -321 1432 -329 ct 1448 -337 1468 -341 1491 -341 ct 1514 -341 1535 -336 1552 -325 ct 
1570 -314 1583 -298 1593 -278 ct 1593 -278 l  1593 -284 1594 -289 1594 -296 ct 
1594 -302 1595 -308 1595 -314 ct 1595 -320 1596 -324 1596 -329 ct 1596 -333 1597 -335 1597 -336 ct 
1650 -336 l  1650 -334 1650 -331 1650 -326 ct 1649 -322 1649 -316 1649 -310 ct 
1649 -304 1649 -297 1649 -290 ct 1648 -282 1648 -274 1648 -266 ct 1648 -10 l 
1648 37 1637 73 1614 96 ct 1591 120 1555 132 1508 132 ct p
1593 -168 m  1593 -191 1590 -211 1585 -228 ct 1580 -245 1574 -258 1565 -269 ct 
1557 -279 1548 -287 1537 -292 ct 1526 -297 1515 -299 1504 -299 ct 1490 -299 1478 -297 1467 -292 ct 
1457 -287 1449 -279 1442 -269 ct 1435 -258 1430 -244 1427 -228 ct 1424 -211 1422 -191 1422 -168 ct 
1422 -144 1424 -123 1427 -107 ct 1430 -91 1435 -77 1442 -67 ct 1448 -57 1457 -50 1467 -46 ct 
1477 -41 1489 -39 1503 -39 ct 1514 -39 1525 -41 1536 -46 ct 1547 -51 1556 -58 1565 -69 ct 
1573 -79 1580 -92 1585 -109 ct 1590 -125 1593 -145 1593 -168 ct p ef
1747 0 m  1747 -68 l  1807 -68 l  1807 0 l  1747 0 l  p ef
1965 -278 m  1971 -289 1978 -299 1985 -307 ct 1993 -315 2001 -321 2009 -326 ct 
2018 -331 2028 -335 2038 -338 ct 2048 -340 2060 -341 2073 -341 ct 2094 -341 2112 -338 2125 -332 ct 
2139 -327 2150 -319 2158 -308 ct 2166 -298 2171 -285 2174 -271 ct 2177 -256 2179 -240 2179 -223 ct 
2179 1 l  2123 1 l  2123 -212 l  2123 -226 2122 -239 2120 -250 ct 2118 -260 2115 -269 2110 -276 ct 
2105 -284 2098 -289 2089 -293 ct 2080 -296 2068 -298 2054 -298 ct 2040 -298 2028 -296 2018 -291 ct 
2007 -286 1998 -279 1991 -271 ct 1983 -262 1977 -252 1973 -239 ct 1969 -227 1967 -213 1967 -197 ct 
1967 1 l  1911 1 l  1911 -460 l  1967 -460 l  1967 -340 l  1967 -333 1967 -326 1967 -319 ct 
1966 -313 1966 -306 1966 -301 ct 1965 -295 1965 -290 1965 -286 ct 1965 -282 1965 -279 1964 -278 ct 
1965 -278 l  p ef
pom
1 lw 0 lj 6434 10896 m  6434 11370 7582 11582 9879 11604 ct ps
10245 11606 m  9796 11453 l  9794 11753 l  10245 11606 l  p ef
6434 14782 m  6434 15692 l  ps
6434 16052 m  6584 15602 l  6284 15602 l  6434 16052 l  p ef
12149 12242 m  12149 13152 l  ps
12149 13512 m  12299 13062 l  11999 13062 l  12149 13512 l  p ef
12839 17322 m  12800 18232 l  ps
12785 18592 m  12954 18149 l  12654 18136 l  12785 18592 l  p ef
16014 17322 m  15975 18232 l  ps
15960 18592 m  16129 18149 l  15829 18136 l  15960 18592 l  p ef
8340 16686 m  11155 16686 l  ps
11515 16686 m  11065 16536 l  11065 16836 l  11515 16686 l  p ef
0.996 c 720 18592 m  4531 18592 l  4531 19613 l  3022 19605 3073 19814 1711 19863 ct 
1224 19833 1046 19810 720 19775 ct 720 18592 l  p ef
0 lw 1 lj 0.000 c 720 18592 m  4531 18592 l  4531 19613 l  3022 19605 3073 19814 1711 19863 ct 
1224 19833 1046 19810 720 19775 ct 720 18592 l  pc
pum
1271 19323 t
85 -170 m  85 -150 87 -133 89 -117 ct 92 -100 97 -86 104 -75 ct 110 -63 119 -54 130 -48 ct 
141 -41 154 -38 170 -38 ct 190 -38 206 -43 220 -54 ct 233 -64 241 -80 244 -102 ct 
301 -102 l  299 -88 295 -74 289 -61 ct 282 -48 274 -37 263 -27 ct 253 -17 240 -9 224 -3 ct 
209 3 192 6 171 6 ct 145 6 123 2 104 -7 ct 86 -16 71 -28 60 -44 ct 48 -60 40 -78 35 -99 ct 
30 -121 27 -144 27 -168 ct 27 -191 29 -211 33 -228 ct 36 -245 42 -260 48 -273 ct 
55 -286 63 -297 72 -306 ct 81 -315 91 -322 102 -327 ct 112 -332 123 -336 135 -338 ct 
147 -341 159 -342 171 -342 ct 190 -342 206 -339 221 -334 ct 236 -329 248 -322 259 -313 ct 
270 -304 278 -293 285 -281 ct 292 -269 296 -256 299 -242 ct 242 -237 l  239 -256 231 -271 220 -282 ct 
208 -293 191 -298 169 -298 ct 153 -298 140 -296 129 -290 ct 119 -285 110 -277 104 -266 ct 
97 -256 92 -242 89 -226 ct 87 -210 85 -191 85 -170 ct p ef
644 -168 m  644 -110 632 -66 606 -37 ct 580 -8 542 6 493 6 ct 470 6 449 2 431 -5 ct 
412 -12 397 -22 384 -37 ct 371 -51 361 -69 355 -91 ct 348 -113 345 -139 345 -168 ct 
345 -284 395 -342 495 -342 ct 521 -342 544 -339 562 -331 ct 581 -324 597 -313 609 -299 ct 
621 -284 630 -266 636 -245 ct 642 -223 644 -197 644 -168 ct p
586 -168 m  586 -195 584 -216 580 -233 ct 576 -250 570 -264 562 -274 ct 554 -284 545 -291 534 -295 ct 
523 -299 510 -301 496 -301 ct 482 -301 469 -299 457 -295 ct 446 -290 436 -283 428 -273 ct 
420 -263 414 -249 410 -232 ct 405 -215 403 -194 403 -168 ct 403 -142 406 -121 410 -104 ct 
415 -87 421 -73 429 -63 ct 437 -53 446 -46 457 -41 ct 468 -37 480 -35 493 -35 ct 
507 -35 520 -37 531 -41 ct 543 -45 553 -52 561 -63 ct 569 -73 575 -86 579 -104 ct 
584 -121 586 -142 586 -168 ct p ef
925 0 m  925 -213 l  925 -229 924 -243 921 -254 ct 919 -265 915 -274 910 -280 ct 
904 -287 897 -292 888 -295 ct 880 -297 869 -299 856 -299 ct 842 -299 830 -297 820 -292 ct 
809 -287 800 -281 793 -272 ct 785 -263 779 -252 775 -239 ct 771 -226 769 -211 769 -195 ct 
769 0 l  713 0 l  713 -264 l  713 -271 713 -279 713 -286 ct 713 -294 713 -301 712 -308 ct 
712 -315 712 -321 712 -326 ct 712 -331 711 -334 711 -336 ct 764 -336 l  764 -335 764 -332 765 -327 ct 
765 -323 765 -318 765 -312 ct 766 -306 766 -300 766 -294 ct 766 -288 766 -283 766 -278 ct 
767 -278 l  773 -288 779 -297 785 -305 ct 791 -313 799 -319 807 -325 ct 816 -330 825 -335 836 -338 ct 
847 -341 860 -342 875 -342 ct 893 -342 909 -340 923 -335 ct 936 -331 947 -324 956 -314 ct 
964 -305 971 -292 975 -277 ct 979 -262 981 -244 981 -224 ct 981 0 l  925 0 l 
p ef
1132 -295 m  1132 0 l  1076 0 l  1076 -295 l  1029 -295 l  1029 -336 l 
1076 -336 l  1076 -374 l  1076 -386 1077 -397 1080 -408 ct 1082 -418 1086 -427 1092 -435 ct 
1098 -443 1107 -449 1117 -453 ct 1128 -458 1141 -460 1158 -460 ct 1165 -460 1171 -460 1179 -459 ct 
1186 -458 1192 -458 1197 -456 ct 1197 -414 l  1194 -414 1190 -415 1185 -415 ct 
1180 -416 1176 -416 1173 -416 ct 1164 -416 1158 -415 1152 -413 ct 1147 -411 1143 -407 1140 -403 ct 
1137 -399 1135 -394 1134 -387 ct 1133 -381 1132 -374 1132 -366 ct 1132 -336 l 
1197 -336 l  1197 -295 l  1132 -295 l  p ef
1240 -407 m  1240 -460 l  1296 -460 l  1296 -407 l  1240 -407 l  p
1240 1 m  1240 -335 l  1296 -335 l  1296 1 l  1240 1 l  p ef
1508 132 m  1489 132 1472 130 1457 126 ct 1442 122 1429 117 1419 109 ct 1408 102 1399 93 1393 83 ct 
1386 73 1382 61 1379 49 ct 1435 41 l  1438 56 1447 68 1459 77 ct 1472 85 1489 89 1509 89 ct 
1522 89 1534 88 1544 84 ct 1554 81 1563 75 1570 67 ct 1577 59 1583 49 1587 37 ct 
1591 25 1593 9 1593 -8 ct 1593 -63 l  1592 -63 l  1588 -54 1583 -46 1577 -38 ct 
1571 -30 1563 -24 1555 -18 ct 1546 -12 1536 -7 1524 -3 ct 1512 0 1499 2 1484 2 ct 
1463 2 1445 -1 1430 -8 ct 1414 -16 1402 -26 1392 -41 ct 1383 -55 1376 -73 1371 -94 ct 
1367 -115 1365 -139 1365 -167 ct 1365 -194 1367 -218 1371 -240 ct 1376 -261 1383 -280 1393 -295 ct 
1403 -310 1416 -321 1432 -329 ct 1448 -337 1468 -341 1491 -341 ct 1514 -341 1535 -336 1552 -325 ct 
1570 -314 1583 -298 1593 -278 ct 1593 -278 l  1593 -284 1594 -289 1594 -296 ct 
1594 -302 1595 -308 1595 -314 ct 1595 -320 1596 -324 1596 -329 ct 1596 -333 1597 -335 1597 -336 ct 
1650 -336 l  1650 -334 1650 -331 1650 -326 ct 1649 -322 1649 -316 1649 -310 ct 
1649 -304 1649 -297 1649 -290 ct 1648 -282 1648 -274 1648 -266 ct 1648 -10 l 
1648 37 1637 73 1614 96 ct 1591 120 1555 132 1508 132 ct p
1593 -168 m  1593 -191 1590 -211 1585 -228 ct 1580 -245 1574 -258 1565 -269 ct 
1557 -279 1548 -287 1537 -292 ct 1526 -297 1515 -299 1504 -299 ct 1490 -299 1478 -297 1467 -292 ct 
1457 -287 1449 -279 1442 -269 ct 1435 -258 1430 -244 1427 -228 ct 1424 -211 1422 -191 1422 -168 ct 
1422 -144 1424 -123 1427 -107 ct 1430 -91 1435 -77 1442 -67 ct 1448 -57 1457 -50 1467 -46 ct 
1477 -41 1489 -39 1503 -39 ct 1514 -39 1525 -41 1536 -46 ct 1547 -51 1556 -58 1565 -69 ct 
1573 -79 1580 -92 1585 -109 ct 1590 -125 1593 -145 1593 -168 ct p ef
1747 0 m  1747 -68 l  1807 -68 l  1807 0 l  1747 0 l  p ef
1910 1 m  1910 -460 l  1966 -460 l  1966 1 l  1910 1 l  p ef
2333 -168 m  2333 -110 2321 -66 2295 -37 ct 2269 -8 2231 6 2182 6 ct 2159 6 2138 2 2120 -5 ct 
2101 -12 2086 -22 2073 -37 ct 2060 -51 2050 -69 2044 -91 ct 2037 -113 2034 -139 2034 -168 ct 
2034 -284 2084 -342 2184 -342 ct 2210 -342 2233 -339 2251 -331 ct 2270 -324 2286 -313 2298 -299 ct 
2310 -284 2319 -266 2325 -245 ct 2331 -223 2333 -197 2333 -168 ct p
2275 -168 m  2275 -195 2273 -216 2269 -233 ct 2265 -250 2259 -264 2251 -274 ct 
2243 -284 2234 -291 2223 -295 ct 2212 -299 2199 -301 2185 -301 ct 2171 -301 2158 -299 2146 -295 ct 
2135 -290 2125 -283 2117 -273 ct 2109 -263 2103 -249 2099 -232 ct 2094 -215 2092 -194 2092 -168 ct 
2092 -142 2095 -121 2099 -104 ct 2104 -87 2110 -73 2118 -63 ct 2126 -53 2135 -46 2146 -41 ct 
2157 -37 2169 -35 2182 -35 ct 2196 -35 2209 -37 2220 -41 ct 2232 -45 2242 -52 2250 -63 ct 
2258 -73 2264 -86 2268 -104 ct 2273 -121 2275 -142 2275 -168 ct p ef
2528 132 m  2509 132 2492 130 2477 126 ct 2462 122 2449 117 2439 109 ct 2428 102 2419 93 2413 83 ct 
2406 73 2402 61 2399 49 ct 2455 41 l  2458 56 2467 68 2479 77 ct 2492 85 2509 89 2529 89 ct 
2542 89 2554 88 2564 84 ct 2574 81 2583 75 2590 67 ct 2597 59 2603 49 2607 37 ct 
2611 25 2613 9 2613 -8 ct 2613 -63 l  2612 -63 l  2608 -54 2603 -46 2597 -38 ct 
2591 -30 2583 -24 2575 -18 ct 2566 -12 2556 -7 2544 -3 ct 2532 0 2519 2 2504 2 ct 
2483 2 2465 -1 2450 -8 ct 2434 -16 2422 -26 2412 -41 ct 2403 -55 2396 -73 2391 -94 ct 
2387 -115 2385 -139 2385 -167 ct 2385 -194 2387 -218 2391 -240 ct 2396 -261 2403 -280 2413 -295 ct 
2423 -310 2436 -321 2452 -329 ct 2468 -337 2488 -341 2511 -341 ct 2534 -341 2555 -336 2572 -325 ct 
2590 -314 2603 -298 2613 -278 ct 2613 -278 l  2613 -284 2614 -289 2614 -296 ct 
2614 -302 2615 -308 2615 -314 ct 2615 -320 2616 -324 2616 -329 ct 2616 -333 2617 -335 2617 -336 ct 
2670 -336 l  2670 -334 2670 -331 2670 -326 ct 2669 -322 2669 -316 2669 -310 ct 
2669 -304 2669 -297 2669 -290 ct 2668 -282 2668 -274 2668 -266 ct 2668 -10 l 
2668 37 2657 73 2634 96 ct 2611 120 2575 132 2528 132 ct p
2613 -168 m  2613 -191 2610 -211 2605 -228 ct 2600 -245 2594 -258 2585 -269 ct 
2577 -279 2568 -287 2557 -292 ct 2546 -297 2535 -299 2524 -299 ct 2510 -299 2498 -297 2487 -292 ct 
2477 -287 2469 -279 2462 -269 ct 2455 -258 2450 -244 2447 -228 ct 2444 -211 2442 -191 2442 -168 ct 
2442 -144 2444 -123 2447 -107 ct 2450 -91 2455 -77 2462 -67 ct 2468 -57 2477 -50 2487 -46 ct 
2497 -41 2509 -39 2523 -39 ct 2534 -39 2545 -41 2556 -46 ct 2567 -51 2576 -58 2585 -69 ct 
2593 -79 2600 -92 2605 -109 ct 2610 -125 2613 -145 2613 -168 ct p ef
pom
1 lw 0 lj 12149 14706 m  12149 15774 12599 15278 12750 15695 ct ps
12799 16053 m  12860 15583 l  12565 15640 l  12799 16053 l  p ef
16594 14706 m  16594 15774 16188 15279 16052 15694 ct ps
16007 16053 m  16234 15637 l  15939 15584 l  16007 16053 l  p ef
4530 16686 m  3259 16686 2755 17202 2642 18235 ct ps
2624 18592 m  2804 18153 l  2504 18133 l  2624 18592 l  p ef
0 10164 t 
pom
count op_count sub {pop} repeat countdictstack dict_count sub {end} repeat b4_inc_state restore
%%PageTrailer
%%Trailer
%%EOF
