%!PS-Adobe-3.0 EPSF-3.0 
%%BoundingBox: 0 0 343 595
%%Pages: 0
%%Creator: Sun Microsystems, Inc.
%%Title: none
%%CreationDate: none
%%LanguageLevel: 2
%%EndComments
%%BeginProlog
%%BeginResource: procset SDRes-Prolog 1.0 0
/b4_inc_state save def
/dict_count countdictstack def
/op_count count 1 sub def
userdict begin
0 setgray 0 setlinecap 1 setlinewidth 0 setlinejoin 10 setmiterlimit[] 0 setdash newpath
/languagelevel where {pop languagelevel 1 ne {false setstrokeadjust false setoverprint} if} if
/bdef {bind def} bind def
/c {setgray} bdef
/l {neg lineto} bdef
/rl {neg rlineto} bdef
/lc {setlinecap} bdef
/lj {setlinejoin} bdef
/lw {setlinewidth} bdef
/ml {setmiterlimit} bdef
/ld {setdash} bdef
/m {neg moveto} bdef
/ct {6 2 roll neg 6 2 roll neg 6 2 roll neg curveto} bdef
/r {rotate} bdef
/t {neg translate} bdef
/s {scale} bdef
/sw {show} bdef
/gs {gsave} bdef
/gr {grestore} bdef
/f {findfont dup length dict begin
{1 index /FID ne {def} {pop pop} ifelse} forall /Encoding ISOLatin1Encoding def
currentdict end /NFont exch definefont pop /NFont findfont} bdef
/p {closepath} bdef
/sf {scalefont setfont} bdef
/ef {eofill}bdef
/pc {closepath stroke}bdef
/ps {stroke}bdef
/pum {matrix currentmatrix}bdef
/pom {setmatrix}bdef
/bs {/aString exch def /nXOfs exch def /nWidth exch def currentpoint nXOfs 0 rmoveto pum nWidth aString stringwidth pop div 1 scale aString show pom moveto} bdef
%%EndResource
%%EndProlog
%%BeginSetup
%%EndSetup
%%Page: 1 1
%%BeginPageSetup
%%EndPageSetup
pum
0.02836 0.02835 s 
0 -20984 t
/tm matrix currentmatrix def
tm setmatrix
-2904 -1633 t 
1 1 s 
0.996 c 2905 6714 m  6716 6714 l  6716 8620 l  2905 8620 l  2905 6714 l 
2905 6714 l  p ef
0 lw 1 lj 0.000 c 2905 6714 m  6716 6714 l  6716 8620 l  2905 8620 l  2905 6714 l 
2905 6714 l  pc
pum
3595 7887 t
128 6 m  95 6 69 -3 52 -21 ct 35 -39 27 -63 27 -94 ct 27 -117 31 -135 40 -149 ct 
48 -163 59 -174 72 -183 ct 86 -191 101 -196 119 -199 ct 136 -203 154 -204 172 -204 ct 
247 -204 l  247 -223 l  247 -237 246 -248 243 -258 ct 240 -268 235 -276 229 -282 ct 
223 -288 216 -292 207 -295 ct 198 -298 187 -299 175 -299 ct 164 -299 155 -299 146 -297 ct 
137 -296 130 -293 123 -289 ct 117 -285 112 -279 108 -272 ct 104 -265 101 -257 100 -246 ct 
42 -251 l  44 -265 48 -277 54 -288 ct 59 -299 68 -309 78 -317 ct 89 -325 102 -331 118 -335 ct 
134 -340 154 -342 176 -342 ct 219 -342 250 -332 272 -313 ct 293 -294 304 -266 304 -229 ct 
304 -85 l  304 -68 306 -55 310 -47 ct 314 -39 323 -35 335 -35 ct 338 -35 341 -35 344 -35 ct 
347 -36 350 -36 353 -37 ct 353 -2 l  346 0 339 1 332 2 ct 325 3 318 3 310 3 ct 
300 3 290 2 283 -1 ct 275 -4 269 -8 264 -14 ct 260 -20 256 -27 254 -35 ct 251 -43 250 -53 249 -64 ct 
247 -64 l  241 -54 235 -44 227 -35 ct 220 -27 212 -19 202 -13 ct 193 -7 182 -2 170 1 ct 
158 4 144 6 128 6 ct p
141 -36 m  159 -36 174 -39 188 -46 ct 201 -52 212 -60 221 -70 ct 230 -80 236 -91 241 -103 ct 
245 -115 247 -127 247 -138 ct 247 -165 l  186 -165 l  172 -165 159 -164 147 -162 ct 
135 -161 124 -157 115 -152 ct 105 -147 98 -139 93 -130 ct 87 -121 84 -108 84 -93 ct 
84 -75 89 -61 99 -51 ct 109 -41 123 -36 141 -36 ct p ef
448 -336 m  448 -123 l  448 -107 450 -93 452 -82 ct 454 -71 458 -62 464 -56 ct 
469 -49 476 -44 485 -41 ct 494 -39 504 -37 518 -37 ct 531 -37 543 -39 553 -44 ct 
564 -49 573 -55 581 -64 ct 588 -73 594 -84 598 -97 ct 602 -110 604 -125 604 -141 ct 
604 -336 l  660 -336 l  660 -72 l  660 -65 660 -57 660 -50 ct 660 -42 661 -35 661 -28 ct 
661 -21 661 -15 661 -10 ct 662 -5 662 -2 662 0 ct 609 0 l  609 -1 609 -4 609 -9 ct 
608 -13 608 -18 608 -24 ct 608 -30 607 -36 607 -42 ct 607 -48 607 -53 607 -58 ct 
606 -58 l  601 -48 595 -39 588 -31 ct 582 -23 574 -17 566 -11 ct 557 -6 548 -2 537 2 ct 
526 4 513 6 499 6 ct 480 6 464 4 451 -1 ct 437 -5 426 -12 417 -22 ct 409 -31 402 -44 398 -59 ct 
394 -73 392 -91 392 -112 ct 392 -336 l  448 -336 l  p ef
875 -2 m  866 0 858 2 849 3 ct 840 4 830 5 818 5 ct 774 5 751 -20 751 -71 ct 751 -295 l 
713 -295 l  713 -336 l  754 -336 l  770 -411 l  807 -411 l  807 -336 l 
869 -336 l  869 -295 l  807 -295 l  807 -83 l  807 -67 810 -56 815 -49 ct 
820 -43 830 -39 843 -39 ct 848 -39 853 -40 858 -41 ct 863 -41 869 -42 875 -44 ct 
875 -2 l  p ef
1207 -168 m  1207 -110 1195 -66 1169 -37 ct 1143 -8 1105 6 1056 6 ct 1033 6 1012 2 994 -5 ct 
975 -12 960 -22 947 -37 ct 934 -51 924 -69 918 -91 ct 911 -113 908 -139 908 -168 ct 
908 -284 958 -342 1058 -342 ct 1084 -342 1107 -339 1125 -331 ct 1144 -324 1160 -313 1172 -299 ct 
1184 -284 1193 -266 1199 -245 ct 1205 -223 1207 -197 1207 -168 ct p
1149 -168 m  1149 -195 1147 -216 1143 -233 ct 1139 -250 1133 -264 1125 -274 ct 
1117 -284 1108 -291 1097 -295 ct 1086 -299 1073 -301 1059 -301 ct 1045 -301 1032 -299 1020 -295 ct 
1009 -290 999 -283 991 -273 ct 983 -263 977 -249 973 -232 ct 968 -215 966 -194 966 -168 ct 
966 -142 969 -121 973 -104 ct 978 -87 984 -73 992 -63 ct 1000 -53 1009 -46 1020 -41 ct 
1031 -37 1043 -35 1056 -35 ct 1070 -35 1083 -37 1094 -41 ct 1106 -45 1116 -52 1124 -63 ct 
1132 -73 1138 -86 1142 -104 ct 1147 -121 1149 -142 1149 -168 ct p ef
1317 -170 m  1317 -150 1319 -133 1321 -117 ct 1324 -100 1329 -86 1336 -75 ct 
1342 -63 1351 -54 1362 -48 ct 1373 -41 1386 -38 1402 -38 ct 1422 -38 1438 -43 1452 -54 ct 
1465 -64 1473 -80 1476 -102 ct 1533 -102 l  1531 -88 1527 -74 1521 -61 ct 1514 -48 1506 -37 1495 -27 ct 
1485 -17 1472 -9 1456 -3 ct 1441 3 1424 6 1403 6 ct 1377 6 1355 2 1336 -7 ct 1318 -16 1303 -28 1292 -44 ct 
1280 -60 1272 -78 1267 -99 ct 1262 -121 1259 -144 1259 -168 ct 1259 -191 1261 -211 1265 -228 ct 
1268 -245 1274 -260 1280 -273 ct 1287 -286 1295 -297 1304 -306 ct 1313 -315 1323 -322 1334 -327 ct 
1344 -332 1355 -336 1367 -338 ct 1379 -341 1391 -342 1403 -342 ct 1422 -342 1438 -339 1453 -334 ct 
1468 -329 1480 -322 1491 -313 ct 1502 -304 1510 -293 1517 -281 ct 1524 -269 1528 -256 1531 -242 ct 
1474 -237 l  1471 -256 1463 -271 1452 -282 ct 1440 -293 1423 -298 1401 -298 ct 
1385 -298 1372 -296 1361 -290 ct 1351 -285 1342 -277 1336 -266 ct 1329 -256 1324 -242 1321 -226 ct 
1319 -210 1317 -191 1317 -170 ct p ef
1875 -168 m  1875 -110 1863 -66 1837 -37 ct 1811 -8 1773 6 1724 6 ct 1701 6 1680 2 1662 -5 ct 
1643 -12 1628 -22 1615 -37 ct 1602 -51 1592 -69 1586 -91 ct 1579 -113 1576 -139 1576 -168 ct 
1576 -284 1626 -342 1726 -342 ct 1752 -342 1775 -339 1793 -331 ct 1812 -324 1828 -313 1840 -299 ct 
1852 -284 1861 -266 1867 -245 ct 1873 -223 1875 -197 1875 -168 ct p
1817 -168 m  1817 -195 1815 -216 1811 -233 ct 1807 -250 1801 -264 1793 -274 ct 
1785 -284 1776 -291 1765 -295 ct 1754 -299 1741 -301 1727 -301 ct 1713 -301 1700 -299 1688 -295 ct 
1677 -290 1667 -283 1659 -273 ct 1651 -263 1645 -249 1641 -232 ct 1636 -215 1634 -194 1634 -168 ct 
1634 -142 1637 -121 1641 -104 ct 1646 -87 1652 -73 1660 -63 ct 1668 -53 1677 -46 1688 -41 ct 
1699 -37 1711 -35 1724 -35 ct 1738 -35 1751 -37 1762 -41 ct 1774 -45 1784 -52 1792 -63 ct 
1800 -73 1806 -86 1810 -104 ct 1815 -121 1817 -142 1817 -168 ct p ef
2157 0 m  2157 -213 l  2157 -229 2156 -243 2153 -254 ct 2151 -265 2147 -274 2142 -280 ct 
2136 -287 2129 -292 2120 -295 ct 2112 -297 2101 -299 2088 -299 ct 2074 -299 2062 -297 2052 -292 ct 
2041 -287 2032 -281 2025 -272 ct 2017 -263 2011 -252 2007 -239 ct 2003 -226 2001 -211 2001 -195 ct 
2001 0 l  1945 0 l  1945 -264 l  1945 -271 1945 -279 1945 -286 ct 1945 -294 1945 -301 1944 -308 ct 
1944 -315 1944 -321 1944 -326 ct 1944 -331 1943 -334 1943 -336 ct 1996 -336 l 
1996 -335 1996 -332 1997 -327 ct 1997 -323 1997 -318 1997 -312 ct 1998 -306 1998 -300 1998 -294 ct 
1998 -288 1998 -283 1998 -278 ct 1999 -278 l  2005 -288 2011 -297 2017 -305 ct 
2023 -313 2031 -319 2039 -325 ct 2048 -330 2057 -335 2068 -338 ct 2079 -341 2092 -342 2107 -342 ct 
2125 -342 2141 -340 2155 -335 ct 2168 -331 2179 -324 2188 -314 ct 2196 -305 2203 -292 2207 -277 ct 
2211 -262 2213 -244 2213 -224 ct 2213 0 l  2157 0 l  p ef
2364 -295 m  2364 0 l  2308 0 l  2308 -295 l  2261 -295 l  2261 -336 l 
2308 -336 l  2308 -374 l  2308 -386 2309 -397 2312 -408 ct 2314 -418 2318 -427 2324 -435 ct 
2330 -443 2339 -449 2349 -453 ct 2360 -458 2373 -460 2390 -460 ct 2397 -460 2403 -460 2411 -459 ct 
2418 -458 2424 -458 2429 -456 ct 2429 -414 l  2426 -414 2422 -415 2417 -415 ct 
2412 -416 2408 -416 2405 -416 ct 2396 -416 2390 -415 2384 -413 ct 2379 -411 2375 -407 2372 -403 ct 
2369 -399 2367 -394 2366 -387 ct 2365 -381 2364 -374 2364 -366 ct 2364 -336 l 
2429 -336 l  2429 -295 l  2364 -295 l  p ef
pom
0.996 c 9255 6714 m  13066 6714 l  13066 8620 l  9255 8620 l  9255 6714 l 
9255 6714 l  p ef
0.000 c 9255 6714 m  13066 6714 l  13066 8620 l  9255 8620 l  9255 6714 l 
9255 6714 l  pc
pum
9770 7887 t
128 6 m  95 6 69 -3 52 -21 ct 35 -39 27 -63 27 -94 ct 27 -117 31 -135 40 -149 ct 
48 -163 59 -174 72 -183 ct 86 -191 101 -196 119 -199 ct 136 -203 154 -204 172 -204 ct 
247 -204 l  247 -223 l  247 -237 246 -248 243 -258 ct 240 -268 235 -276 229 -282 ct 
223 -288 216 -292 207 -295 ct 198 -298 187 -299 175 -299 ct 164 -299 155 -299 146 -297 ct 
137 -296 130 -293 123 -289 ct 117 -285 112 -279 108 -272 ct 104 -265 101 -257 100 -246 ct 
42 -251 l  44 -265 48 -277 54 -288 ct 59 -299 68 -309 78 -317 ct 89 -325 102 -331 118 -335 ct 
134 -340 154 -342 176 -342 ct 219 -342 250 -332 272 -313 ct 293 -294 304 -266 304 -229 ct 
304 -85 l  304 -68 306 -55 310 -47 ct 314 -39 323 -35 335 -35 ct 338 -35 341 -35 344 -35 ct 
347 -36 350 -36 353 -37 ct 353 -2 l  346 0 339 1 332 2 ct 325 3 318 3 310 3 ct 
300 3 290 2 283 -1 ct 275 -4 269 -8 264 -14 ct 260 -20 256 -27 254 -35 ct 251 -43 250 -53 249 -64 ct 
247 -64 l  241 -54 235 -44 227 -35 ct 220 -27 212 -19 202 -13 ct 193 -7 182 -2 170 1 ct 
158 4 144 6 128 6 ct p
141 -36 m  159 -36 174 -39 188 -46 ct 201 -52 212 -60 221 -70 ct 230 -80 236 -91 241 -103 ct 
245 -115 247 -127 247 -138 ct 247 -165 l  186 -165 l  172 -165 159 -164 147 -162 ct 
135 -161 124 -157 115 -152 ct 105 -147 98 -139 93 -130 ct 87 -121 84 -108 84 -93 ct 
84 -75 89 -61 99 -51 ct 109 -41 123 -36 141 -36 ct p ef
448 -336 m  448 -123 l  448 -107 450 -93 452 -82 ct 454 -71 458 -62 464 -56 ct 
469 -49 476 -44 485 -41 ct 494 -39 504 -37 518 -37 ct 531 -37 543 -39 553 -44 ct 
564 -49 573 -55 581 -64 ct 588 -73 594 -84 598 -97 ct 602 -110 604 -125 604 -141 ct 
604 -336 l  660 -336 l  660 -72 l  660 -65 660 -57 660 -50 ct 660 -42 661 -35 661 -28 ct 
661 -21 661 -15 661 -10 ct 662 -5 662 -2 662 0 ct 609 0 l  609 -1 609 -4 609 -9 ct 
608 -13 608 -18 608 -24 ct 608 -30 607 -36 607 -42 ct 607 -48 607 -53 607 -58 ct 
606 -58 l  601 -48 595 -39 588 -31 ct 582 -23 574 -17 566 -11 ct 557 -6 548 -2 537 2 ct 
526 4 513 6 499 6 ct 480 6 464 4 451 -1 ct 437 -5 426 -12 417 -22 ct 409 -31 402 -44 398 -59 ct 
394 -73 392 -91 392 -112 ct 392 -336 l  448 -336 l  p ef
875 -2 m  866 0 858 2 849 3 ct 840 4 830 5 818 5 ct 774 5 751 -20 751 -71 ct 751 -295 l 
713 -295 l  713 -336 l  754 -336 l  770 -411 l  807 -411 l  807 -336 l 
869 -336 l  869 -295 l  807 -295 l  807 -83 l  807 -67 810 -56 815 -49 ct 
820 -43 830 -39 843 -39 ct 848 -39 853 -40 858 -41 ct 863 -41 869 -42 875 -44 ct 
875 -2 l  p ef
1207 -168 m  1207 -110 1195 -66 1169 -37 ct 1143 -8 1105 6 1056 6 ct 1033 6 1012 2 994 -5 ct 
975 -12 960 -22 947 -37 ct 934 -51 924 -69 918 -91 ct 911 -113 908 -139 908 -168 ct 
908 -284 958 -342 1058 -342 ct 1084 -342 1107 -339 1125 -331 ct 1144 -324 1160 -313 1172 -299 ct 
1184 -284 1193 -266 1199 -245 ct 1205 -223 1207 -197 1207 -168 ct p
1149 -168 m  1149 -195 1147 -216 1143 -233 ct 1139 -250 1133 -264 1125 -274 ct 
1117 -284 1108 -291 1097 -295 ct 1086 -299 1073 -301 1059 -301 ct 1045 -301 1032 -299 1020 -295 ct 
1009 -290 999 -283 991 -273 ct 983 -263 977 -249 973 -232 ct 968 -215 966 -194 966 -168 ct 
966 -142 969 -121 973 -104 ct 978 -87 984 -73 992 -63 ct 1000 -53 1009 -46 1020 -41 ct 
1031 -37 1043 -35 1056 -35 ct 1070 -35 1083 -37 1094 -41 ct 1106 -45 1116 -52 1124 -63 ct 
1132 -73 1138 -86 1142 -104 ct 1147 -121 1149 -142 1149 -168 ct p ef
1470 0 m  1470 -213 l  1470 -229 1469 -243 1467 -254 ct 1465 -265 1461 -274 1457 -280 ct 
1452 -287 1445 -292 1438 -295 ct 1430 -297 1420 -299 1409 -299 ct 1397 -299 1386 -297 1377 -292 ct 
1367 -287 1359 -281 1352 -272 ct 1346 -263 1341 -252 1337 -239 ct 1333 -226 1332 -211 1332 -195 ct 
1332 0 l  1276 0 l  1276 -264 l  1276 -271 1276 -279 1276 -286 ct 1276 -294 1276 -301 1275 -308 ct 
1275 -315 1275 -321 1275 -326 ct 1275 -331 1274 -334 1274 -336 ct 1327 -336 l 
1327 -335 1327 -332 1328 -327 ct 1328 -323 1328 -318 1328 -312 ct 1329 -306 1329 -300 1329 -294 ct 
1329 -288 1329 -283 1329 -278 ct 1330 -278 l  1335 -288 1341 -297 1346 -305 ct 
1352 -313 1359 -319 1367 -325 ct 1374 -330 1383 -335 1393 -338 ct 1403 -341 1415 -342 1428 -342 ct 
1454 -342 1474 -337 1489 -327 ct 1503 -317 1514 -301 1519 -278 ct 1520 -278 l 
1525 -288 1531 -297 1537 -305 ct 1543 -313 1551 -319 1559 -325 ct 1567 -330 1576 -335 1587 -338 ct 
1597 -341 1609 -342 1622 -342 ct 1639 -342 1654 -340 1666 -335 ct 1678 -331 1688 -324 1696 -314 ct 
1704 -305 1710 -292 1714 -277 ct 1717 -262 1719 -244 1719 -224 ct 1719 0 l  1664 0 l 
1664 -213 l  1664 -229 1663 -243 1661 -254 ct 1659 -265 1655 -274 1650 -280 ct 
1646 -287 1639 -292 1631 -295 ct 1624 -297 1614 -299 1603 -299 ct 1591 -299 1580 -297 1571 -292 ct 
1561 -288 1553 -281 1546 -272 ct 1540 -264 1534 -253 1531 -240 ct 1527 -227 1525 -212 1525 -195 ct 
1525 0 l  1470 0 l  p ef
1889 6 m  1856 6 1830 -3 1813 -21 ct 1796 -39 1788 -63 1788 -94 ct 1788 -117 1792 -135 1801 -149 ct 
1809 -163 1820 -174 1833 -183 ct 1847 -191 1862 -196 1880 -199 ct 1897 -203 1915 -204 1933 -204 ct 
2008 -204 l  2008 -223 l  2008 -237 2007 -248 2004 -258 ct 2001 -268 1996 -276 1990 -282 ct 
1984 -288 1977 -292 1968 -295 ct 1959 -298 1948 -299 1936 -299 ct 1925 -299 1916 -299 1907 -297 ct 
1898 -296 1891 -293 1884 -289 ct 1878 -285 1873 -279 1869 -272 ct 1865 -265 1862 -257 1861 -246 ct 
1803 -251 l  1805 -265 1809 -277 1815 -288 ct 1820 -299 1829 -309 1839 -317 ct 
1850 -325 1863 -331 1879 -335 ct 1895 -340 1915 -342 1937 -342 ct 1980 -342 2011 -332 2033 -313 ct 
2054 -294 2065 -266 2065 -229 ct 2065 -85 l  2065 -68 2067 -55 2071 -47 ct 2075 -39 2084 -35 2096 -35 ct 
2099 -35 2102 -35 2105 -35 ct 2108 -36 2111 -36 2114 -37 ct 2114 -2 l  2107 0 2100 1 2093 2 ct 
2086 3 2079 3 2071 3 ct 2061 3 2051 2 2044 -1 ct 2036 -4 2030 -8 2025 -14 ct 2021 -20 2017 -27 2015 -35 ct 
2012 -43 2011 -53 2010 -64 ct 2008 -64 l  2002 -54 1996 -44 1988 -35 ct 1981 -27 1973 -19 1963 -13 ct 
1954 -7 1943 -2 1931 1 ct 1919 4 1905 6 1889 6 ct p
1902 -36 m  1920 -36 1935 -39 1949 -46 ct 1962 -52 1973 -60 1982 -70 ct 1991 -80 1997 -91 2002 -103 ct 
2006 -115 2008 -127 2008 -138 ct 2008 -165 l  1947 -165 l  1933 -165 1920 -164 1908 -162 ct 
1896 -161 1885 -157 1876 -152 ct 1866 -147 1859 -139 1854 -130 ct 1848 -121 1845 -108 1845 -93 ct 
1845 -75 1850 -61 1860 -51 ct 1870 -41 1884 -36 1902 -36 ct p ef
2365 1 m  2252 -153 l  2211 -119 l  2211 1 l  2155 1 l  2155 -460 l  2211 -460 l 
2211 -172 l  2358 -335 l  2423 -335 l  2287 -191 l  2430 1 l  2365 1 l 
p ef
2516 -156 m  2516 -139 2517 -122 2521 -108 ct 2525 -93 2530 -80 2538 -70 ct 
2545 -59 2555 -51 2567 -45 ct 2579 -39 2593 -36 2609 -36 ct 2633 -36 2653 -41 2667 -50 ct 
2682 -60 2692 -72 2697 -87 ct 2746 -73 l  2742 -64 2738 -55 2731 -45 ct 2725 -36 2717 -27 2706 -20 ct 
2695 -12 2682 -6 2666 -1 ct 2651 4 2632 6 2609 6 ct 2560 6 2522 -9 2496 -38 ct 
2470 -68 2457 -112 2457 -170 ct 2457 -202 2461 -228 2469 -250 ct 2477 -272 2487 -290 2501 -303 ct 
2515 -317 2531 -327 2549 -333 ct 2567 -339 2586 -342 2607 -342 ct 2635 -342 2659 -338 2678 -329 ct 
2697 -320 2712 -307 2723 -291 ct 2735 -275 2743 -256 2748 -234 ct 2753 -212 2755 -189 2755 -164 ct 
2755 -156 l  2516 -156 l  p
2697 -199 m  2694 -234 2685 -260 2670 -277 ct 2655 -293 2634 -301 2606 -301 ct 
2597 -301 2587 -300 2577 -296 ct 2567 -293 2557 -288 2548 -280 ct 2540 -273 2532 -262 2526 -249 ct 
2520 -236 2517 -219 2516 -199 ct 2697 -199 l  p ef
pom
0.996 c 9255 15604 m  13066 15604 l  13066 17510 l  9255 17510 l  9255 15604 l 
9255 15604 l  p ef
0.000 c 9255 15604 m  13066 15604 l  13066 17510 l  9255 17510 l  9255 15604 l 
9255 15604 l  pc
pum
9858 16777 t
85 -170 m  85 -150 87 -133 89 -117 ct 92 -100 97 -86 104 -75 ct 110 -63 119 -54 130 -48 ct 
141 -41 154 -38 170 -38 ct 190 -38 206 -43 220 -54 ct 233 -64 241 -80 244 -102 ct 
301 -102 l  299 -88 295 -74 289 -61 ct 282 -48 274 -37 263 -27 ct 253 -17 240 -9 224 -3 ct 
209 3 192 6 171 6 ct 145 6 123 2 104 -7 ct 86 -16 71 -28 60 -44 ct 48 -60 40 -78 35 -99 ct 
30 -121 27 -144 27 -168 ct 27 -191 29 -211 33 -228 ct 36 -245 42 -260 48 -273 ct 
55 -286 63 -297 72 -306 ct 81 -315 91 -322 102 -327 ct 112 -332 123 -336 135 -338 ct 
147 -341 159 -342 171 -342 ct 190 -342 206 -339 221 -334 ct 236 -329 248 -322 259 -313 ct 
270 -304 278 -293 285 -281 ct 292 -269 296 -256 299 -242 ct 242 -237 l  239 -256 231 -271 220 -282 ct 
208 -293 191 -298 169 -298 ct 153 -298 140 -296 129 -290 ct 119 -285 110 -277 104 -266 ct 
97 -256 92 -242 89 -226 ct 87 -210 85 -191 85 -170 ct p ef
644 -168 m  644 -110 632 -66 606 -37 ct 580 -8 542 6 493 6 ct 470 6 449 2 431 -5 ct 
412 -12 397 -22 384 -37 ct 371 -51 361 -69 355 -91 ct 348 -113 345 -139 345 -168 ct 
345 -284 395 -342 495 -342 ct 521 -342 544 -339 562 -331 ct 581 -324 597 -313 609 -299 ct 
621 -284 630 -266 636 -245 ct 642 -223 644 -197 644 -168 ct p
586 -168 m  586 -195 584 -216 580 -233 ct 576 -250 570 -264 562 -274 ct 554 -284 545 -291 534 -295 ct 
523 -299 510 -301 496 -301 ct 482 -301 469 -299 457 -295 ct 446 -290 436 -283 428 -273 ct 
420 -263 414 -249 410 -232 ct 405 -215 403 -194 403 -168 ct 403 -142 406 -121 410 -104 ct 
415 -87 421 -73 429 -63 ct 437 -53 446 -46 457 -41 ct 468 -37 480 -35 493 -35 ct 
507 -35 520 -37 531 -41 ct 543 -45 553 -52 561 -63 ct 569 -73 575 -86 579 -104 ct 
584 -121 586 -142 586 -168 ct p ef
925 0 m  925 -213 l  925 -229 924 -243 921 -254 ct 919 -265 915 -274 910 -280 ct 
904 -287 897 -292 888 -295 ct 880 -297 869 -299 856 -299 ct 842 -299 830 -297 820 -292 ct 
809 -287 800 -281 793 -272 ct 785 -263 779 -252 775 -239 ct 771 -226 769 -211 769 -195 ct 
769 0 l  713 0 l  713 -264 l  713 -271 713 -279 713 -286 ct 713 -294 713 -301 712 -308 ct 
712 -315 712 -321 712 -326 ct 712 -331 711 -334 711 -336 ct 764 -336 l  764 -335 764 -332 765 -327 ct 
765 -323 765 -318 765 -312 ct 766 -306 766 -300 766 -294 ct 766 -288 766 -283 766 -278 ct 
767 -278 l  773 -288 779 -297 785 -305 ct 791 -313 799 -319 807 -325 ct 816 -330 825 -335 836 -338 ct 
847 -341 860 -342 875 -342 ct 893 -342 909 -340 923 -335 ct 936 -331 947 -324 956 -314 ct 
964 -305 971 -292 975 -277 ct 979 -262 981 -244 981 -224 ct 981 0 l  925 0 l 
p ef
1132 -295 m  1132 0 l  1076 0 l  1076 -295 l  1029 -295 l  1029 -336 l 
1076 -336 l  1076 -374 l  1076 -386 1077 -397 1080 -408 ct 1082 -418 1086 -427 1092 -435 ct 
1098 -443 1107 -449 1117 -453 ct 1128 -458 1141 -460 1158 -460 ct 1165 -460 1171 -460 1179 -459 ct 
1186 -458 1192 -458 1197 -456 ct 1197 -414 l  1194 -414 1190 -415 1185 -415 ct 
1180 -416 1176 -416 1173 -416 ct 1164 -416 1158 -415 1152 -413 ct 1147 -411 1143 -407 1140 -403 ct 
1137 -399 1135 -394 1134 -387 ct 1133 -381 1132 -374 1132 -366 ct 1132 -336 l 
1197 -336 l  1197 -295 l  1132 -295 l  p ef
1240 -407 m  1240 -460 l  1296 -460 l  1296 -407 l  1240 -407 l  p
1240 1 m  1240 -335 l  1296 -335 l  1296 1 l  1240 1 l  p ef
1508 132 m  1489 132 1472 130 1457 126 ct 1442 122 1429 117 1419 109 ct 1408 102 1399 93 1393 83 ct 
1386 73 1382 61 1379 49 ct 1435 41 l  1438 56 1447 68 1459 77 ct 1472 85 1489 89 1509 89 ct 
1522 89 1534 88 1544 84 ct 1554 81 1563 75 1570 67 ct 1577 59 1583 49 1587 37 ct 
1591 25 1593 9 1593 -8 ct 1593 -63 l  1592 -63 l  1588 -54 1583 -46 1577 -38 ct 
1571 -30 1563 -24 1555 -18 ct 1546 -12 1536 -7 1524 -3 ct 1512 0 1499 2 1484 2 ct 
1463 2 1445 -1 1430 -8 ct 1414 -16 1402 -26 1392 -41 ct 1383 -55 1376 -73 1371 -94 ct 
1367 -115 1365 -139 1365 -167 ct 1365 -194 1367 -218 1371 -240 ct 1376 -261 1383 -280 1393 -295 ct 
1403 -310 1416 -321 1432 -329 ct 1448 -337 1468 -341 1491 -341 ct 1514 -341 1535 -336 1552 -325 ct 
1570 -314 1583 -298 1593 -278 ct 1593 -278 l  1593 -284 1594 -289 1594 -296 ct 
1594 -302 1595 -308 1595 -314 ct 1595 -320 1596 -324 1596 -329 ct 1596 -333 1597 -335 1597 -336 ct 
1650 -336 l  1650 -334 1650 -331 1650 -326 ct 1649 -322 1649 -316 1649 -310 ct 
1649 -304 1649 -297 1649 -290 ct 1648 -282 1648 -274 1648 -266 ct 1648 -10 l 
1648 37 1637 73 1614 96 ct 1591 120 1555 132 1508 132 ct p
1593 -168 m  1593 -191 1590 -211 1585 -228 ct 1580 -245 1574 -258 1565 -269 ct 
1557 -279 1548 -287 1537 -292 ct 1526 -297 1515 -299 1504 -299 ct 1490 -299 1478 -297 1467 -292 ct 
1457 -287 1449 -279 1442 -269 ct 1435 -258 1430 -244 1427 -228 ct 1424 -211 1422 -191 1422 -168 ct 
1422 -144 1424 -123 1427 -107 ct 1430 -91 1435 -77 1442 -67 ct 1448 -57 1457 -50 1467 -46 ct 
1477 -41 1489 -39 1503 -39 ct 1514 -39 1525 -41 1536 -46 ct 1547 -51 1556 -58 1565 -69 ct 
1573 -79 1580 -92 1585 -109 ct 1590 -125 1593 -145 1593 -168 ct p ef
1786 -336 m  1786 -123 l  1786 -107 1788 -93 1790 -82 ct 1792 -71 1796 -62 1802 -56 ct 
1807 -49 1814 -44 1823 -41 ct 1832 -39 1842 -37 1856 -37 ct 1869 -37 1881 -39 1891 -44 ct 
1902 -49 1911 -55 1919 -64 ct 1926 -73 1932 -84 1936 -97 ct 1940 -110 1942 -125 1942 -141 ct 
1942 -336 l  1998 -336 l  1998 -72 l  1998 -65 1998 -57 1998 -50 ct 1998 -42 1999 -35 1999 -28 ct 
1999 -21 1999 -15 1999 -10 ct 2000 -5 2000 -2 2000 0 ct 1947 0 l  1947 -1 1947 -4 1947 -9 ct 
1946 -13 1946 -18 1946 -24 ct 1946 -30 1945 -36 1945 -42 ct 1945 -48 1945 -53 1945 -58 ct 
1944 -58 l  1939 -48 1933 -39 1926 -31 ct 1920 -23 1912 -17 1904 -11 ct 1895 -6 1886 -2 1875 2 ct 
1864 4 1851 6 1837 6 ct 1818 6 1802 4 1789 -1 ct 1775 -5 1764 -12 1755 -22 ct 1747 -31 1740 -44 1736 -59 ct 
1732 -73 1730 -91 1730 -112 ct 1730 -336 l  1786 -336 l  p ef
2084 0 m  2084 -258 l  2084 -265 2084 -272 2084 -279 ct 2084 -287 2084 -294 2083 -300 ct 
2083 -307 2083 -314 2083 -320 ct 2083 -326 2082 -331 2082 -336 ct 2135 -336 l 
2135 -331 2135 -326 2136 -320 ct 2136 -313 2136 -307 2137 -301 ct 2137 -294 2137 -288 2137 -282 ct 
2137 -276 2137 -271 2137 -267 ct 2139 -267 l  2143 -280 2147 -291 2151 -301 ct 
2156 -310 2161 -318 2167 -324 ct 2173 -330 2180 -335 2188 -338 ct 2196 -341 2207 -342 2218 -342 ct 
2223 -342 2227 -342 2231 -341 ct 2235 -340 2239 -340 2241 -339 ct 2241 -288 l 
2237 -289 2233 -290 2228 -290 ct 2223 -291 2217 -291 2211 -291 ct 2198 -291 2187 -288 2178 -282 ct 
2169 -276 2162 -268 2156 -258 ct 2151 -248 2147 -236 2144 -221 ct 2141 -207 2140 -192 2140 -175 ct 
2140 0 l  2084 0 l  p ef
2338 -156 m  2338 -139 2339 -122 2343 -108 ct 2347 -93 2352 -80 2360 -70 ct 
2367 -59 2377 -51 2389 -45 ct 2401 -39 2415 -36 2431 -36 ct 2455 -36 2475 -41 2489 -50 ct 
2504 -60 2514 -72 2519 -87 ct 2568 -73 l  2564 -64 2560 -55 2553 -45 ct 2547 -36 2539 -27 2528 -20 ct 
2517 -12 2504 -6 2488 -1 ct 2473 4 2454 6 2431 6 ct 2382 6 2344 -9 2318 -38 ct 
2292 -68 2279 -112 2279 -170 ct 2279 -202 2283 -228 2291 -250 ct 2299 -272 2309 -290 2323 -303 ct 
2337 -317 2353 -327 2371 -333 ct 2389 -339 2408 -342 2429 -342 ct 2457 -342 2481 -338 2500 -329 ct 
2519 -320 2534 -307 2545 -291 ct 2557 -275 2565 -256 2570 -234 ct 2575 -212 2577 -189 2577 -164 ct 
2577 -156 l  2338 -156 l  p
2519 -199 m  2516 -234 2507 -260 2492 -277 ct 2477 -293 2456 -301 2428 -301 ct 
2419 -301 2409 -300 2399 -296 ct 2389 -293 2379 -288 2370 -280 ct 2362 -273 2354 -262 2348 -249 ct 
2342 -236 2339 -219 2338 -199 ct 2519 -199 l  p ef
pom
0.996 c 2905 1634 m  6716 1634 l  6716 3165 l  5207 3153 5258 3466 3896 3540 ct 
3409 3495 3231 3460 2905 3409 ct 2905 1634 l  p ef
0.000 c 2905 1634 m  6716 1634 l  6716 3165 l  5207 3153 5258 3466 3896 3540 ct 
3409 3495 3231 3460 2905 3409 ct 2905 1634 l  pc
pum
3085 2620 t
85 -170 m  85 -150 87 -133 89 -117 ct 92 -100 97 -86 104 -75 ct 110 -63 119 -54 130 -48 ct 
141 -41 154 -38 170 -38 ct 190 -38 206 -43 220 -54 ct 233 -64 241 -80 244 -102 ct 
301 -102 l  299 -88 295 -74 289 -61 ct 282 -48 274 -37 263 -27 ct 253 -17 240 -9 224 -3 ct 
209 3 192 6 171 6 ct 145 6 123 2 104 -7 ct 86 -16 71 -28 60 -44 ct 48 -60 40 -78 35 -99 ct 
30 -121 27 -144 27 -168 ct 27 -191 29 -211 33 -228 ct 36 -245 42 -260 48 -273 ct 
55 -286 63 -297 72 -306 ct 81 -315 91 -322 102 -327 ct 112 -332 123 -336 135 -338 ct 
147 -341 159 -342 171 -342 ct 190 -342 206 -339 221 -334 ct 236 -329 248 -322 259 -313 ct 
270 -304 278 -293 285 -281 ct 292 -269 296 -256 299 -242 ct 242 -237 l  239 -256 231 -271 220 -282 ct 
208 -293 191 -298 169 -298 ct 153 -298 140 -296 129 -290 ct 119 -285 110 -277 104 -266 ct 
97 -256 92 -242 89 -226 ct 87 -210 85 -191 85 -170 ct p ef
644 -168 m  644 -110 632 -66 606 -37 ct 580 -8 542 6 493 6 ct 470 6 449 2 431 -5 ct 
412 -12 397 -22 384 -37 ct 371 -51 361 -69 355 -91 ct 348 -113 345 -139 345 -168 ct 
345 -284 395 -342 495 -342 ct 521 -342 544 -339 562 -331 ct 581 -324 597 -313 609 -299 ct 
621 -284 630 -266 636 -245 ct 642 -223 644 -197 644 -168 ct p
586 -168 m  586 -195 584 -216 580 -233 ct 576 -250 570 -264 562 -274 ct 554 -284 545 -291 534 -295 ct 
523 -299 510 -301 496 -301 ct 482 -301 469 -299 457 -295 ct 446 -290 436 -283 428 -273 ct 
420 -263 414 -249 410 -232 ct 405 -215 403 -194 403 -168 ct 403 -142 406 -121 410 -104 ct 
415 -87 421 -73 429 -63 ct 437 -53 446 -46 457 -41 ct 468 -37 480 -35 493 -35 ct 
507 -35 520 -37 531 -41 ct 543 -45 553 -52 561 -63 ct 569 -73 575 -86 579 -104 ct 
584 -121 586 -142 586 -168 ct p ef
925 0 m  925 -213 l  925 -229 924 -243 921 -254 ct 919 -265 915 -274 910 -280 ct 
904 -287 897 -292 888 -295 ct 880 -297 869 -299 856 -299 ct 842 -299 830 -297 820 -292 ct 
809 -287 800 -281 793 -272 ct 785 -263 779 -252 775 -239 ct 771 -226 769 -211 769 -195 ct 
769 0 l  713 0 l  713 -264 l  713 -271 713 -279 713 -286 ct 713 -294 713 -301 712 -308 ct 
712 -315 712 -321 712 -326 ct 712 -331 711 -334 711 -336 ct 764 -336 l  764 -335 764 -332 765 -327 ct 
765 -323 765 -318 765 -312 ct 766 -306 766 -300 766 -294 ct 766 -288 766 -283 766 -278 ct 
767 -278 l  773 -288 779 -297 785 -305 ct 791 -313 799 -319 807 -325 ct 816 -330 825 -335 836 -338 ct 
847 -341 860 -342 875 -342 ct 893 -342 909 -340 923 -335 ct 936 -331 947 -324 956 -314 ct 
964 -305 971 -292 975 -277 ct 979 -262 981 -244 981 -224 ct 981 0 l  925 0 l 
p ef
1132 -295 m  1132 0 l  1076 0 l  1076 -295 l  1029 -295 l  1029 -336 l 
1076 -336 l  1076 -374 l  1076 -386 1077 -397 1080 -408 ct 1082 -418 1086 -427 1092 -435 ct 
1098 -443 1107 -449 1117 -453 ct 1128 -458 1141 -460 1158 -460 ct 1165 -460 1171 -460 1179 -459 ct 
1186 -458 1192 -458 1197 -456 ct 1197 -414 l  1194 -414 1190 -415 1185 -415 ct 
1180 -416 1176 -416 1173 -416 ct 1164 -416 1158 -415 1152 -413 ct 1147 -411 1143 -407 1140 -403 ct 
1137 -399 1135 -394 1134 -387 ct 1133 -381 1132 -374 1132 -366 ct 1132 -336 l 
1197 -336 l  1197 -295 l  1132 -295 l  p ef
1240 -407 m  1240 -460 l  1296 -460 l  1296 -407 l  1240 -407 l  p
1240 1 m  1240 -335 l  1296 -335 l  1296 1 l  1240 1 l  p ef
1508 132 m  1489 132 1472 130 1457 126 ct 1442 122 1429 117 1419 109 ct 1408 102 1399 93 1393 83 ct 
1386 73 1382 61 1379 49 ct 1435 41 l  1438 56 1447 68 1459 77 ct 1472 85 1489 89 1509 89 ct 
1522 89 1534 88 1544 84 ct 1554 81 1563 75 1570 67 ct 1577 59 1583 49 1587 37 ct 
1591 25 1593 9 1593 -8 ct 1593 -63 l  1592 -63 l  1588 -54 1583 -46 1577 -38 ct 
1571 -30 1563 -24 1555 -18 ct 1546 -12 1536 -7 1524 -3 ct 1512 0 1499 2 1484 2 ct 
1463 2 1445 -1 1430 -8 ct 1414 -16 1402 -26 1392 -41 ct 1383 -55 1376 -73 1371 -94 ct 
1367 -115 1365 -139 1365 -167 ct 1365 -194 1367 -218 1371 -240 ct 1376 -261 1383 -280 1393 -295 ct 
1403 -310 1416 -321 1432 -329 ct 1448 -337 1468 -341 1491 -341 ct 1514 -341 1535 -336 1552 -325 ct 
1570 -314 1583 -298 1593 -278 ct 1593 -278 l  1593 -284 1594 -289 1594 -296 ct 
1594 -302 1595 -308 1595 -314 ct 1595 -320 1596 -324 1596 -329 ct 1596 -333 1597 -335 1597 -336 ct 
1650 -336 l  1650 -334 1650 -331 1650 -326 ct 1649 -322 1649 -316 1649 -310 ct 
1649 -304 1649 -297 1649 -290 ct 1648 -282 1648 -274 1648 -266 ct 1648 -10 l 
1648 37 1637 73 1614 96 ct 1591 120 1555 132 1508 132 ct p
1593 -168 m  1593 -191 1590 -211 1585 -228 ct 1580 -245 1574 -258 1565 -269 ct 
1557 -279 1548 -287 1537 -292 ct 1526 -297 1515 -299 1504 -299 ct 1490 -299 1478 -297 1467 -292 ct 
1457 -287 1449 -279 1442 -269 ct 1435 -258 1430 -244 1427 -228 ct 1424 -211 1422 -191 1422 -168 ct 
1422 -144 1424 -123 1427 -107 ct 1430 -91 1435 -77 1442 -67 ct 1448 -57 1457 -50 1467 -46 ct 
1477 -41 1489 -39 1503 -39 ct 1514 -39 1525 -41 1536 -46 ct 1547 -51 1556 -58 1565 -69 ct 
1573 -79 1580 -92 1585 -109 ct 1590 -125 1593 -145 1593 -168 ct p ef
1786 -336 m  1786 -123 l  1786 -107 1788 -93 1790 -82 ct 1792 -71 1796 -62 1802 -56 ct 
1807 -49 1814 -44 1823 -41 ct 1832 -39 1842 -37 1856 -37 ct 1869 -37 1881 -39 1891 -44 ct 
1902 -49 1911 -55 1919 -64 ct 1926 -73 1932 -84 1936 -97 ct 1940 -110 1942 -125 1942 -141 ct 
1942 -336 l  1998 -336 l  1998 -72 l  1998 -65 1998 -57 1998 -50 ct 1998 -42 1999 -35 1999 -28 ct 
1999 -21 1999 -15 1999 -10 ct 2000 -5 2000 -2 2000 0 ct 1947 0 l  1947 -1 1947 -4 1947 -9 ct 
1946 -13 1946 -18 1946 -24 ct 1946 -30 1945 -36 1945 -42 ct 1945 -48 1945 -53 1945 -58 ct 
1944 -58 l  1939 -48 1933 -39 1926 -31 ct 1920 -23 1912 -17 1904 -11 ct 1895 -6 1886 -2 1875 2 ct 
1864 4 1851 6 1837 6 ct 1818 6 1802 4 1789 -1 ct 1775 -5 1764 -12 1755 -22 ct 1747 -31 1740 -44 1736 -59 ct 
1732 -73 1730 -91 1730 -112 ct 1730 -336 l  1786 -336 l  p ef
2084 0 m  2084 -258 l  2084 -265 2084 -272 2084 -279 ct 2084 -287 2084 -294 2083 -300 ct 
2083 -307 2083 -314 2083 -320 ct 2083 -326 2082 -331 2082 -336 ct 2135 -336 l 
2135 -331 2135 -326 2136 -320 ct 2136 -313 2136 -307 2137 -301 ct 2137 -294 2137 -288 2137 -282 ct 
2137 -276 2137 -271 2137 -267 ct 2139 -267 l  2143 -280 2147 -291 2151 -301 ct 
2156 -310 2161 -318 2167 -324 ct 2173 -330 2180 -335 2188 -338 ct 2196 -341 2207 -342 2218 -342 ct 
2223 -342 2227 -342 2231 -341 ct 2235 -340 2239 -340 2241 -339 ct 2241 -288 l 
2237 -289 2233 -290 2228 -290 ct 2223 -291 2217 -291 2211 -291 ct 2198 -291 2187 -288 2178 -282 ct 
2169 -276 2162 -268 2156 -258 ct 2151 -248 2147 -236 2144 -221 ct 2141 -207 2140 -192 2140 -175 ct 
2140 0 l  2084 0 l  p ef
2338 -156 m  2338 -139 2339 -122 2343 -108 ct 2347 -93 2352 -80 2360 -70 ct 
2367 -59 2377 -51 2389 -45 ct 2401 -39 2415 -36 2431 -36 ct 2455 -36 2475 -41 2489 -50 ct 
2504 -60 2514 -72 2519 -87 ct 2568 -73 l  2564 -64 2560 -55 2553 -45 ct 2547 -36 2539 -27 2528 -20 ct 
2517 -12 2504 -6 2488 -1 ct 2473 4 2454 6 2431 6 ct 2382 6 2344 -9 2318 -38 ct 
2292 -68 2279 -112 2279 -170 ct 2279 -202 2283 -228 2291 -250 ct 2299 -272 2309 -290 2323 -303 ct 
2337 -317 2353 -327 2371 -333 ct 2389 -339 2408 -342 2429 -342 ct 2457 -342 2481 -338 2500 -329 ct 
2519 -320 2534 -307 2545 -291 ct 2557 -275 2565 -256 2570 -234 ct 2575 -212 2577 -189 2577 -164 ct 
2577 -156 l  2338 -156 l  p
2519 -199 m  2516 -234 2507 -260 2492 -277 ct 2477 -293 2456 -301 2428 -301 ct 
2419 -301 2409 -300 2399 -296 ct 2389 -293 2379 -288 2370 -280 ct 2362 -273 2354 -262 2348 -249 ct 
2342 -236 2339 -219 2338 -199 ct 2519 -199 l  p ef
2662 0 m  2662 -68 l  2722 -68 l  2722 0 l  2662 0 l  p ef
2909 6 m  2876 6 2850 -3 2833 -21 ct 2816 -39 2808 -63 2808 -94 ct 2808 -117 2812 -135 2821 -149 ct 
2829 -163 2840 -174 2853 -183 ct 2867 -191 2882 -196 2900 -199 ct 2917 -203 2935 -204 2953 -204 ct 
3028 -204 l  3028 -223 l  3028 -237 3027 -248 3024 -258 ct 3021 -268 3016 -276 3010 -282 ct 
3004 -288 2997 -292 2988 -295 ct 2979 -298 2968 -299 2956 -299 ct 2945 -299 2936 -299 2927 -297 ct 
2918 -296 2911 -293 2904 -289 ct 2898 -285 2893 -279 2889 -272 ct 2885 -265 2882 -257 2881 -246 ct 
2823 -251 l  2825 -265 2829 -277 2835 -288 ct 2840 -299 2849 -309 2859 -317 ct 
2870 -325 2883 -331 2899 -335 ct 2915 -340 2935 -342 2957 -342 ct 3000 -342 3031 -332 3053 -313 ct 
3074 -294 3085 -266 3085 -229 ct 3085 -85 l  3085 -68 3087 -55 3091 -47 ct 3095 -39 3104 -35 3116 -35 ct 
3119 -35 3122 -35 3125 -35 ct 3128 -36 3131 -36 3134 -37 ct 3134 -2 l  3127 0 3120 1 3113 2 ct 
3106 3 3099 3 3091 3 ct 3081 3 3071 2 3064 -1 ct 3056 -4 3050 -8 3045 -14 ct 3041 -20 3037 -27 3035 -35 ct 
3032 -43 3031 -53 3030 -64 ct 3028 -64 l  3022 -54 3016 -44 3008 -35 ct 3001 -27 2993 -19 2983 -13 ct 
2974 -7 2963 -2 2951 1 ct 2939 4 2925 6 2909 6 ct p
2922 -36 m  2940 -36 2955 -39 2969 -46 ct 2982 -52 2993 -60 3002 -70 ct 3011 -80 3017 -91 3022 -103 ct 
3026 -115 3028 -127 3028 -138 ct 3028 -165 l  2967 -165 l  2953 -165 2940 -164 2928 -162 ct 
2916 -161 2905 -157 2896 -152 ct 2886 -147 2879 -139 2874 -130 ct 2868 -121 2865 -108 2865 -93 ct 
2865 -75 2870 -61 2880 -51 ct 2890 -41 2904 -36 2922 -36 ct p ef
3218 -170 m  3218 -150 3220 -133 3222 -117 ct 3225 -100 3230 -86 3237 -75 ct 
3243 -63 3252 -54 3263 -48 ct 3274 -41 3287 -38 3303 -38 ct 3323 -38 3339 -43 3353 -54 ct 
3366 -64 3374 -80 3377 -102 ct 3434 -102 l  3432 -88 3428 -74 3422 -61 ct 3415 -48 3407 -37 3396 -27 ct 
3386 -17 3373 -9 3357 -3 ct 3342 3 3325 6 3304 6 ct 3278 6 3256 2 3237 -7 ct 3219 -16 3204 -28 3193 -44 ct 
3181 -60 3173 -78 3168 -99 ct 3163 -121 3160 -144 3160 -168 ct 3160 -191 3162 -211 3166 -228 ct 
3169 -245 3175 -260 3181 -273 ct 3188 -286 3196 -297 3205 -306 ct 3214 -315 3224 -322 3235 -327 ct 
3245 -332 3256 -336 3268 -338 ct 3280 -341 3292 -342 3304 -342 ct 3323 -342 3339 -339 3354 -334 ct 
3369 -329 3381 -322 3392 -313 ct 3403 -304 3411 -293 3418 -281 ct 3425 -269 3429 -256 3432 -242 ct 
3375 -237 l  3372 -256 3364 -271 3353 -282 ct 3341 -293 3324 -298 3302 -298 ct 
3286 -298 3273 -296 3262 -290 ct 3252 -285 3243 -277 3237 -266 ct 3230 -256 3225 -242 3222 -226 ct 
3220 -210 3218 -191 3218 -170 ct p ef
pom
0.996 c 9255 1634 m  13066 1634 l  13066 3165 l  11557 3153 11608 3466 10246 3540 ct 
9759 3495 9581 3460 9255 3409 ct 9255 1634 l  p ef
0.000 c 9255 1634 m  13066 1634 l  13066 3165 l  11557 3153 11608 3466 10246 3540 ct 
9759 3495 9581 3460 9255 3409 ct 9255 1634 l  pc
pum
9452 2620 t
424 0 m  424 -292 l  424 -302 424 -313 424 -324 ct 424 -335 424 -345 425 -354 ct 
425 -365 426 -375 426 -385 ct 423 -374 420 -364 417 -353 ct 415 -345 412 -335 409 -325 ct 
405 -315 402 -306 399 -298 ct 286 0 l  245 0 l  130 -298 l  129 -301 128 -305 126 -309 ct 
125 -313 124 -317 122 -322 ct 120 -327 119 -331 117 -336 ct 116 -341 114 -346 113 -351 ct 
109 -362 106 -373 103 -385 ct 103 -373 103 -362 104 -350 ct 104 -341 104 -330 104 -320 ct 
105 -309 105 -300 105 -292 ct 105 0 l  52 0 l  52 -437 l  130 -437 l  246 -134 l 
248 -130 249 -125 251 -118 ct 254 -112 255 -105 257 -98 ct 259 -91 261 -85 262 -79 ct 
264 -73 265 -68 266 -65 ct 266 -68 267 -73 269 -79 ct 271 -85 273 -92 275 -98 ct 
277 -105 279 -112 281 -118 ct 283 -125 285 -130 287 -134 ct 401 -437 l  477 -437 l 
477 0 l  424 0 l  p ef
657 6 m  624 6 598 -3 581 -21 ct 564 -39 556 -63 556 -94 ct 556 -117 560 -135 569 -149 ct 
577 -163 588 -174 601 -183 ct 615 -191 630 -196 648 -199 ct 665 -203 683 -204 701 -204 ct 
776 -204 l  776 -223 l  776 -237 775 -248 772 -258 ct 769 -268 764 -276 758 -282 ct 
752 -288 745 -292 736 -295 ct 727 -298 716 -299 704 -299 ct 693 -299 684 -299 675 -297 ct 
666 -296 659 -293 652 -289 ct 646 -285 641 -279 637 -272 ct 633 -265 630 -257 629 -246 ct 
571 -251 l  573 -265 577 -277 583 -288 ct 588 -299 597 -309 607 -317 ct 618 -325 631 -331 647 -335 ct 
663 -340 683 -342 705 -342 ct 748 -342 779 -332 801 -313 ct 822 -294 833 -266 833 -229 ct 
833 -85 l  833 -68 835 -55 839 -47 ct 843 -39 852 -35 864 -35 ct 867 -35 870 -35 873 -35 ct 
876 -36 879 -36 882 -37 ct 882 -2 l  875 0 868 1 861 2 ct 854 3 847 3 839 3 ct 
829 3 819 2 812 -1 ct 804 -4 798 -8 793 -14 ct 789 -20 785 -27 783 -35 ct 780 -43 779 -53 778 -64 ct 
776 -64 l  770 -54 764 -44 756 -35 ct 749 -27 741 -19 731 -13 ct 722 -7 711 -2 699 1 ct 
687 4 673 6 657 6 ct p
670 -36 m  688 -36 703 -39 717 -46 ct 730 -52 741 -60 750 -70 ct 759 -80 765 -91 770 -103 ct 
774 -115 776 -127 776 -138 ct 776 -165 l  715 -165 l  701 -165 688 -164 676 -162 ct 
664 -161 653 -157 644 -152 ct 634 -147 627 -139 622 -130 ct 616 -121 613 -108 613 -93 ct 
613 -75 618 -61 628 -51 ct 638 -41 652 -36 670 -36 ct p ef
1134 1 m  1021 -153 l  980 -119 l  980 1 l  924 1 l  924 -460 l  980 -460 l 
980 -172 l  1127 -335 l  1192 -335 l  1056 -191 l  1199 1 l  1134 1 l 
p ef
1284 -156 m  1284 -139 1285 -122 1289 -108 ct 1293 -93 1298 -80 1306 -70 ct 
1313 -59 1323 -51 1335 -45 ct 1347 -39 1361 -36 1377 -36 ct 1401 -36 1421 -41 1435 -50 ct 
1450 -60 1460 -72 1465 -87 ct 1514 -73 l  1510 -64 1506 -55 1499 -45 ct 1493 -36 1485 -27 1474 -20 ct 
1463 -12 1450 -6 1434 -1 ct 1419 4 1400 6 1377 6 ct 1328 6 1290 -9 1264 -38 ct 
1238 -68 1225 -112 1225 -170 ct 1225 -202 1229 -228 1237 -250 ct 1245 -272 1255 -290 1269 -303 ct 
1283 -317 1299 -327 1317 -333 ct 1335 -339 1354 -342 1375 -342 ct 1403 -342 1427 -338 1446 -329 ct 
1465 -320 1480 -307 1491 -291 ct 1503 -275 1511 -256 1516 -234 ct 1521 -212 1523 -189 1523 -164 ct 
1523 -156 l  1284 -156 l  p
1465 -199 m  1462 -234 1453 -260 1438 -277 ct 1423 -293 1402 -301 1374 -301 ct 
1365 -301 1355 -300 1345 -296 ct 1335 -293 1325 -288 1316 -280 ct 1308 -273 1300 -262 1294 -249 ct 
1288 -236 1285 -219 1284 -199 ct 1465 -199 l  p ef
1661 -295 m  1661 0 l  1605 0 l  1605 -295 l  1558 -295 l  1558 -336 l 
1605 -336 l  1605 -374 l  1605 -386 1606 -397 1609 -408 ct 1611 -418 1615 -427 1621 -435 ct 
1627 -443 1636 -449 1646 -453 ct 1657 -458 1670 -460 1687 -460 ct 1694 -460 1700 -460 1708 -459 ct 
1715 -458 1721 -458 1726 -456 ct 1726 -414 l  1723 -414 1719 -415 1714 -415 ct 
1709 -416 1705 -416 1702 -416 ct 1693 -416 1687 -415 1681 -413 ct 1676 -411 1672 -407 1669 -403 ct 
1666 -399 1664 -394 1663 -387 ct 1662 -381 1661 -374 1661 -366 ct 1661 -336 l 
1726 -336 l  1726 -295 l  1661 -295 l  p ef
1769 -407 m  1769 -460 l  1825 -460 l  1825 -407 l  1769 -407 l  p
1769 1 m  1769 -335 l  1825 -335 l  1825 1 l  1769 1 l  p ef
1910 1 m  1910 -460 l  1966 -460 l  1966 1 l  1910 1 l  p ef
2093 -156 m  2093 -139 2094 -122 2098 -108 ct 2102 -93 2107 -80 2115 -70 ct 
2122 -59 2132 -51 2144 -45 ct 2156 -39 2170 -36 2186 -36 ct 2210 -36 2230 -41 2244 -50 ct 
2259 -60 2269 -72 2274 -87 ct 2323 -73 l  2319 -64 2315 -55 2308 -45 ct 2302 -36 2294 -27 2283 -20 ct 
2272 -12 2259 -6 2243 -1 ct 2228 4 2209 6 2186 6 ct 2137 6 2099 -9 2073 -38 ct 
2047 -68 2034 -112 2034 -170 ct 2034 -202 2038 -228 2046 -250 ct 2054 -272 2064 -290 2078 -303 ct 
2092 -317 2108 -327 2126 -333 ct 2144 -339 2163 -342 2184 -342 ct 2212 -342 2236 -338 2255 -329 ct 
2274 -320 2289 -307 2300 -291 ct 2312 -275 2320 -256 2325 -234 ct 2330 -212 2332 -189 2332 -164 ct 
2332 -156 l  2093 -156 l  p
2274 -199 m  2271 -234 2262 -260 2247 -277 ct 2232 -293 2211 -301 2183 -301 ct 
2174 -301 2164 -300 2154 -296 ct 2144 -293 2134 -288 2125 -280 ct 2117 -273 2109 -262 2103 -249 ct 
2097 -236 2094 -219 2093 -199 ct 2274 -199 l  p ef
2416 0 m  2416 -68 l  2476 -68 l  2476 0 l  2416 0 l  p ef
2664 6 m  2631 6 2605 -3 2588 -21 ct 2571 -39 2563 -63 2563 -94 ct 2563 -117 2567 -135 2576 -149 ct 
2584 -163 2595 -174 2608 -183 ct 2622 -191 2637 -196 2655 -199 ct 2672 -203 2690 -204 2708 -204 ct 
2783 -204 l  2783 -223 l  2783 -237 2782 -248 2779 -258 ct 2776 -268 2771 -276 2765 -282 ct 
2759 -288 2752 -292 2743 -295 ct 2734 -298 2723 -299 2711 -299 ct 2700 -299 2691 -299 2682 -297 ct 
2673 -296 2666 -293 2659 -289 ct 2653 -285 2648 -279 2644 -272 ct 2640 -265 2637 -257 2636 -246 ct 
2578 -251 l  2580 -265 2584 -277 2590 -288 ct 2595 -299 2604 -309 2614 -317 ct 
2625 -325 2638 -331 2654 -335 ct 2670 -340 2690 -342 2712 -342 ct 2755 -342 2786 -332 2808 -313 ct 
2829 -294 2840 -266 2840 -229 ct 2840 -85 l  2840 -68 2842 -55 2846 -47 ct 2850 -39 2859 -35 2871 -35 ct 
2874 -35 2877 -35 2880 -35 ct 2883 -36 2886 -36 2889 -37 ct 2889 -2 l  2882 0 2875 1 2868 2 ct 
2861 3 2854 3 2846 3 ct 2836 3 2826 2 2819 -1 ct 2811 -4 2805 -8 2800 -14 ct 2796 -20 2792 -27 2790 -35 ct 
2787 -43 2786 -53 2785 -64 ct 2783 -64 l  2777 -54 2771 -44 2763 -35 ct 2756 -27 2748 -19 2738 -13 ct 
2729 -7 2718 -2 2706 1 ct 2694 4 2680 6 2664 6 ct p
2677 -36 m  2695 -36 2710 -39 2724 -46 ct 2737 -52 2748 -60 2757 -70 ct 2766 -80 2772 -91 2777 -103 ct 
2781 -115 2783 -127 2783 -138 ct 2783 -165 l  2722 -165 l  2708 -165 2695 -164 2683 -162 ct 
2671 -161 2660 -157 2651 -152 ct 2641 -147 2634 -139 2629 -130 ct 2623 -121 2620 -108 2620 -93 ct 
2620 -75 2625 -61 2635 -51 ct 2645 -41 2659 -36 2677 -36 ct p ef
3125 0 m  3125 -213 l  3125 -229 3124 -243 3122 -254 ct 3120 -265 3116 -274 3112 -280 ct 
3107 -287 3100 -292 3093 -295 ct 3085 -297 3075 -299 3064 -299 ct 3052 -299 3041 -297 3032 -292 ct 
3022 -287 3014 -281 3007 -272 ct 3001 -263 2996 -252 2992 -239 ct 2988 -226 2987 -211 2987 -195 ct 
2987 0 l  2931 0 l  2931 -264 l  2931 -271 2931 -279 2931 -286 ct 2931 -294 2931 -301 2930 -308 ct 
2930 -315 2930 -321 2930 -326 ct 2930 -331 2929 -334 2929 -336 ct 2982 -336 l 
2982 -335 2982 -332 2983 -327 ct 2983 -323 2983 -318 2983 -312 ct 2984 -306 2984 -300 2984 -294 ct 
2984 -288 2984 -283 2984 -278 ct 2985 -278 l  2990 -288 2996 -297 3001 -305 ct 
3007 -313 3014 -319 3022 -325 ct 3029 -330 3038 -335 3048 -338 ct 3058 -341 3070 -342 3083 -342 ct 
3109 -342 3129 -337 3144 -327 ct 3158 -317 3169 -301 3174 -278 ct 3175 -278 l 
3180 -288 3186 -297 3192 -305 ct 3198 -313 3206 -319 3214 -325 ct 3222 -330 3231 -335 3242 -338 ct 
3252 -341 3264 -342 3277 -342 ct 3294 -342 3309 -340 3321 -335 ct 3333 -331 3343 -324 3351 -314 ct 
3359 -305 3365 -292 3369 -277 ct 3372 -262 3374 -244 3374 -224 ct 3374 0 l  3319 0 l 
3319 -213 l  3319 -229 3318 -243 3316 -254 ct 3314 -265 3310 -274 3305 -280 ct 
3301 -287 3294 -292 3286 -295 ct 3279 -297 3269 -299 3258 -299 ct 3246 -299 3235 -297 3226 -292 ct 
3216 -288 3208 -281 3201 -272 ct 3195 -264 3189 -253 3186 -240 ct 3182 -227 3180 -212 3180 -195 ct 
3180 0 l  3125 0 l  p ef
pom
0.996 c 9255 11794 m  13066 11794 l  13066 13325 l  11557 13313 11608 13626 10246 13700 ct 
9759 13655 9581 13620 9255 13569 ct 9255 11794 l  p ef
0.000 c 9255 11794 m  13066 11794 l  13066 13325 l  11557 13313 11608 13626 10246 13700 ct 
9759 13655 9581 13620 9255 13569 ct 9255 11794 l  pc
pum
9647 12780 t
424 0 m  424 -292 l  424 -302 424 -313 424 -324 ct 424 -335 424 -345 425 -354 ct 
425 -365 426 -375 426 -385 ct 423 -374 420 -364 417 -353 ct 415 -345 412 -335 409 -325 ct 
405 -315 402 -306 399 -298 ct 286 0 l  245 0 l  130 -298 l  129 -301 128 -305 126 -309 ct 
125 -313 124 -317 122 -322 ct 120 -327 119 -331 117 -336 ct 116 -341 114 -346 113 -351 ct 
109 -362 106 -373 103 -385 ct 103 -373 103 -362 104 -350 ct 104 -341 104 -330 104 -320 ct 
105 -309 105 -300 105 -292 ct 105 0 l  52 0 l  52 -437 l  130 -437 l  246 -134 l 
248 -130 249 -125 251 -118 ct 254 -112 255 -105 257 -98 ct 259 -91 261 -85 262 -79 ct 
264 -73 265 -68 266 -65 ct 266 -68 267 -73 269 -79 ct 271 -85 273 -92 275 -98 ct 
277 -105 279 -112 281 -118 ct 283 -125 285 -130 287 -134 ct 401 -437 l  477 -437 l 
477 0 l  424 0 l  p ef
657 6 m  624 6 598 -3 581 -21 ct 564 -39 556 -63 556 -94 ct 556 -117 560 -135 569 -149 ct 
577 -163 588 -174 601 -183 ct 615 -191 630 -196 648 -199 ct 665 -203 683 -204 701 -204 ct 
776 -204 l  776 -223 l  776 -237 775 -248 772 -258 ct 769 -268 764 -276 758 -282 ct 
752 -288 745 -292 736 -295 ct 727 -298 716 -299 704 -299 ct 693 -299 684 -299 675 -297 ct 
666 -296 659 -293 652 -289 ct 646 -285 641 -279 637 -272 ct 633 -265 630 -257 629 -246 ct 
571 -251 l  573 -265 577 -277 583 -288 ct 588 -299 597 -309 607 -317 ct 618 -325 631 -331 647 -335 ct 
663 -340 683 -342 705 -342 ct 748 -342 779 -332 801 -313 ct 822 -294 833 -266 833 -229 ct 
833 -85 l  833 -68 835 -55 839 -47 ct 843 -39 852 -35 864 -35 ct 867 -35 870 -35 873 -35 ct 
876 -36 879 -36 882 -37 ct 882 -2 l  875 0 868 1 861 2 ct 854 3 847 3 839 3 ct 
829 3 819 2 812 -1 ct 804 -4 798 -8 793 -14 ct 789 -20 785 -27 783 -35 ct 780 -43 779 -53 778 -64 ct 
776 -64 l  770 -54 764 -44 756 -35 ct 749 -27 741 -19 731 -13 ct 722 -7 711 -2 699 1 ct 
687 4 673 6 657 6 ct p
670 -36 m  688 -36 703 -39 717 -46 ct 730 -52 741 -60 750 -70 ct 759 -80 765 -91 770 -103 ct 
774 -115 776 -127 776 -138 ct 776 -165 l  715 -165 l  701 -165 688 -164 676 -162 ct 
664 -161 653 -157 644 -152 ct 634 -147 627 -139 622 -130 ct 616 -121 613 -108 613 -93 ct 
613 -75 618 -61 628 -51 ct 638 -41 652 -36 670 -36 ct p ef
1134 1 m  1021 -153 l  980 -119 l  980 1 l  924 1 l  924 -460 l  980 -460 l 
980 -172 l  1127 -335 l  1192 -335 l  1056 -191 l  1199 1 l  1134 1 l 
p ef
1284 -156 m  1284 -139 1285 -122 1289 -108 ct 1293 -93 1298 -80 1306 -70 ct 
1313 -59 1323 -51 1335 -45 ct 1347 -39 1361 -36 1377 -36 ct 1401 -36 1421 -41 1435 -50 ct 
1450 -60 1460 -72 1465 -87 ct 1514 -73 l  1510 -64 1506 -55 1499 -45 ct 1493 -36 1485 -27 1474 -20 ct 
1463 -12 1450 -6 1434 -1 ct 1419 4 1400 6 1377 6 ct 1328 6 1290 -9 1264 -38 ct 
1238 -68 1225 -112 1225 -170 ct 1225 -202 1229 -228 1237 -250 ct 1245 -272 1255 -290 1269 -303 ct 
1283 -317 1299 -327 1317 -333 ct 1335 -339 1354 -342 1375 -342 ct 1403 -342 1427 -338 1446 -329 ct 
1465 -320 1480 -307 1491 -291 ct 1503 -275 1511 -256 1516 -234 ct 1521 -212 1523 -189 1523 -164 ct 
1523 -156 l  1284 -156 l  p
1465 -199 m  1462 -234 1453 -260 1438 -277 ct 1423 -293 1402 -301 1374 -301 ct 
1365 -301 1355 -300 1345 -296 ct 1335 -293 1325 -288 1316 -280 ct 1308 -273 1300 -262 1294 -249 ct 
1288 -236 1285 -219 1284 -199 ct 1465 -199 l  p ef
1661 -295 m  1661 0 l  1605 0 l  1605 -295 l  1558 -295 l  1558 -336 l 
1605 -336 l  1605 -374 l  1605 -386 1606 -397 1609 -408 ct 1611 -418 1615 -427 1621 -435 ct 
1627 -443 1636 -449 1646 -453 ct 1657 -458 1670 -460 1687 -460 ct 1694 -460 1700 -460 1708 -459 ct 
1715 -458 1721 -458 1726 -456 ct 1726 -414 l  1723 -414 1719 -415 1714 -415 ct 
1709 -416 1705 -416 1702 -416 ct 1693 -416 1687 -415 1681 -413 ct 1676 -411 1672 -407 1669 -403 ct 
1666 -399 1664 -394 1663 -387 ct 1662 -381 1661 -374 1661 -366 ct 1661 -336 l 
1726 -336 l  1726 -295 l  1661 -295 l  p ef
1769 -407 m  1769 -460 l  1825 -460 l  1825 -407 l  1769 -407 l  p
1769 1 m  1769 -335 l  1825 -335 l  1825 1 l  1769 1 l  p ef
1910 1 m  1910 -460 l  1966 -460 l  1966 1 l  1910 1 l  p ef
2093 -156 m  2093 -139 2094 -122 2098 -108 ct 2102 -93 2107 -80 2115 -70 ct 
2122 -59 2132 -51 2144 -45 ct 2156 -39 2170 -36 2186 -36 ct 2210 -36 2230 -41 2244 -50 ct 
2259 -60 2269 -72 2274 -87 ct 2323 -73 l  2319 -64 2315 -55 2308 -45 ct 2302 -36 2294 -27 2283 -20 ct 
2272 -12 2259 -6 2243 -1 ct 2228 4 2209 6 2186 6 ct 2137 6 2099 -9 2073 -38 ct 
2047 -68 2034 -112 2034 -170 ct 2034 -202 2038 -228 2046 -250 ct 2054 -272 2064 -290 2078 -303 ct 
2092 -317 2108 -327 2126 -333 ct 2144 -339 2163 -342 2184 -342 ct 2212 -342 2236 -338 2255 -329 ct 
2274 -320 2289 -307 2300 -291 ct 2312 -275 2320 -256 2325 -234 ct 2330 -212 2332 -189 2332 -164 ct 
2332 -156 l  2093 -156 l  p
2274 -199 m  2271 -234 2262 -260 2247 -277 ct 2232 -293 2211 -301 2183 -301 ct 
2174 -301 2164 -300 2154 -296 ct 2144 -293 2134 -288 2125 -280 ct 2117 -273 2109 -262 2103 -249 ct 
2097 -236 2094 -219 2093 -199 ct 2274 -199 l  p ef
2416 0 m  2416 -68 l  2476 -68 l  2476 0 l  2416 0 l  p ef
2578 -407 m  2578 -460 l  2634 -460 l  2634 -407 l  2578 -407 l  p
2578 1 m  2578 -335 l  2634 -335 l  2634 1 l  2578 1 l  p ef
2931 0 m  2931 -213 l  2931 -229 2930 -243 2927 -254 ct 2925 -265 2921 -274 2916 -280 ct 
2910 -287 2903 -292 2894 -295 ct 2886 -297 2875 -299 2862 -299 ct 2848 -299 2836 -297 2826 -292 ct 
2815 -287 2806 -281 2799 -272 ct 2791 -263 2785 -252 2781 -239 ct 2777 -226 2775 -211 2775 -195 ct 
2775 0 l  2719 0 l  2719 -264 l  2719 -271 2719 -279 2719 -286 ct 2719 -294 2719 -301 2718 -308 ct 
2718 -315 2718 -321 2718 -326 ct 2718 -331 2717 -334 2717 -336 ct 2770 -336 l 
2770 -335 2770 -332 2771 -327 ct 2771 -323 2771 -318 2771 -312 ct 2772 -306 2772 -300 2772 -294 ct 
2772 -288 2772 -283 2772 -278 ct 2773 -278 l  2779 -288 2785 -297 2791 -305 ct 
2797 -313 2805 -319 2813 -325 ct 2822 -330 2831 -335 2842 -338 ct 2853 -341 2866 -342 2881 -342 ct 
2899 -342 2915 -340 2929 -335 ct 2942 -331 2953 -324 2962 -314 ct 2970 -305 2977 -292 2981 -277 ct 
2985 -262 2987 -244 2987 -224 ct 2987 0 l  2931 0 l  p ef
pom
0.996 c 9255 19414 m  13066 19414 l  13066 20945 l  11557 20933 11608 21246 10246 21320 ct 
9759 21275 9581 21240 9255 21189 ct 9255 19414 l  p ef
0.000 c 9255 19414 m  13066 19414 l  13066 20945 l  11557 20933 11608 21246 10246 21320 ct 
9759 21275 9581 21240 9255 21189 ct 9255 19414 l  pc
pum
9982 20400 t
424 0 m  424 -292 l  424 -302 424 -313 424 -324 ct 424 -335 424 -345 425 -354 ct 
425 -365 426 -375 426 -385 ct 423 -374 420 -364 417 -353 ct 415 -345 412 -335 409 -325 ct 
405 -315 402 -306 399 -298 ct 286 0 l  245 0 l  130 -298 l  129 -301 128 -305 126 -309 ct 
125 -313 124 -317 122 -322 ct 120 -327 119 -331 117 -336 ct 116 -341 114 -346 113 -351 ct 
109 -362 106 -373 103 -385 ct 103 -373 103 -362 104 -350 ct 104 -341 104 -330 104 -320 ct 
105 -309 105 -300 105 -292 ct 105 0 l  52 0 l  52 -437 l  130 -437 l  246 -134 l 
248 -130 249 -125 251 -118 ct 254 -112 255 -105 257 -98 ct 259 -91 261 -85 262 -79 ct 
264 -73 265 -68 266 -65 ct 266 -68 267 -73 269 -79 ct 271 -85 273 -92 275 -98 ct 
277 -105 279 -112 281 -118 ct 283 -125 285 -130 287 -134 ct 401 -437 l  477 -437 l 
477 0 l  424 0 l  p ef
657 6 m  624 6 598 -3 581 -21 ct 564 -39 556 -63 556 -94 ct 556 -117 560 -135 569 -149 ct 
577 -163 588 -174 601 -183 ct 615 -191 630 -196 648 -199 ct 665 -203 683 -204 701 -204 ct 
776 -204 l  776 -223 l  776 -237 775 -248 772 -258 ct 769 -268 764 -276 758 -282 ct 
752 -288 745 -292 736 -295 ct 727 -298 716 -299 704 -299 ct 693 -299 684 -299 675 -297 ct 
666 -296 659 -293 652 -289 ct 646 -285 641 -279 637 -272 ct 633 -265 630 -257 629 -246 ct 
571 -251 l  573 -265 577 -277 583 -288 ct 588 -299 597 -309 607 -317 ct 618 -325 631 -331 647 -335 ct 
663 -340 683 -342 705 -342 ct 748 -342 779 -332 801 -313 ct 822 -294 833 -266 833 -229 ct 
833 -85 l  833 -68 835 -55 839 -47 ct 843 -39 852 -35 864 -35 ct 867 -35 870 -35 873 -35 ct 
876 -36 879 -36 882 -37 ct 882 -2 l  875 0 868 1 861 2 ct 854 3 847 3 839 3 ct 
829 3 819 2 812 -1 ct 804 -4 798 -8 793 -14 ct 789 -20 785 -27 783 -35 ct 780 -43 779 -53 778 -64 ct 
776 -64 l  770 -54 764 -44 756 -35 ct 749 -27 741 -19 731 -13 ct 722 -7 711 -2 699 1 ct 
687 4 673 6 657 6 ct p
670 -36 m  688 -36 703 -39 717 -46 ct 730 -52 741 -60 750 -70 ct 759 -80 765 -91 770 -103 ct 
774 -115 776 -127 776 -138 ct 776 -165 l  715 -165 l  701 -165 688 -164 676 -162 ct 
664 -161 653 -157 644 -152 ct 634 -147 627 -139 622 -130 ct 616 -121 613 -108 613 -93 ct 
613 -75 618 -61 628 -51 ct 638 -41 652 -36 670 -36 ct p ef
1134 1 m  1021 -153 l  980 -119 l  980 1 l  924 1 l  924 -460 l  980 -460 l 
980 -172 l  1127 -335 l  1192 -335 l  1056 -191 l  1199 1 l  1134 1 l 
p ef
1284 -156 m  1284 -139 1285 -122 1289 -108 ct 1293 -93 1298 -80 1306 -70 ct 
1313 -59 1323 -51 1335 -45 ct 1347 -39 1361 -36 1377 -36 ct 1401 -36 1421 -41 1435 -50 ct 
1450 -60 1460 -72 1465 -87 ct 1514 -73 l  1510 -64 1506 -55 1499 -45 ct 1493 -36 1485 -27 1474 -20 ct 
1463 -12 1450 -6 1434 -1 ct 1419 4 1400 6 1377 6 ct 1328 6 1290 -9 1264 -38 ct 
1238 -68 1225 -112 1225 -170 ct 1225 -202 1229 -228 1237 -250 ct 1245 -272 1255 -290 1269 -303 ct 
1283 -317 1299 -327 1317 -333 ct 1335 -339 1354 -342 1375 -342 ct 1403 -342 1427 -338 1446 -329 ct 
1465 -320 1480 -307 1491 -291 ct 1503 -275 1511 -256 1516 -234 ct 1521 -212 1523 -189 1523 -164 ct 
1523 -156 l  1284 -156 l  p
1465 -199 m  1462 -234 1453 -260 1438 -277 ct 1423 -293 1402 -301 1374 -301 ct 
1365 -301 1355 -300 1345 -296 ct 1335 -293 1325 -288 1316 -280 ct 1308 -273 1300 -262 1294 -249 ct 
1288 -236 1285 -219 1284 -199 ct 1465 -199 l  p ef
1661 -295 m  1661 0 l  1605 0 l  1605 -295 l  1558 -295 l  1558 -336 l 
1605 -336 l  1605 -374 l  1605 -386 1606 -397 1609 -408 ct 1611 -418 1615 -427 1621 -435 ct 
1627 -443 1636 -449 1646 -453 ct 1657 -458 1670 -460 1687 -460 ct 1694 -460 1700 -460 1708 -459 ct 
1715 -458 1721 -458 1726 -456 ct 1726 -414 l  1723 -414 1719 -415 1714 -415 ct 
1709 -416 1705 -416 1702 -416 ct 1693 -416 1687 -415 1681 -413 ct 1676 -411 1672 -407 1669 -403 ct 
1666 -399 1664 -394 1663 -387 ct 1662 -381 1661 -374 1661 -366 ct 1661 -336 l 
1726 -336 l  1726 -295 l  1661 -295 l  p ef
1769 -407 m  1769 -460 l  1825 -460 l  1825 -407 l  1769 -407 l  p
1769 1 m  1769 -335 l  1825 -335 l  1825 1 l  1769 1 l  p ef
1910 1 m  1910 -460 l  1966 -460 l  1966 1 l  1910 1 l  p ef
2093 -156 m  2093 -139 2094 -122 2098 -108 ct 2102 -93 2107 -80 2115 -70 ct 
2122 -59 2132 -51 2144 -45 ct 2156 -39 2170 -36 2186 -36 ct 2210 -36 2230 -41 2244 -50 ct 
2259 -60 2269 -72 2274 -87 ct 2323 -73 l  2319 -64 2315 -55 2308 -45 ct 2302 -36 2294 -27 2283 -20 ct 
2272 -12 2259 -6 2243 -1 ct 2228 4 2209 6 2186 6 ct 2137 6 2099 -9 2073 -38 ct 
2047 -68 2034 -112 2034 -170 ct 2034 -202 2038 -228 2046 -250 ct 2054 -272 2064 -290 2078 -303 ct 
2092 -317 2108 -327 2126 -333 ct 2144 -339 2163 -342 2184 -342 ct 2212 -342 2236 -338 2255 -329 ct 
2274 -320 2289 -307 2300 -291 ct 2312 -275 2320 -256 2325 -234 ct 2330 -212 2332 -189 2332 -164 ct 
2332 -156 l  2093 -156 l  p
2274 -199 m  2271 -234 2262 -260 2247 -277 ct 2232 -293 2211 -301 2183 -301 ct 
2174 -301 2164 -300 2154 -296 ct 2144 -293 2134 -288 2125 -280 ct 2117 -273 2109 -262 2103 -249 ct 
2097 -236 2094 -219 2093 -199 ct 2274 -199 l  p ef
pom
1 lw 0 lj 4809 3427 m  4809 6355 l  ps
4809 6715 m  4959 6265 l  4659 6265 l  4809 6715 l  p ef
4809 8620 m  4809 16557 l  8895 16557 l  ps
9255 16557 m  8805 16407 l  8805 16707 l  9255 16557 l  p ef
11159 3427 m  11159 6355 l  ps
11159 6715 m  11309 6265 l  11009 6265 l  11159 6715 l  p ef
11159 8620 m  11159 11435 l  ps
11159 11795 m  11309 11345 l  11009 11345 l  11159 11795 l  p ef
11159 13587 m  11159 15245 l  ps
11159 15605 m  11309 15155 l  11009 15155 l  11159 15605 l  p ef
11159 17510 m  11159 19055 l  ps
11159 19415 m  11309 18965 l  11009 18965 l  11159 19415 l  p ef
11160 22616 m  10652 22616 l  10652 22590 l  10652 22565 l  11160 22565 l 
11160 22590 l  11160 22616 l  p ef
10144 22616 m  9636 22616 l  9636 22590 l  9636 22565 l  10144 22565 l 
10144 22590 l  10144 22616 l  p ef
9128 22616 m  8620 22616 l  8620 22590 l  8620 22565 l  9128 22565 l  9128 22590 l 
9128 22616 l  p ef
8112 22616 m  7604 22616 l  7604 22590 l  7604 22565 l  8112 22565 l  8112 22590 l 
8112 22616 l  p ef
7325 22336 m  7325 21828 l  7350 21828 l  7376 21828 l  7376 22336 l  7350 22336 l 
7325 22336 l  p ef
7325 21320 m  7325 20812 l  7350 20812 l  7376 20812 l  7376 21320 l  7350 21320 l 
7325 21320 l  p ef
7325 20304 m  7325 19796 l  7350 19796 l  7376 19796 l  7376 20304 l  7350 20304 l 
7325 20304 l  p ef
7325 19288 m  7325 18780 l  7350 18780 l  7376 18780 l  7376 19288 l  7350 19288 l 
7325 19288 l  p ef
7325 18272 m  7325 17764 l  7350 17764 l  7376 17764 l  7376 18272 l  7350 18272 l 
7325 18272 l  p ef
7325 17256 m  7325 16748 l  7350 16748 l  7376 16748 l  7376 17256 l  7350 17256 l 
7325 17256 l  p ef
7325 16240 m  7325 15732 l  7350 15732 l  7376 15732 l  7376 16240 l  7350 16240 l 
7325 16240 l  p ef
7325 15224 m  7325 14716 l  7350 14716 l  7376 14716 l  7376 15224 l  7350 15224 l 
7325 15224 l  p ef
7325 14208 m  7325 13700 l  7350 13700 l  7376 13700 l  7376 14208 l  7350 14208 l 
7325 14208 l  p ef
7325 13192 m  7325 12684 l  7350 12684 l  7376 12684 l  7376 13192 l  7350 13192 l 
7325 13192 l  p ef
7325 12176 m  7325 11668 l  7350 11668 l  7376 11668 l  7376 12176 l  7350 12176 l 
7325 12176 l  p ef
7325 11160 m  7325 10652 l  7350 10652 l  7376 10652 l  7376 11160 l  7350 11160 l 
7325 11160 l  p ef
7325 10144 m  7325 9890 l  7350 9890 l  7376 9890 l  7376 10144 l  7350 10144 l 
7325 10144 l  p ef
7350 9865 m  7350 9890 l  7325 9890 l  7350 9865 l  p ef
7350 9865 m  7604 9865 l  7604 9890 l  7604 9916 l  7350 9916 l  7350 9890 l 
7350 9865 l  p ef
8112 9865 m  8620 9865 l  8620 9890 l  8620 9916 l  8112 9916 l  8112 9890 l 
8112 9865 l  p ef
9128 9865 m  9636 9865 l  9636 9890 l  9636 9916 l  9128 9916 l  9128 9890 l 
9128 9865 l  p ef
10144 9865 m  10652 9865 l  10652 9890 l  10652 9916 l  10144 9916 l  10144 9890 l 
10144 9865 l  p ef
11160 9865 m  11668 9865 l  11668 9890 l  11668 9916 l  11160 9916 l  11160 9890 l 
11160 9865 l  p ef
12176 9865 m  12684 9865 l  12684 9890 l  12684 9916 l  12176 9916 l  12176 9890 l 
12176 9865 l  p ef
13192 9865 m  13700 9865 l  13700 9890 l  13700 9916 l  13192 9916 l  13192 9890 l 
13192 9865 l  p ef
14208 9865 m  14716 9865 l  14716 9890 l  14716 9916 l  14208 9916 l  14208 9890 l 
14208 9865 l  p ef
14996 10144 m  14996 10652 l  14970 10652 l  14945 10652 l  14945 10144 l 
14970 10144 l  14996 10144 l  p ef
14996 11160 m  14996 11668 l  14970 11668 l  14945 11668 l  14945 11160 l 
14970 11160 l  14996 11160 l  p ef
14996 12176 m  14996 12684 l  14970 12684 l  14945 12684 l  14945 12176 l 
14970 12176 l  14996 12176 l  p ef
14996 13192 m  14996 13700 l  14970 13700 l  14945 13700 l  14945 13192 l 
14970 13192 l  14996 13192 l  p ef
14996 14208 m  14996 14716 l  14970 14716 l  14945 14716 l  14945 14208 l 
14970 14208 l  14996 14208 l  p ef
14996 15224 m  14996 15732 l  14970 15732 l  14945 15732 l  14945 15224 l 
14970 15224 l  14996 15224 l  p ef
14996 16240 m  14996 16748 l  14970 16748 l  14945 16748 l  14945 16240 l 
14970 16240 l  14996 16240 l  p ef
14996 17256 m  14996 17764 l  14970 17764 l  14945 17764 l  14945 17256 l 
14970 17256 l  14996 17256 l  p ef
14996 18272 m  14996 18780 l  14970 18780 l  14945 18780 l  14945 18272 l 
14970 18272 l  14996 18272 l  p ef
14996 19288 m  14996 19796 l  14970 19796 l  14945 19796 l  14945 19288 l 
14970 19288 l  14996 19288 l  p ef
14996 20304 m  14996 20812 l  14970 20812 l  14945 20812 l  14945 20304 l 
14970 20304 l  14996 20304 l  p ef
14996 21320 m  14996 21828 l  14970 21828 l  14945 21828 l  14945 21320 l 
14970 21320 l  14996 21320 l  p ef
14996 22336 m  14996 22590 l  14970 22590 l  14945 22590 l  14945 22336 l 
14970 22336 l  14996 22336 l  p ef
14970 22616 m  14970 22590 l  14996 22590 l  14970 22616 l  p ef
14970 22616 m  14716 22616 l  14716 22590 l  14716 22565 l  14970 22565 l 
14970 22590 l  14970 22616 l  p ef
14208 22616 m  13700 22616 l  13700 22590 l  13700 22565 l  14208 22565 l 
14208 22590 l  14208 22616 l  p ef
13192 22616 m  12684 22616 l  12684 22590 l  12684 22565 l  13192 22565 l 
13192 22590 l  13192 22616 l  p ef
12176 22616 m  11668 22616 l  11668 22590 l  11668 22565 l  12176 22565 l 
12176 22590 l  12176 22616 l  p ef
0 lw 1 lj 4809 3427 m  4809 5744 11143 4507 11143 5902 ct ps
0 20984 t 
pom
count op_count sub {pop} repeat countdictstack dict_count sub {end} repeat b4_inc_state restore
%%PageTrailer
%%Trailer
%%EOF
